cva6-model/lsu_traces/su_traces/test_5/store_unit_model_wave_pipeline.vcd
$date
	Sun Apr 16 19:44:41 2023
$end
$version
	Icarus Verilog
$end
$timescale
	1s
$end
$scope module store_unit_model_tb $end
$var wire 65 ! de_io_amo_resp_i [64:0] $end
$var wire 1 " de_io_amo_valid_commit_i $end
$var wire 1 # de_io_commit_i $end
$var wire 1 $ de_io_dtlb_hit_i $end
$var wire 65 % de_io_ex_i [64:0] $end
$var wire 1 & de_io_flush_i $end
$var wire 32 ' de_io_instr_i [31:0] $end
$var wire 1 ( de_io_instr_valid_i $end
$var wire 12 ) de_io_page_offset_i [11:0] $end
$var wire 35 * de_io_req_port_i [34:0] $end
$var wire 32 + de_io_result_o [31:0] $end
$var wire 1 , de_io_store_mem_resp_i $end
$var wire 1 - de_io_valid_i $end
$var wire 1 . de_io_valid_o $end
$var wire 32 / de_io_vaddr_o [31:0] $end
$var wire 1 0 de_io_translation_req_o $end
$var wire 3 1 de_io_trans_id_o [2:0] $end
$var wire 1 2 de_io_store_buffer_empty_o $end
$var wire 77 3 de_io_req_port_o [76:0] $end
$var wire 1 4 de_io_pop_st_o $end
$var wire 1 5 de_io_page_offset_matches_o $end
$var wire 34 6 de_io_paddr_i [33:0] $end
$var wire 1 7 de_io_no_st_pending_o $end
$var wire 85 8 de_io_lsu_ctrl_i [84:0] $end
$var wire 65 9 de_io_ex_o [64:0] $end
$var wire 1 : de_io_commit_ready_o $end
$var wire 135 ; de_io_amo_req_o [134:0] $end
$var reg 32 < CLK_CYCLE [31:0] $end
$var reg 1 = choice_core $end
$var reg 2 > choice_mem [1:0] $end
$var reg 1 ? clk $end
$var reg 32 @ data [31:0] $end
$var reg 12 A poffset [11:0] $end
$var reg 1 B reset $end
$var reg 2 C store_seen [1:0] $end
$var reg 1 D tb_io_commit_i $end
$var reg 32 E tb_io_instr_i [31:0] $end
$var reg 1 F tb_io_instr_valid_i $end
$var reg 85 G tb_io_lsu_ctrl_i [84:0] $end
$var reg 34 H tb_io_paddr_i [33:0] $end
$var reg 12 I tb_io_page_offset_i [11:0] $end
$var reg 35 J tb_io_req_port_i [34:0] $end
$var reg 1 K tb_io_store_mem_resp_i $end
$var reg 1 L tb_io_valid_i $end
$var reg 34 M vaddr [33:0] $end
$var integer 32 N i [31:0] $end
$var integer 32 O seed [31:0] $end
$scope module su_i $end
$var wire 1 P amo_buffer_ready $end
$var wire 1 Q amo_buffer_valid $end
$var wire 65 R amo_resp_i [64:0] $end
$var wire 1 " amo_valid_commit_i $end
$var wire 1 ? clk_i $end
$var wire 1 # commit_i $end
$var wire 1 $ dtlb_hit_i $end
$var wire 65 S ex_i [64:0] $end
$var wire 1 & flush_i $end
$var wire 85 T lsu_ctrl_i [84:0] $end
$var wire 34 U paddr_i [33:0] $end
$var wire 12 V page_offset_i [11:0] $end
$var wire 35 W req_port_i [34:0] $end
$var wire 32 X result_o [31:0] $end
$var wire 1 B rst_ni $end
$var wire 1 Y st_ready $end
$var wire 1 Z store_buffer_valid $end
$var wire 3 [ trans_id_o [2:0] $end
$var wire 1 - valid_i $end
$var wire 32 \ vaddr_o [31:0] $end
$var wire 1 ] store_buffer_ready $end
$var wire 1 2 store_buffer_empty_o $end
$var wire 77 ^ req_port_o [76:0] $end
$var wire 1 5 page_offset_matches_o $end
$var wire 1 7 no_st_pending_o $end
$var wire 1 _ instr_is_amo $end
$var wire 1 : commit_ready_o $end
$var wire 135 ` amo_req_o [134:0] $end
$var reg 4 a amo_op_d [3:0] $end
$var reg 4 b amo_op_q [3:0] $end
$var reg 65 c ex_o [64:0] $end
$var reg 1 4 pop_st_o $end
$var reg 4 d st_be_n [3:0] $end
$var reg 4 e st_be_q [3:0] $end
$var reg 32 f st_data_n [31:0] $end
$var reg 32 g st_data_q [31:0] $end
$var reg 2 h st_data_size_n [1:0] $end
$var reg 2 i st_data_size_q [1:0] $end
$var reg 1 j st_valid $end
$var reg 1 k st_valid_without_flush $end
$var reg 2 l state_d [1:0] $end
$var reg 2 m state_q [1:0] $end
$var reg 3 n trans_id_n [2:0] $end
$var reg 3 o trans_id_q [2:0] $end
$var reg 1 0 translation_req_o $end
$var reg 1 . valid_o $end
$scope function ariane_pkg_data_align $end
$upscope $end
$scope function ariane_pkg_extract_transfer_size $end
$upscope $end
$scope function ariane_pkg_is_amo $end
$upscope $end
$scope module i_amo_buffer $end
$var wire 72 p amo_data_out [71:0] $end
$var wire 4 q amo_op_i [3:0] $end
$var wire 65 r amo_resp_i [64:0] $end
$var wire 1 s amo_valid $end
$var wire 1 " amo_valid_commit_i $end
$var wire 1 ? clk_i $end
$var wire 32 t data_i [31:0] $end
$var wire 2 u data_size_i [1:0] $end
$var wire 1 v flush_amo_buffer $end
$var wire 1 & flush_i $end
$var wire 34 w paddr_i [33:0] $end
$var wire 1 P ready_o $end
$var wire 1 B rst_ni $end
$var wire 1 Q valid_i $end
$var wire 1 7 no_st_pending_i $end
$var wire 135 x amo_req_o [134:0] $end
$var wire 72 y amo_data_in [71:0] $end
$upscope $end
$scope module store_buffer_i $end
$var wire 4 z be_i [3:0] $end
$var wire 1 ? clk_i $end
$var wire 1 # commit_i $end
$var wire 32 { data_i [31:0] $end
$var wire 2 | data_size_i [1:0] $end
$var wire 1 & flush_i $end
$var wire 34 } paddr_i [33:0] $end
$var wire 12 ~ page_offset_i [11:0] $end
$var wire 35 !" req_port_i [34:0] $end
$var wire 1 B rst_ni $end
$var wire 1 2 store_buffer_empty_o $end
$var wire 1 "" sv2v_tmp_80AC7 [1:1] $end
$var wire 1 #" sv2v_tmp_A682E [1:1] $end
$var wire 1 $" sv2v_tmp_F170F [1:1] $end
$var wire 1 Z valid_i $end
$var wire 1 k valid_without_flush_i $end
$var wire 12 %" sv2v_tmp_9099D [12:1] $end
$var wire 4 &" sv2v_tmp_8DCF7 [4:1] $end
$var wire 22 '" sv2v_tmp_71805 [22:1] $end
$var wire 32 (" sv2v_tmp_6B7F3 [32:1] $end
$var wire 2 )" sv2v_tmp_51F0D [2:1] $end
$var wire 2 *" state_q_3 [1:0] $end
$var wire 2 +" state_q_2 [1:0] $end
$var wire 2 ," state_q_1 [1:0] $end
$var wire 2 -" state_q_0 [1:0] $end
$var reg 292 ." commit_queue_n [291:0] $end
$var reg 292 /" commit_queue_q [291:0] $end
$var reg 2 0" commit_read_pointer_n [1:0] $end
$var reg 2 1" commit_read_pointer_q [1:0] $end
$var reg 1 : commit_ready_o $end
$var reg 3 2" commit_status_cnt_n [2:0] $end
$var reg 3 3" commit_status_cnt_q [2:0] $end
$var reg 2 4" commit_write_pointer_n [1:0] $end
$var reg 2 5" commit_write_pointer_q [1:0] $end
$var reg 1 7 no_st_pending_o $end
$var reg 1 5 page_offset_matches_o $end
$var reg 1 ] ready_o $end
$var reg 77 6" req_port_o [76:0] $end
$var reg 292 7" speculative_queue_n [291:0] $end
$var reg 292 8" speculative_queue_q [291:0] $end
$var reg 2 9" speculative_read_pointer_n [1:0] $end
$var reg 2 :" speculative_read_pointer_q [1:0] $end
$var reg 3 ;" speculative_status_cnt_n [2:0] $end
$var reg 3 <" speculative_status_cnt_q [2:0] $end
$var reg 2 =" speculative_write_pointer_n [1:0] $end
$var reg 2 >" speculative_write_pointer_q [1:0] $end
$scope function sv2v_cast_79500 $end
$upscope $end
$scope begin core_if $end
$var reg 5 ?" speculative_status_cnt [4:0] $end
$scope begin sv2v_autoblock_1 $end
$var reg 32 @" i [31:0] $end
$upscope $end
$upscope $end
$scope begin p_commit $end
$upscope $end
$scope begin p_spec $end
$upscope $end
$scope begin store_if $end
$var reg 5 A" commit_status_cnt [4:0] $end
$upscope $end
$scope begin sv2v_autoblock_2 $end
$var reg 2 B" _sv2v_jump [0:1] $end
$scope begin address_checker $end
$scope begin sv2v_autoblock_3 $end
$var reg 32 C" i [31:0] $end
$scope begin sv2v_autoblock_4 $end
$var reg 32 D" _sv2v_value_on_break [31:0] $end
$upscope $end
$upscope $end
$scope begin sv2v_autoblock_5 $end
$var reg 32 E" i [31:0] $end
$scope begin sv2v_autoblock_6 $end
$var reg 32 F" _sv2v_value_on_break [31:0] $end
$upscope $end
$upscope $end
$upscope $end
$upscope $end
$upscope $end
$scope begin store_control $end
$upscope $end
$upscope $end
$scope module su_model_i $end
$var wire 1 ? clk_i $end
$var wire 1 D commit_i $end
$var wire 32 G" instr_i [31:0] $end
$var wire 1 ( instr_valid_i $end
$var wire 12 H" page_offset_i [11:0] $end
$var wire 1 I" page_offset_matches_o $end
$var wire 1 B rst_ni $end
$var wire 1 , store_mem_resp_i $end
$var wire 1 J" ready_o $end
$var reg 32 K" CLK_CYCLE [31:0] $end
$var reg 8 L" instr_i_pc [7:0] $end
$var reg 2 M" queue_commit_ptr [1:0] $end
$var reg 2 N" queue_serve_ptr [1:0] $end
$var reg 2 O" queue_store_ptr [1:0] $end
$var reg 32 P" store_instr_i_queue_flatten_0 [31:0] $end
$var reg 8 Q" store_instr_i_queue_flatten_0_pc [7:0] $end
$var reg 32 R" store_instr_i_queue_flatten_1 [31:0] $end
$var reg 8 S" store_instr_i_queue_flatten_1_pc [7:0] $end
$var reg 32 T" store_instr_i_queue_flatten_2 [31:0] $end
$var reg 8 U" store_instr_i_queue_flatten_2_pc [7:0] $end
$var reg 32 V" store_instr_i_queue_flatten_3 [31:0] $end
$var reg 8 W" store_instr_i_queue_flatten_3_pc [7:0] $end
$var reg 2 X" store_instr_queue_state_flatten_0 [1:0] $end
$var reg 2 Y" store_instr_queue_state_flatten_1 [1:0] $end
$var reg 2 Z" store_instr_queue_state_flatten_2 [1:0] $end
$var reg 2 [" store_instr_queue_state_flatten_3 [1:0] $end
$upscope $end
$scope task lower_commit $end
$upscope $end
$scope task lower_memory_grant $end
$upscope $end
$scope task lower_store_request $end
$upscope $end
$scope task raise_commit $end
$upscope $end
$scope task raise_memory_grant $end
$upscope $end
$scope task raise_store_request $end
$var reg 32 \" data [31:0] $end
$var reg 32 ]" vaddr [31:0] $end
$upscope $end
$scope task set_page_offset $end
$var reg 12 ^" page_offset [11:0] $end
$upscope $end
$upscope $end
$enddefinitions $end
#0
$dumpvars
bx ^"
bx ]"
bx \"
bx ["
bx Z"
bx Y"
bx X"
bx W"
bx V"
bx U"
bx T"
bx S"
bx R"
bx Q"
bx P"
bx O"
bx N"
bx M"
bx L"
bx K"
xJ"
xI"
bz H"
bx G"
b11 F"
b100 E"
b11 D"
b100 C"
b0 B"
b0xxx A"
bx @"
b0xxx ?"
bx >"
bx ="
bx <"
bx ;"
bx :"
bx 9"
bx 8"
bx 7"
bx01xxxxxx00 6"
bx 5"
bx 4"
bx 3"
bx 2"
bx 1"
bx 0"
bx /"
bx ."
bx -"
bx ,"
bx +"
bx *"
bx )"
bx ("
bx '"
bx &"
bx %"
0$"
0#"
1""
b0 !"
bx ~
bx }
bx |
bx {
bx z
bx y
b0zzzzzz000000000000000000000000000000zzzzzzzzzzzzzzzzzzzzzzzzzzzzzzzzzz00000000000000000000000000000000zzzzzzzzzzzzzzzzzzzzzzzzzzzzzzzz x
bx w
0v
bx u
bx t
zs
b0 r
bx q
bz p
b0 o
b0 n
bx m
bx l
0k
0j
bx i
b11 h
bx g
b0 f
bx e
b0 d
b0 c
bx b
b0 a
b0zzzzzz000000000000000000000000000000zzzzzzzzzzzzzzzzzzzzzzzzzzzzzzzzzz00000000000000000000000000000000zzzzzzzzzzzzzzzzzzzzzzzzzzzzzzzz `
0_
bx01xxxxxx00 ^
x]
b0 \
b0 [
0Z
xY
b0 X
b0 W
bx V
bx U
b0 T
b0 S
b0 R
0Q
zP
b101110000 O
bx N
bx M
0L
xK
b0 J
bx I
bx H
b0 G
xF
bx E
0D
b0 C
1B
bx A
bx @
1?
bx >
x=
b0 <
b0zzzzzz000000000000000000000000000000zzzzzzzzzzzzzzzzzzzzzzzzzzzzzzzzzz00000000000000000000000000000000zzzzzzzzzzzzzzzzzzzzzzzzzzzzzzzz ;
x:
b0 9
b0 8
x7
bx 6
05
04
bx01xxxxxx00 3
x2
b0 1
00
b0 /
0.
0-
x,
b0 +
b0 *
bx )
x(
bx '
0&
b0 %
1$
0#
0"
b0 !
$end
#10
0?
#20
0I"
b0x0100000000 3
b0x0100000000 ^
b0x0100000000 6"
12
b11 F"
b100 E"
b11 D"
b100 C"
b0 2"
b0 ."
b0 4"
b0 0"
17
1:
b0 A"
b0 -"
b0 ,"
b0 +"
b0 *"
b0 7"
b0 ="
b0 9"
b0 ;"
1Y
1]
b0 ?"
b0 l
b1 <
b0 3"
b0 5"
b0 %"
b0 '"
b0 ("
b0 &"
b0 )"
b0 1"
b0 /"
b0 <"
b0 >"
b0 :"
b0 8"
b0 L"
b0 M"
b0 N"
1J"
b0 O"
b0 ["
b0 Z"
b0 Y"
b0 X"
b0 W"
b0 U"
b0 S"
b0 Q"
b0 V"
b0 T"
b0 R"
b0 P"
b0 K"
b0 b
b0 q
b0 i
b0 u
b0 |
b0xxxxxxxxxxxxxxxxxxxxxxxxxxxxxxxxxx0000000000000000000000000000000000 y
b0 g
b0 t
b0 {
b0 e
b0 z
b0 m
1?
0B
#30
0?
#40
b10 <
1?
#50
0?
#60
b1 K"
b0xxxxxxxxxxxxxxxxxxxxxxxxxxxxxxxxxx0000000000000000000000000000000011 y
b11 i
b11 u
b11 |
b11 <
b11 F"
b100 E"
b11 D"
b100 C"
1?
1B
b100001010111 )
b100001010111 V
b100001010111 ~
b100001010111 I
b100001010111 ^"
b10 >
0=
b100001010111 A
b111111001010101110101101111110 @
b1110000001100000111101100000000011 M
b110101000011000000010000001101 O
0(
0F
0,
0K
b0 N
#70
0?
#80
xI"
b1 ;"
b1 ?"
b1 ="
b10011010111000001110100000110101010000111011001110110010010110010000101 7"
1Z
1k
1j
1.
b10 i
b10 u
b10 |
b1000011101100111011001001011001 g
b1000011101100111011001001011001 t
b1000011101100111011001001011001 {
b1 m
b1 O"
1J"
b10 K"
b100 <
b1 L"
b11 F"
b100 E"
b11 D"
b100 C"
b10 h
b1000011101100111011001001011001 f
b10011010111000001110100000110101 /
b10011010111000001110100000110101 \
14
10
b1 l
1?
b101000111010 )
b101000111010 V
b101000111010 ~
b101000111010 I
b101000111010 ^"
1(
1F
b10011010111000001110100000110101 '
b10011010111000001110100000110101 G"
b10011010111000001110100000110101 E
b10 C
b100110101110000011101000001101010100001110110011101100100101100110 y
b10011010111000001110100000110101 6
b10011010111000001110100000110101 H
b10011010111000001110100000110101 U
b10011010111000001110100000110101 w
b10011010111000001110100000110101 }
b1100110101110000011101000001101010010110010100001110110011101100100000001000100111000 8
b1100110101110000011101000001101010010110010100001110110011101100100000001000100111000 G
b1100110101110000011101000001101010010110010100001110110011101100100000001000100111000 T
1-
1L
b1011001010000111011001110110010 \"
b10011010111000001110100000110101 ]"
b0 >
1=
b101000111010 A
b1011001010000111011001110110010 @
b1110011010111000001110100000110101 M
b10011010001010110011111011010110 O
b1 N
#90
0?
#100
0Z
02
b11 -"
b1 ;"
b1 ?"
b1 ="
b10011010111000001110100000110101010000111011001110110010010110010000101 7"
b1 <"
b1 >"
b10011010111000001110100000110101010000111011001110110010010110010000101 8"
b11 K"
b11 i
b11 u
b11 |
b100110101110000011101000001101010000000000000000000000000000000011 y
b0 g
b0 t
b0 {
b0 m
b101 <
b11 X"
b10011010111000001110100000110101 P"
b11 F"
b100 E"
b11 D"
b100 C"
b11 h
b0 f
b0 l
04
0k
0j
0.
00
b0 /
b0 \
1?
b111110100 )
b111110100 V
b111110100 ~
b111110100 I
b111110100 ^"
b1 C
0=
b111110100 A
b100001011101001100010101000010 @
b1100101101010000011000111001011 M
b1100000000111101111101010011011 O
0(
0F
0-
0L
b0 8
b0 G
b0 T
b10 N
#110
0?
#120
b100000110101001001101011100000111001000011101100111011001001011001x1100001000 3
b100000110101001001101011100000111001000011101100111011001001011001x1100001000 ^
b100000110101001001101011100000111001000011101100111011001001011001x1100001000 6"
07
b1 -"
b1 3"
b1 5"
b100000110101 %"
b10011010111000001110 '"
b1000011101100111011001001011001 ("
b10 )"
b10011010111000001110100000110101010000111011001110110010010110010000101 /"
b0 <"
b1 :"
b10011010111000001110100000110101010000111011001110110010010110010000100 8"
b1 M"
b100 K"
b110 <
b11 F"
b100 E"
b11 D"
b100 C"
b10 2"
b10 A"
b10 4"
b10011010111000001110100000110101010000111011001110110010010110010000101 ."
b111 ;"
b11111 ?"
b10 9"
b10011010111000001110100000110101010000111011001110110010010110010000100 7"
1?
b100111000011 )
b100111000011 V
b100111000011 ~
b100111000011 I
b100111000011 ^"
b0 C
1#
1D
b10 >
b100111000011 A
b1000101110000101010010110001011 @
b110001000111000111100001100 M
b100011011000000110011011101100 O
b11 N
#130
0?
#140
b10 ="
b1000000101100001101001010000001100101100000010010100101001011000001010010011010111000001110100000110101010000111011001110110010010110010000100 7"
1Z
1k
1j
1.
b10 O"
1J"
b101 K"
b10 i
b10 u
b10 |
b11001011000000100101001010010110 g
b11001011000000100101001010010110 t
b11001011000000100101001010010110 {
b1 m
b111 <
b1 X"
b10 L"
b11 F"
b100 E"
b11 D"
b100 C"
b10 h
b11001011000000100101001010010110 f
b100000010110000110100101000000 /
b100000010110000110100101000000 \
14
10
b1 l
b1 2"
b100000110101001001101011100000111001000011101100111011001001011001x1100001000 3
b100000110101001001101011100000111001000011101100111011001001011001x1100001000 ^
b100000110101001001101011100000111001000011101100111011001001011001x1100001000 6"
b1 4"
b1 A"
b1 9"
b1 ;"
b1 ?"
1?
b110100000001 )
b110100000001 V
b110100000001 ~
b110100000001 I
b110100000001 ^"
1(
1F
b100000010110000110100101000000 '
b100000010110000110100101000000 G"
b100000010110000110100101000000 E
b10 C
b1000000101100001101001010000001100101100000010010100101001011010 y
b100000010110000110100101000000 6
b100000010110000110100101000000 H
b100000010110000110100101000000 U
b100000010110000110100101000000 w
b100000010110000110100101000000 }
b1001000000101100001101001010000000110010110000001001010010100101100000001000100111000 8
b1001000000101100001101001010000000110010110000001001010010100101100000001000100111000 G
b1001000000101100001101001010000000110010110000001001010010100101100000001000100111000 T
1-
1L
b11001011000000100101001010010110 \"
b100000010110000110100101000000 ]"
b1 >
1=
b110100000001 A
b11001011000000100101001010010110 @
b100000010110000110100101000000 M
b1001000101111000001011100011001 O
0#
0D
b100 N
#150
0?
#160
0Z
b100000110101001001101011100000111001000011101100111011001001011001x1100001000 3
b100000110101001001101011100000111001000011101100111011001001011001x1100001000 ^
b100000110101001001101011100000111001000011101100111011001001011001x1100001000 6"
b11 ,"
b1 ;"
b1 ?"
b10 ="
b1000000101100001101001010000001100101100000010010100101001011000001010010011010111000001110100000110101010000111011001110110010010110010000100 7"
b1 <"
b10 >"
b1000000101100001101001010000001100101100000010010100101001011000001010010011010111000001110100000110101010000111011001110110010010110010000100 8"
b11 i
b11 u
b11 |
b1000000101100001101001010000000000000000000000000000000000000011 y
b0 g
b0 t
b0 {
b0 m
b110 K"
b1000 <
b11 Y"
b1 S"
b100000010110000110100101000000 R"
b11 F"
b100 E"
b11 D"
b100 C"
b11 h
b0 f
b0 l
04
0k
0j
0.
00
b0 /
b0 \
1?
b100010111001 )
b100010111001 V
b100010111001 ~
b100010111001 I
b100010111001 ^"
b1 C
b10 >
b100010111001 A
b10000101010111100100100000001010 @
b1100010111000111100011111000101 M
b1000001011111100010101100110010 O
0(
0F
0-
0L
b0 8
b0 G
b0 T
b101 N
#170
0?
#180
b0 -"
b1 ,"
b10 5"
b100101000000 %"
b100000010110000110 '"
b11001011000000100101001010010110 ("
b1 1"
b1000000101100001101001010000001100101100000010010100101001011000001010010011010111000001110100000110101010000111011001110110010010110010000100 /"
b0 <"
b10 :"
b1000000101100001101001010000001100101100000010010100101001011000001000010011010111000001110100000110101010000111011001110110010010110010000100 8"
b10 M"
b1 N"
b111 K"
b1001 <
b11 F"
b100 E"
b11 D"
b100 C"
b11 4"
b1 A"
b10 0"
b1000000101100001101001010000001100101100000010010100101001011000001000010011010111000001110100000110101010000111011001110110010010110010000100 ."
b100101000000000010000001011000011011001011000000100101001010010110x1100001000 3
b100101000000000010000001011000011011001011000000100101001010010110x1100001000 ^
b100101000000000010000001011000011011001011000000100101001010010110x1100001000 6"
b111 ;"
b11111 ?"
b11 9"
b1000000101100001101001010000001100101100000010010100101001011000001000010011010111000001110100000110101010000111011001110110010010110010000100 7"
1?
b110010001010 )
b110010001010 V
b110010001010 ~
b110010001010 I
b110010001010 ^"
1,
1K
b10000000000000000000000000000000000 *
b10000000000000000000000000000000000 W
b10000000000000000000000000000000000 !"
b10000000000000000000000000000000000 J
b0 C
1#
1D
b11 >
0=
b110010001010 A
b1110110010011110000011111101100 @
b1110000101011011000010001000001010 M
b11110111101001011111010100000111 O
b110 N
#190
0?
#200
0I"
12
b0 ,"
17
b0 3"
b0 %"
b0 '"
b0 ("
b0 )"
b10 1"
b1000000101100001101001010000001100101100000010010100101001011000001000010011010111000001110100000110101010000111011001110110010010110010000100 /"
b10 N"
b1000 K"
b1010 <
b1 Y"
b0 X"
b11 F"
b100 E"
b11 D"
b100 C"
b10 9"
b0 ;"
b0 ?"
b0 2"
b0 A"
b0x0100000000 3
b0x0100000000 ^
b0x0100000000 6"
b1000000101100001101001010000001100101100000010010100101001011000001000010011010111000001110100000110101010000111011001110110010010110010000100 ."
b10 4"
b10 0"
1?
b100110011111 )
b100110011111 V
b100110011111 ~
b100110011111 I
b100110011111 ^"
b100110011111 A
b10100110111011101000011001001101 @
b110010010111011001001101100100 M
b1011101100001101010100100101000 O
1,
1K
0#
0D
b10000000000000000000000000000000000 *
b10000000000000000000000000000000000 W
b10000000000000000000000000000000000 !"
b10000000000000000000000000000000000 J
b111 N
#210
0?
#220
b1001 K"
b1011 <
b0 Y"
b11 F"
b100 E"
b11 D"
b100 C"
1?
b110100001001 )
b110100001001 V
b110100001001 ~
b110100001001 I
b110100001001 ^"
b110100001001 A
b10010010010101001011100100100 @
b1111100100100101000111111011001001 M
b10011111100001100110101111100101 O
1,
1K
b10000000000000000000000000000000000 *
b10000000000000000000000000000000000 W
b10000000000000000000000000000000000 !"
b10000000000000000000000000000000000 J
b1000 N
#230
0?
#240
b1010 K"
b1100 <
b11 F"
b100 E"
b11 D"
b100 C"
1?
b101110010111 )
b101110010111 V
b101110010111 ~
b101110010111 I
b101110010111 ^"
b101110010111 A
b100100111110111110010101001001 @
b1111110000001000000100111111100 M
b11011011100000011100101001001110 O
1,
1K
b10000000000000000000000000000000000 *
b10000000000000000000000000000000000 W
b10000000000000000000000000000000000 !"
b10000000000000000000000000000000000 J
b1001 N
#250
0?
#260
b1011 K"
b1101 <
b11 F"
b100 E"
b11 D"
b100 C"
1?
b1100101110 )
b1100101110 V
b1100101110 ~
b1100101110 I
b1100101110 ^"
b1100101110 A
b10001101110110100110101000011011 @
b1110101000100000101111100001010001 M
b10000101101100110110111100110011 O
1,
1K
b10000000000000000000000000000000000 *
b10000000000000000000000000000000000 W
b10000000000000000000000000000000000 !"
b10000000000000000000000000000000000 J
b1010 N
#270
0?
#280
b1100 K"
b1110 <
b11 F"
b100 E"
b11 D"
b100 C"
1?
b10101001110 )
b10101001110 V
b10101001110 ~
b10101001110 I
b10101001110 ^"
b0 >
b10101001110 A
b1101100100001110110000111011001 @
b11100100010001010010100111001 M
b10100000011010101010010000100100 O
0,
0K
b0 *
b0 W
b0 !"
b0 J
b1011 N
#290
0?
#300
b1101 K"
b1111 <
b11 F"
b100 E"
b11 D"
b100 C"
1?
b1111111011 )
b1111111011 V
b1111111011 ~
b1111111011 I
b1111111011 ^"
b10 >
b1111111011 A
b10110101000111011111000001101010 @
b11110111110100011100000111 M
b10001011001100101110111001110001 O
b1100 N
#310
0?
#320
b1110 K"
b10000 <
b11 F"
b100 E"
b11 D"
b100 C"
1?
b110010100110 )
b110010100110 V
b110010100110 ~
b110010100110 I
b110010100110 ^"
b0 >
b110010100110 A
b10010111111010010101010000101111 @
b1111100010101011010111111111000 M
b10000100001111111101100000101010 O
b1101 N
#330
0?
#340
b1111 K"
b10001 <
b11 F"
b100 E"
b11 D"
b100 C"
1?
b111010101110 )
b111010101110 V
b111010101110 ~
b111010101110 I
b111010101110 ^"
b1 >
b111010101110 A
b10010011100000101100000100 @
b1111101010001000011110111111010 M
b11000110101101011011010100011111 O
b1110 N
#350
0?
#360
b10000 K"
b10010 <
b11 F"
b100 E"
b11 D"
b100 C"
1?
b10000000110 )
b10000000110 V
b10000000110 ~
b10000000110 I
b10000000110 ^"
b10 >
b10000000110 A
b10111011001111110101101001110110 @
b1110001110110100111001111000011101 M
b11011101000011101111001111100000 O
b1111 N
#370
0?
#380
xI"
b1 ;"
b1 ?"
b11 ="
b11101100111011101011010111011001011111010000010010000011001111000010100001000000101100001101001010000001100101100000010010100101001011000001000010011010111000001110100000110101010000111011001110110010010110010000100 7"
1Z
1k
1j
1.
b11 O"
1J"
b10001 K"
b10 i
b10 u
b10 |
b1011111010000010010000011001111 g
b1011111010000010010000011001111 t
b1011111010000010010000011001111 {
b1 m
b10011 <
b11 L"
b11 F"
b100 E"
b11 D"
b100 C"
b10 h
b1011111010000010010000011001111 f
b111011001110111010110101110110 /
b111011001110111010110101110110 \
14
10
b1 l
1?
b111101010100 )
b111101010100 V
b111101010100 ~
b111101010100 I
b111101010100 ^"
1(
1F
b111011001110111010110101110110 '
b111011001110111010110101110110 G"
b111011001110111010110101110110 E
b10 C
b1110110011101110101101011101100101111101000001001000001100111110 y
b111011001110111010110101110110 6
b111011001110111010110101110110 H
b111011001110111010110101110110 U
b111011001110111010110101110110 w
b111011001110111010110101110110 }
b1001110110011101110101101011101100001000001100111101011111010000010000001000100111000 8
b1001110110011101110101101011101100001000001100111101011111010000010000001000100111000 G
b1001110110011101110101101011101100001000001100111101011111010000010000001000100111000 T
1-
1L
b100000110011110101111101000001 \"
b111011001110111010110101110110 ]"
b0 >
1=
b111101010100 A
b100000110011110101111101000001 @
b111011001110111010110101110110 M
b1100000000010100101010111101 O
b10000 N
#390
0?
#400
0Z
02
b11 +"
b1 ;"
b1 ?"
b11 ="
b11101100111011101011010111011001011111010000010010000011001111000010100001000000101100001101001010000001100101100000010010100101001011000001000010011010111000001110100000110101010000111011001110110010010110010000100 7"
b1 <"
b11 >"
b11101100111011101011010111011001011111010000010010000011001111000010100001000000101100001101001010000001100101100000010010100101001011000001000010011010111000001110100000110101010000111011001110110010010110010000100 8"
b11 i
b11 u
b11 |
b1110110011101110101101011101100000000000000000000000000000000011 y
b0 g
b0 t
b0 {
b0 m
b10010 K"
b10100 <
b11 Z"
b10 U"
b111011001110111010110101110110 T"
b11 F"
b100 E"
b11 D"
b100 C"
b11 h
b0 f
b0 l
04
0k
0j
0.
00
b0 /
b0 \
1?
b110000000001 )
b110000000001 V
b110000000001 ~
b110000000001 I
b110000000001 ^"
b1 C
b1 >
b110000000001 A
b1100001101000010010011111000011 @
b1111000100100010111010111110001 M
b11000100100100101101000011000110 O
0(
0F
0-
0L
b0 8
b0 G
b0 T
b10001 N
#410
0?
#420
b110101110110000011101100111011101001011111010000010010000011001111x1100001000 3
b110101110110000011101100111011101001011111010000010010000011001111x1100001000 ^
b110101110110000011101100111011101001011111010000010010000011001111x1100001000 6"
07
b1 +"
b1 3"
b11 5"
b110101110110 %"
b111011001110111010 '"
b1011111010000010010000011001111 ("
b10 )"
b11101100111011101011010111011001011111010000010010000011001111000010100001000000101100001101001010000001100101100000010010100101001011000001000010011010111000001110100000110101010000111011001110110010010110010000100 /"
b0 <"
b11 :"
b11101100111011101011010111011001011111010000010010000011001111000010000001000000101100001101001010000001100101100000010010100101001011000001000010011010111000001110100000110101010000111011001110110010010110010000100 8"
b11 M"
b10011 K"
b10101 <
b11 F"
b100 E"
b11 D"
b100 C"
b10 2"
b10 A"
b0 4"
b11101100111011101011010111011001011111010000010010000011001111000010100001000000101100001101001010000001100101100000010010100101001011000001000010011010111000001110100000110101010000111011001110110010010110010000100 ."
b111 ;"
b11111 ?"
b0 9"
b11101100111011101011010111011001011111010000010010000011001111000010000001000000101100001101001010000001100101100000010010100101001011000001000010011010111000001110100000110101010000111011001110110010010110010000100 7"
1?
b110101010111 )
b110101010111 V
b110101010111 ~
b110101010111 I
b110101010111 ^"
b0 C
1#
1D
b10 >
b110101010111 A
b10011110011111100001100100111 @
b101110111100010011111101011101 M
b10110111000000001101001011001011 O
b10010 N
#430
0?
#440
b10100 K"
b10110 <
b1 Z"
b1 2"
b110101110110000011101100111011101001011111010000010010000011001111x1100001000 3
b110101110110000011101100111011101001011111010000010010000011001111x1100001000 ^
b110101110110000011101100111011101001011111010000010010000011001111x1100001000 6"
b11 4"
b1 A"
b11 9"
b0 ;"
b0 ?"
1?
b1101001001010000001101110010000 O
0#
0D
b10011 N
