cva6-model/lsu_traces/lsu_traces_micro/test_5/lsu_model_wave_pipeline.vcd
$date
	Thu Apr 20 00:04:06 2023
$end
$version
	Icarus Verilog
$end
$timescale
	1s
$end
$scope module cva6_lsu_model_tb $end
$var wire 32 ! de_io_instr_i [31:0] $end
$var wire 1 " de_io_instr_valid_i $end
$var wire 1 # de_io_is_load_i $end
$var wire 1 $ de_io_load_mem_resp_i $end
$var wire 1 % de_io_store_mem_resp_i $end
$var reg 32 & CLK_CYCLE [31:0] $end
$var reg 32 ' addr [31:0] $end
$var reg 1 ( choice $end
$var reg 1 ) clk $end
$var reg 1 * load_state $end
$var reg 1 + reset $end
$var reg 1 , store_state $end
$var reg 1 - store_uncommitted $end
$var reg 32 . tb_io_instr_i [31:0] $end
$var reg 1 / tb_io_instr_valid_i $end
$var reg 1 0 tb_io_is_load_i $end
$var reg 1 1 tb_io_load_mem_resp_i $end
$var reg 1 2 tb_io_store_commit_i $end
$var reg 1 3 tb_io_store_mem_resp_i $end
$var reg 2 4 wait_ctr [1:0] $end
$var integer 32 5 i [31:0] $end
$var integer 32 6 seed [31:0] $end
$scope module model_i $end
$var wire 1 ) clk_i $end
$var wire 32 7 instr_i [31:0] $end
$var wire 1 " instr_valid_i $end
$var wire 1 # is_load_i $end
$var wire 1 $ load_mem_resp_i $end
$var wire 1 8 no_dep $end
$var wire 1 9 ready_o $end
$var wire 1 + rst_ni $end
$var wire 1 2 store_commit_i $end
$var wire 1 % store_mem_resp_i $end
$var reg 32 : CLK_CYCLE [31:0] $end
$var reg 32 ; inner_instr_i [31:0] $end
$var reg 1 < inner_instr_valid_i $end
$var reg 1 = inner_is_load_i $end
$var reg 1 > inner_load_mem_resp_i $end
$var reg 1 ? inner_store_mem_resp_i $end
$var reg 8 @ instr_i_pc [7:0] $end
$var reg 32 A load_instr_i_queue [31:0] $end
$var reg 8 B load_instr_i_queue_pc [7:0] $end
$var reg 2 C load_instr_queue_state [1:0] $end
$var reg 2 D queue_commit_ptr [1:0] $end
$var reg 2 E queue_serve_ptr [1:0] $end
$var reg 2 F queue_store_ptr [1:0] $end
$var reg 1 G ready_flag $end
$var reg 32 H store_instr_i_queue_flatten_0 [31:0] $end
$var reg 8 I store_instr_i_queue_flatten_0_pc [7:0] $end
$var reg 32 J store_instr_i_queue_flatten_1 [31:0] $end
$var reg 8 K store_instr_i_queue_flatten_1_pc [7:0] $end
$var reg 32 L store_instr_i_queue_flatten_2 [31:0] $end
$var reg 8 M store_instr_i_queue_flatten_2_pc [7:0] $end
$var reg 32 N store_instr_i_queue_flatten_3 [31:0] $end
$var reg 8 O store_instr_i_queue_flatten_3_pc [7:0] $end
$var reg 2 P store_instr_queue_state_flatten_0 [1:0] $end
$var reg 2 Q store_instr_queue_state_flatten_1 [1:0] $end
$var reg 2 R store_instr_queue_state_flatten_2 [1:0] $end
$var reg 2 S store_instr_queue_state_flatten_3 [1:0] $end
$var reg 32 T x_inner_instr_i [31:0] $end
$var reg 1 U x_inner_instr_valid_i $end
$var reg 1 V x_inner_is_load_i $end
$var reg 1 W x_inner_store_mem_resp_i $end
$upscope $end
$scope module shim_i $end
$var wire 1 ) clk_i $end
$var wire 65 X de_io_amo_resp_i [64:0] $end
$var wire 1 Y de_io_amo_valid_commit_i $end
$var wire 1 Z de_io_asid_i $end
$var wire 1 [ de_io_asid_to_be_flushed_i $end
$var wire 1 \ de_io_commit_i $end
$var wire 1 ] de_io_dcache_wbuffer_empty_i $end
$var wire 1 ^ de_io_dcache_wbuffer_not_ni_i $end
$var wire 1 _ de_io_dtlb_miss_o $end
$var wire 1 ` de_io_en_ld_st_translation_i $end
$var wire 1 a de_io_enable_translation_i $end
$var wire 1 b de_io_flush_i $end
$var wire 1 c de_io_flush_tlb_i $end
$var wire 33 d de_io_icache_areq_i [32:0] $end
$var wire 1 e de_io_itlb_miss_o $end
$var wire 2 f de_io_ld_st_priv_lvl_i [1:0] $end
$var wire 1 g de_io_mxr_i $end
$var wire 512 h de_io_pmpaddr_i [511:0] $end
$var wire 128 i de_io_pmpcfg_i [127:0] $end
$var wire 2 j de_io_priv_lvl_i [1:0] $end
$var wire 22 k de_io_satp_ppn_i [21:0] $end
$var wire 1 l de_io_sum_i $end
$var wire 32 m de_io_vaddr_to_be_flushed_i [31:0] $end
$var wire 32 n instr_i [31:0] $end
$var wire 1 " instr_valid_i $end
$var wire 1 # is_load_i $end
$var wire 1 $ load_mem_resp_i $end
$var wire 1 o ready_o $end
$var wire 1 + rst_ni $end
$var wire 1 2 store_commit_i $end
$var wire 1 % store_mem_resp_i $end
$var reg 32 p dummy_data [31:0] $end
$var reg 3 q load_memreq_state [2:0] $end
$var reg 2 r load_req_state [1:0] $end
$var reg 2 s store_req_state [1:0] $end
$var reg 1 t tb_io_commit_i $end
$var reg 3 u tb_io_commit_tran_id_i [2:0] $end
$var reg 105 v tb_io_dcache_req_ports_i [104:0] $end
$var reg 111 w tb_io_fu_data_i [110:0] $end
$var reg 1 x tb_io_lsu_valid_i $end
$var reg 1 y x_load_mem_resp_i $end
$scope module lsu_i $end
$var wire 65 z amo_resp_i [64:0] $end
$var wire 1 Y amo_valid_commit_i $end
$var wire 1 Z asid_i $end
$var wire 1 [ asid_to_be_flushed_i $end
$var wire 1 ) clk_i $end
$var wire 1 \ commit_i $end
$var wire 3 { commit_tran_id_i [2:0] $end
$var wire 105 | dcache_req_ports_i [104:0] $end
$var wire 1 ] dcache_wbuffer_empty_i $end
$var wire 1 ^ dcache_wbuffer_not_ni_i $end
$var wire 1 } dtlb_hit $end
$var wire 1 _ dtlb_miss_o $end
$var wire 1 ` en_ld_st_translation_i $end
$var wire 1 a enable_translation_i $end
$var wire 1 b flush_i $end
$var wire 1 c flush_tlb_i $end
$var wire 111 ~ fu_data_i [110:0] $end
$var wire 33 !" icache_areq_i [32:0] $end
$var wire 1 e itlb_miss_o $end
$var wire 2 "" ld_st_priv_lvl_i [1:0] $end
$var wire 1 x lsu_valid_i $end
$var wire 65 #" mmu_exception [64:0] $end
$var wire 1 g mxr_i $end
$var wire 512 $" pmpaddr_i [511:0] $end
$var wire 128 %" pmpcfg_i [127:0] $end
$var wire 2 &" priv_lvl_i [1:0] $end
$var wire 1 + rst_ni $end
$var wire 22 '" satp_ppn_i [21:0] $end
$var wire 32 (" st_result [31:0] $end
$var wire 1 l sum_i $end
$var wire 32 )" vaddr_i [31:0] $end
$var wire 32 *" vaddr_to_be_flushed_i [31:0] $end
$var reg 1 +" data_misaligned $end
$var reg 1 ," ld_valid_i $end
$var reg 65 -" misaligned_exception [64:0] $end
$var reg 34 ." mmu_paddr [33:0] $end
$var reg 32 /" mmu_vaddr [31:0] $end
$var reg 1 0" st_valid_i $end
$var reg 1 1" translation_req $end
$var reg 1 2" translation_valid $end
$scope function ariane_pkg_be_gen $end
$upscope $end
$scope function ariane_pkg_be_gen_32 $end
$upscope $end
$scope function ariane_pkg_extract_transfer_size $end
$upscope $end
$scope begin gen_no_mmu $end
$upscope $end
$scope module i_load_unit $end
$var wire 1 ) clk_i $end
$var wire 3 3" commit_tran_id_i [2:0] $end
$var wire 1 ^ dcache_wbuffer_not_ni_i $end
$var wire 1 } dtlb_hit_i $end
$var wire 22 4" dtlb_ppn_i [21:0] $end
$var wire 65 5" ex_i [64:0] $end
$var wire 1 b flush_i $end
$var wire 1 6" inflight_stores $end
$var wire 34 7" paddr_i [33:0] $end
$var wire 1 8" paddr_ni $end
$var wire 35 9" req_port_i [34:0] $end
$var wire 1 + rst_ni $end
$var wire 1 :" sign_bit $end
$var wire 1 ;" stall_ni $end
$var wire 1 <" sv2v_tmp_52ECA [1:1] $end
$var wire 32 =" sv2v_tmp_82AC4 [32:1] $end
$var wire 1 ," valid_i $end
$var reg 65 >" ex_o [64:0] $end
$var reg 1 ?" fp_sign_q $end
$var reg 2 @" idx_q [1:0] $end
$var reg 13 A" load_data_d [12:0] $end
$var reg 13 B" load_data_q [12:0] $end
$var reg 1 C" pop_ld_o $end
$var reg 77 D" req_port_o [76:0] $end
$var reg 32 E" result_o [31:0] $end
$var reg 1 F" signed_q $end
$var reg 4 G" state_d [3:0] $end
$var reg 4 H" state_q [3:0] $end
$var reg 3 I" trans_id_o [2:0] $end
$var reg 1 J" translation_req_o $end
$var reg 1 K" valid_o $end
$scope function ariane_pkg_extract_transfer_size $end
$upscope $end
$scope function ariane_pkg_is_inside_nonidempotent_regions $end
$scope begin sv2v_autoblock_1 $end
$upscope $end
$upscope $end
$scope function ariane_pkg_range_check $end
$upscope $end
$scope function sv2v_cast_65 $end
$upscope $end
$scope begin gen_sign_bits[0] $end
$upscope $end
$scope begin gen_sign_bits[1] $end
$upscope $end
$scope begin gen_sign_bits[2] $end
$upscope $end
$scope begin gen_sign_bits[3] $end
$upscope $end
$scope begin load_control $end
$upscope $end
$scope begin p_regs $end
$upscope $end
$scope begin rvalid_output $end
$upscope $end
$upscope $end
$scope module i_pipe_reg_load $end
$var wire 1 ) clk_i $end
$var wire 101 L" d_i [100:0] $end
$var wire 1 + rst_ni $end
$var reg 101 M" d_o [100:0] $end
$scope begin genblk1 $end
$upscope $end
$upscope $end
$scope module i_pipe_reg_store $end
$var wire 1 ) clk_i $end
$var wire 101 N" d_i [100:0] $end
$var wire 1 + rst_ni $end
$var reg 101 O" d_o [100:0] $end
$scope begin genblk1 $end
$upscope $end
$upscope $end
$scope module i_store_unit $end
$var wire 1 P" amo_buffer_ready $end
$var wire 1 Q" amo_buffer_valid $end
$var wire 65 R" amo_resp_i [64:0] $end
$var wire 1 Y amo_valid_commit_i $end
$var wire 1 ) clk_i $end
$var wire 1 \ commit_i $end
$var wire 1 } dtlb_hit_i $end
$var wire 65 S" ex_i [64:0] $end
$var wire 1 b flush_i $end
$var wire 34 T" paddr_i [33:0] $end
$var wire 12 U" page_offset_i [11:0] $end
$var wire 35 V" req_port_i [34:0] $end
$var wire 32 W" result_o [31:0] $end
$var wire 1 + rst_ni $end
$var wire 1 X" st_ready $end
$var wire 1 Y" store_buffer_valid $end
$var wire 1 0" valid_i $end
$var wire 32 Z" vaddr_o [31:0] $end
$var wire 3 [" trans_id_o [2:0] $end
$var wire 1 \" store_buffer_ready $end
$var wire 1 ]" store_buffer_empty_o $end
$var wire 77 ^" req_port_o [76:0] $end
$var wire 1 _" page_offset_matches_o $end
$var wire 1 `" no_st_pending_o $end
$var wire 85 a" lsu_ctrl_i [84:0] $end
$var wire 1 b" instr_is_amo $end
$var wire 1 c" commit_ready_o $end
$var wire 135 d" amo_req_o [134:0] $end
$var reg 4 e" amo_op_d [3:0] $end
$var reg 4 f" amo_op_q [3:0] $end
$var reg 65 g" ex_o [64:0] $end
$var reg 1 h" pop_st_o $end
$var reg 4 i" st_be_n [3:0] $end
$var reg 4 j" st_be_q [3:0] $end
$var reg 32 k" st_data_n [31:0] $end
$var reg 32 l" st_data_q [31:0] $end
$var reg 2 m" st_data_size_n [1:0] $end
$var reg 2 n" st_data_size_q [1:0] $end
$var reg 1 o" st_valid $end
$var reg 1 p" st_valid_without_flush $end
$var reg 2 q" state_d [1:0] $end
$var reg 2 r" state_q [1:0] $end
$var reg 3 s" trans_id_n [2:0] $end
$var reg 3 t" trans_id_q [2:0] $end
$var reg 1 u" translation_req_o $end
$var reg 1 v" valid_o $end
$scope function ariane_pkg_data_align $end
$upscope $end
$scope function ariane_pkg_extract_transfer_size $end
$upscope $end
$scope function ariane_pkg_is_amo $end
$upscope $end
$scope module i_amo_buffer $end
$var wire 72 w" amo_data_out [71:0] $end
$var wire 4 x" amo_op_i [3:0] $end
$var wire 65 y" amo_resp_i [64:0] $end
$var wire 1 z" amo_valid $end
$var wire 1 Y amo_valid_commit_i $end
$var wire 1 ) clk_i $end
$var wire 32 {" data_i [31:0] $end
$var wire 2 |" data_size_i [1:0] $end
$var wire 1 }" flush_amo_buffer $end
$var wire 1 b flush_i $end
$var wire 34 ~" paddr_i [33:0] $end
$var wire 1 P" ready_o $end
$var wire 1 + rst_ni $end
$var wire 1 Q" valid_i $end
$var wire 1 `" no_st_pending_i $end
$var wire 135 !# amo_req_o [134:0] $end
$var wire 72 "# amo_data_in [71:0] $end
$upscope $end
$scope module store_buffer_i $end
$var wire 4 ## be_i [3:0] $end
$var wire 1 ) clk_i $end
$var wire 1 \ commit_i $end
$var wire 32 $# data_i [31:0] $end
$var wire 2 %# data_size_i [1:0] $end
$var wire 1 b flush_i $end
$var wire 34 &# paddr_i [33:0] $end
$var wire 12 '# page_offset_i [11:0] $end
$var wire 35 (# req_port_i [34:0] $end
$var wire 1 + rst_ni $end
$var wire 1 ]" store_buffer_empty_o $end
$var wire 1 )# sv2v_tmp_80AC7 [1:1] $end
$var wire 1 *# sv2v_tmp_A682E [1:1] $end
$var wire 1 +# sv2v_tmp_F170F [1:1] $end
$var wire 1 Y" valid_i $end
$var wire 1 p" valid_without_flush_i $end
$var wire 12 ,# sv2v_tmp_9099D [12:1] $end
$var wire 4 -# sv2v_tmp_8DCF7 [4:1] $end
$var wire 22 .# sv2v_tmp_71805 [22:1] $end
$var wire 32 /# sv2v_tmp_6B7F3 [32:1] $end
$var wire 2 0# sv2v_tmp_51F0D [2:1] $end
$var wire 2 1# state_q_3 [1:0] $end
$var wire 2 2# state_q_2 [1:0] $end
$var wire 2 3# state_q_1 [1:0] $end
$var wire 2 4# state_q_0 [1:0] $end
$var reg 292 5# commit_queue_n [291:0] $end
$var reg 292 6# commit_queue_q [291:0] $end
$var reg 2 7# commit_read_pointer_n [1:0] $end
$var reg 2 8# commit_read_pointer_q [1:0] $end
$var reg 1 c" commit_ready_o $end
$var reg 3 9# commit_status_cnt_n [2:0] $end
$var reg 3 :# commit_status_cnt_q [2:0] $end
$var reg 2 ;# commit_write_pointer_n [1:0] $end
$var reg 2 <# commit_write_pointer_q [1:0] $end
$var reg 1 `" no_st_pending_o $end
$var reg 1 _" page_offset_matches_o $end
$var reg 1 \" ready_o $end
$var reg 77 =# req_port_o [76:0] $end
$var reg 292 ># speculative_queue_n [291:0] $end
$var reg 292 ?# speculative_queue_q [291:0] $end
$var reg 2 @# speculative_read_pointer_n [1:0] $end
$var reg 2 A# speculative_read_pointer_q [1:0] $end
$var reg 3 B# speculative_status_cnt_n [2:0] $end
$var reg 3 C# speculative_status_cnt_q [2:0] $end
$var reg 2 D# speculative_write_pointer_n [1:0] $end
$var reg 2 E# speculative_write_pointer_q [1:0] $end
$scope function sv2v_cast_79500 $end
$upscope $end
$scope begin core_if $end
$var reg 5 F# speculative_status_cnt [4:0] $end
$scope begin sv2v_autoblock_1 $end
$var reg 32 G# i [31:0] $end
$upscope $end
$upscope $end
$scope begin p_commit $end
$upscope $end
$scope begin p_spec $end
$upscope $end
$scope begin store_if $end
$var reg 5 H# commit_status_cnt [4:0] $end
$upscope $end
$scope begin sv2v_autoblock_2 $end
$var reg 2 I# _sv2v_jump [0:1] $end
$scope begin address_checker $end
$scope begin sv2v_autoblock_3 $end
$var reg 32 J# i [31:0] $end
$scope begin sv2v_autoblock_4 $end
$var reg 32 K# _sv2v_value_on_break [31:0] $end
$upscope $end
$upscope $end
$scope begin sv2v_autoblock_5 $end
$var reg 32 L# i [31:0] $end
$scope begin sv2v_autoblock_6 $end
$var reg 32 M# _sv2v_value_on_break [31:0] $end
$upscope $end
$upscope $end
$upscope $end
$upscope $end
$upscope $end
$scope begin store_control $end
$upscope $end
$upscope $end
$scope module lsu_bypass_i $end
$var wire 1 ) clk_i $end
$var wire 1 b flush_i $end
$var wire 85 N# lsu_req_i [84:0] $end
$var wire 1 x lsu_req_valid_i $end
$var wire 1 C" pop_ld_i $end
$var wire 1 h" pop_st_i $end
$var wire 1 O# ready_o $end
$var wire 1 + rst_ni $end
$var wire 1 P# empty $end
$var reg 85 Q# lsu_ctrl_o [84:0] $end
$var reg 170 R# mem_n [169:0] $end
$var reg 170 S# mem_q [169:0] $end
$var reg 1 T# read_pointer $end
$var reg 1 U# read_pointer_n $end
$var reg 1 V# read_pointer_q $end
$var reg 2 W# status_cnt [1:0] $end
$var reg 2 X# status_cnt_n [1:0] $end
$var reg 2 Y# status_cnt_q [1:0] $end
$var reg 1 Z# write_pointer $end
$var reg 1 [# write_pointer_n $end
$var reg 1 \# write_pointer_q $end
$scope begin output_assignments $end
$upscope $end
$scope begin sv2v_autoblock_1 $end
$upscope $end
$upscope $end
$scope begin data_misaligned_detection $end
$upscope $end
$scope begin which_op $end
$upscope $end
$upscope $end
$scope task load_commit $end
$var reg 3 ]# commit_id [2:0] $end
$upscope $end
$scope task lower_load_request $end
$upscope $end
$scope task lower_store_request $end
$upscope $end
$scope task raise_load_request $end
$var reg 32 ^# addr [31:0] $end
$var reg 3 _# commit_id [2:0] $end
$upscope $end
$scope task raise_store_request $end
$var reg 32 `# addr [31:0] $end
$var reg 3 a# commit_id [2:0] $end
$var reg 32 b# data [31:0] $end
$upscope $end
$scope task serve_store_1 $end
$upscope $end
$scope task serve_store_2 $end
$upscope $end
$scope task store_commit $end
$upscope $end
$scope task store_decommit $end
$upscope $end
$upscope $end
$upscope $end
$enddefinitions $end
#0
$dumpvars
bx b#
bx a#
bx `#
bx _#
bx ^#
bx ]#
x\#
x[#
xZ#
bx Y#
bx X#
bx W#
xV#
xU#
xT#
bx S#
bx R#
bx Q#
xP#
xO#
bx0000xxxxxxxxxxxxxxx N#
b11 M#
b100 L#
b11 K#
b100 J#
b0 I#
b0xxx H#
bx G#
b0xxx F#
bx E#
bx D#
bx C#
bx B#
bx A#
bx @#
bx ?#
bx >#
bx01xxxxxx00 =#
bx <#
bx ;#
bx :#
bx 9#
bx 8#
bx 7#
bx 6#
bx 5#
bx 4#
bx 3#
bx 2#
bx 1#
bx 0#
bx /#
bx .#
bx -#
bx ,#
0+#
0*#
1)#
b0xxxxxxxxxxxxxxxxxxxxxxxxxxxxxxxxxx (#
bx '#
b0xxxxxxxxxxxxxxxxxxxxxxxxxxxxxxxx &#
bx %#
bx $#
bx ##
bx00xxxxxxxxxxxxxxxxxxxxxxxxxxxxxxxxxxxxxxxxxxxxxxxxxxxxxxxxxxxxxxxxxx "#
b0zzzzzz000000000000000000000000000000zzzzzzzzzzzzzzzzzzzzzzzzzzzzzzzzzz00000000000000000000000000000000zzzzzzzzzzzzzzzzzzzzzzzzzzzzzzzz !#
b0xxxxxxxxxxxxxxxxxxxxxxxxxxxxxxxx ~"
0}"
bx |"
bx {"
zz"
b0 y"
bx x"
bz w"
0v"
0u"
bx t"
bx s"
bx r"
bx q"
0p"
0o"
bx n"
b11 m"
bx l"
b0 k"
bx j"
bx i"
0h"
b0 g"
bx f"
b0 e"
b0zzzzzz000000000000000000000000000000zzzzzzzzzzzzzzzzzzzzzzzzzzzzzzzzzz00000000000000000000000000000000zzzzzzzzzzzzzzzzzzzzzzzzzzzzzzzz d"
xc"
0b"
bx a"
x`"
0_"
bx01xxxxxx00 ^"
x]"
x\"
bx ["
bx Z"
0Y"
xX"
b0 W"
b0xxxxxxxxxxxxxxxxxxxxxxxxxxxxxxxxxx V"
bx U"
b0xxxxxxxxxxxxxxxxxxxxxxxxxxxxxxxx T"
b0 S"
b0 R"
0Q"
zP"
b0xxx0000000000000000000000000000000000000000000000000000000000000000000000000000000000000000000000000 O"
b0xxx0000000000000000000000000000000000000000000000000000000000000000000000000000000000000000000000000 N"
b0xxxxxxxxxxxxxxxxxxxxxxxxxxxxxxxxxxxxxxxxxxxxxxxxxxxxxxxxxxxxxxxxxxxxxxxxxxxxxxxxxxxxxxxxxxxxxxxxxxx0 M"
b0xxxxxxxxxxxxxxxxxxxxxxxxxxxxxxxxxxx00000000000000000000000000000000000000000000000000000000000000000 L"
0K"
0J"
bx I"
bx H"
bx G"
xF"
bx E"
bx00xxxxxxxxxxxxxxxxxxxx00000000000000000000000000000000x00xxxx1100 D"
0C"
bx B"
bx A"
bx @"
x?"
b0 >"
b0 ="
0<"
0;"
x:"
bx0 9"
08"
b0xxxxxxxxxxxxxxxxxxxxxxxxxxxxxxxx 7"
16"
b0 5"
bx 4"
bx 3"
x2"
x1"
x0"
bx /"
b0xxxxxxxxxxxxxxxxxxxxxxxxxxxxxxxx ."
b0 -"
x,"
0+"
b0 *"
bx )"
b0 ("
b0 '"
b0 &"
b0 %"
b0 $"
b0 #"
b0 ""
b0 !"
bx ~
1}
b0xxxxxxxxxxxxxxxxxxxxxxxxxxxxxxxxxxxxxxxxxxxxxxxxxxxxxxxxxxxxxxxxxxxx0xxxxxxxxxxxxxxxxxxxxxxxxxxxxxxxxxxx |
bx {
b0 z
xy
xx
bx w
b0xxxxxxxxxxxxxxxxxxxxxxxxxxxxxxxxxxxxxxxxxxxxxxxxxxxxxxxxxxxxxxxxxxxx0xxxxxxxxxxxxxxxxxxxxxxxxxxxxxxxxxxx v
bx u
xt
bx s
bx r
bx q
bx p
xo
bx n
b0 m
0l
b0 k
b0 j
b0 i
b0 h
0g
b0 f
0e
b0 d
0c
0b
0a
0`
0_
0^
0]
x\
0[
0Z
0Y
b0 X
xW
xV
xU
bx T
bx S
bx R
bx Q
bx P
bx O
bx N
bx M
bx L
bx K
bx J
bx I
bx H
xG
bx F
bx E
bx D
bx C
bx B
bx A
bx @
x?
x>
x=
x<
bx ;
bx :
x9
x8
bx 7
b1001111 6
bx 5
bx 4
x3
x2
x1
x0
x/
bx .
x-
x,
1+
x*
1)
x(
bx '
b0 &
x%
x$
x#
x"
bx !
$end
#10
0)
#20
bx00000000000000000000 4"
18
b0 Z"
b0 U"
b0 '#
b0 /"
01"
00"
0,"
b0 i"
b0 s"
b0x0000001100 D"
0:"
b0x0100000000 ^"
b0x0100000000 =#
1]"
b0 9#
b0 5#
b0 ;#
b0 7#
1`"
1c"
b0 H#
b0 4#
b0 3#
b0 2#
b0 1#
b0 a"
b0 Q#
b0 X#
0[#
0U#
b0 R#
0T#
0Z#
b0 W#
b0 E"
b0 L"
b0 I"
b0 A"
b0 G"
b0 q"
b11 M#
b100 L#
b11 K#
b100 J#
b0 >#
b0 D#
b0 @#
b0 B#
1X"
1\"
b0 F#
b1 &
0?"
0F"
b0 @"
b0 :#
b0 <#
b0 ,#
b0 .#
b0 /#
b0 -#
b0 0#
b0 8#
b0 6#
b0 C#
b0 E#
b0 A#
b0 ?#
0>
0W
0?
0V
0=
0U
0<
b0 T
b0 ;
19
1G
b0 @
b0 E
b0 D
b0 F
b0 S
b0 R
b0 Q
b0 P
b0 O
b0 M
b0 K
b0 I
b0 N
b0 L
b0 J
b0 H
b0 C
b0 B
b0 A
b0 :
0V#
0\#
1o
1O#
1P#
b0 Y#
b0 S#
b0 O"
b0 M"
b0 B"
b0 H"
b0 f"
b0 x"
b0 N"
b0 ["
b0 t"
b0 n"
b0 |"
b0 %#
b0 l"
b0 {"
b0 $#
b0 j"
b0 ##
b0 r"
02"
b0 "#
b0 ."
b0 7"
b0 T"
b0 ~"
b0 &#
b0 )"
b0 V"
b0 (#
b0 9"
b0 s
b0 r
b0 q
b11011110101011011011111011101111 p
0y
b0 N#
0x
b0 w
b0 ~
b0 u
b0 {
b0 3"
0t
b0 v
b0 |
1)
0\
02
0%
03
0$
01
0"
0/
b0 !
b0 7
b0 n
b0 .
b0 4
0(
0-
0,
0*
0+
#30
0)
#40
b10 &
1)
#50
0)
#60
b110010101101 ;
1<
b1 :
b11 "#
b11 n"
b11 |"
b11 %#
b11 &
b1111 i"
1U#
1T#
b110010101101 /"
11"
b11 M#
b100 L#
b11 K#
b100 J#
1h"
1u"
b1 q"
b1101111010101101101111101110111100000000000000000000000000000000000000000000000000000000000000000 L"
b11011110101011011011111011101111 E"
b110010101101 Z"
b110010101101 U"
b110010101101 '#
10"
b110000000000000000000001100101011011 -"
1+"
b10 m"
b11111110110010101111111011001010 k"
b10 s"
b110010101101000000000000000000000000000000000000000000000000000000x0011111000 D"
b1000000000000000000001100101011010110010101111111011001010111111101111001000100111010 a"
b1000000000000000000001100101011010110010101111111011001010111111101111001000100111010 Q#
b0 X#
1[#
b0 W#
1Z#
b1100101011010110010101111111011001010111111101111001000100111010 R#
b110010101101 )"
b110111101010110110111110111011110 9"
b1 s
b1000000000000000000001100101011010110010101111111011001010111111101111001000100111010 N#
1x
b1000100111000000000000000000001100101011011100101011111110110010101111111000000000000000000000000000000000010 w
b1000100111000000000000000000001100101011011100101011111110110010101111111000000000000000000000000000000000010 ~
b10 a#
b11001010111111101100101011111110 b#
b110010101101 `#
b11011110101011011011111011101111000000000000000000000000000000000000 v
b11011110101011011011111011101111000000000000000000000000000000000000 |
1)
1+
b11 4
1-
1,
1"
1/
0#
00
b110010101101 !
b110010101101 7
b110010101101 n
b110010101101 .
b110010101101 '
b10100110100001001000100 6
b0 5
#70
0)
#80
b1 B#
b1 F#
b1 D#
b110010101101111111101100101011111110110010101111101 >#
1Y"
1_"
b11 M#
b100 L#
b11 K#
b100 J#
1p"
1o"
1v"
12"
b110010101101 ."
b110010101101 7"
b110010101101 T"
b110010101101 ~"
b110010101101 &#
b10 n"
b10 |"
b10 %#
b10100000000000000000000000000000000000000000000000000000000000000000000000000000000000000000000000000 N"
b10 ["
b10 t"
b1100101011011111111011001010111111101100101010 "#
b11111110110010101111111011001010 l"
b11111110110010101111111011001010 {"
b11111110110010101111111011001010 $#
b1111 j"
b1111 ##
b1 r"
b1101111010101101101111101110111100000000000000000000000000000000000000000000000000000000000000000 M"
1V#
1\#
b1100101011010110010101111111011001010111111101111001000100111010 S#
b110010101101 T
b0 ;
1U
0<
b10 :
b100 &
1U#
b110010101101 /"
11"
00"
0+"
b0 -"
b0 q"
0h"
0u"
b1100101011010110010101111111011001010111111101111001000100111010 a"
b1100101011010110010101111111011001010111111101111001000100111010 Q#
b0 X#
1[#
b0 W#
b1100101011010110010101111111011001010111111101111001000100111010 R#
1T#
1Z#
b10 s
b1100101011010110010101111111011001010111111101111001000100111010 N#
0x
1)
b0 !
b0 7
b0 n
b0 .
0"
0/
b10 4
b10111111010011011000010001110101 6
b1 5
#90
0)
#100
0Y"
0]"
b0 M#
b0 I#
b0 L#
b11 K#
b100 J#
1_"
b1 B#
b1 F#
b1 D#
b110010101101111111101100101011111110110010101111101 >#
b11 4#
0p"
0o"
b100000000000000000000000000000000000000000000000000000000000000000000000000000000000000000000000000 N"
0v"
b1 C#
b1 E#
b110010101101111111101100101011111110110010101111101 ?#
b0 T
0U
b1 F
b11 :
b10100000000000000000000000000000000000000000000000000000000000000000000000000000000000000000000000000 O"
b0 r"
b101 &
b1 @
b11 s
1t
1)
b1 4
b10100101010000100000001010110010 6
b10 5
#110
0)
#120
b11 M#
b100 L#
b0 K#
b0 I#
b0 J#
1_"
b110010101101000000000000000000000011111110110010101111111011001010x1111111000 ^"
b110010101101000000000000000000000011111110110010101111111011001010x1111111000 =#
0`"
b1 4#
b1 :#
b1 <#
b110010101101 ,#
b11111110110010101111111011001010 /#
b1111 -#
b10 0#
b110010101101111111101100101011111110110010101111101 6#
b0 C#
b1 A#
b110010101101111111101100101011111110110010101111100 ?#
b100000000000000000000000000000000000000000000000000000000000000000000000000000000000000000000000000 O"
b1 D
b100 :
b110 &
b0 s
0t
b10 9#
b10 H#
b10 ;#
b110010101101111111101100101011111110110010101111101 5#
b111 B#
b11111 F#
b10 @#
b110010101101111111101100101011111110110010101111100 >#
1)
b0 4
0-
1\
12
1(
b10110010101100010011001010001011 6
b11 5
#130
0)
#140
1?
b101 :
b111 &
b1 7#
b110010101101111111101100101011111110110010101111100 5#
b10000000000000000000000000000000000 V"
b10000000000000000000000000000000000 (#
b100000000000000000000000000000000000011011110101011011011111011101111000000000000000000000000000000000000 v
b100000000000000000000000000000000000011011110101011011011111011101111000000000000000000000000000000000000 |
b0 9#
b110010101101000000000000000000000011111110110010101111111011001010x1111111000 ^"
b110010101101000000000000000000000011111110110010101111111011001010x1111111000 =#
b1 ;#
b0 H#
b1 @#
b0 B#
b0 F#
1)
b11 4
0,
1%
13
0\
02
0(
b1001010000000011000100001010000 6
b100 5
#150
0)
#160
1]"
b0 4#
b11 M#
b100 L#
b11 K#
b100 J#
0_"
1`"
b0 :#
b0 ,#
b0 /#
b0 -#
b0 0#
b1 8#
b110010101101111111101100101011111110110010101111100 6#
1W
0?
b1 E
b110 :
b1000 &
b0 9#
b0x0100000000 ^"
b0x0100000000 =#
b110010101101111111101100101011111110110010101111100 5#
b1 7#
b0 H#
b0 V"
b0 (#
b11011110101011011011111011101111000000000000000000000000000000000000 v
b11011110101011011011111011101111000000000000000000000000000000000000 |
1)
0%
03
b10 4
b11011111011101100011100000010001 6
b101 5
#170
0)
#180
0W
b111 :
b1001 &
1)
b1 4
1(
b101010100101001100001010011110 6
b110 5
#190
0)
#200
b1000 :
b1010 &
1)
b0 4
b1101001100111111101111010000111 6
b111 5
#210
0)
#220
b110010101101 ;
1<
1=
b1001 :
b1011 &
b1 G"
b110010101101000000000000000000000000000000000000000000000000000000x1011111000 D"
1J"
1,"
b110010101101 /"
01"
b100000000000000000000001100101011011 -"
1+"
b0 k"
b1 s"
b1000000000000000000001100101011010000000000000000000000000000000001111000100100101001 a"
b1000000000000000000001100101011010000000000000000000000000000000001111000100100101001 Q#
b1 X#
0[#
b1 W#
0Z#
b10000000000000000000011001010110100000000000000000000000000000000011110001001001010010000000000000000000001100101011010110010101111111011001010111111101111001000100111010 R#
b1 r
b1000000000000000000001100101011010000000000000000000000000000000001111000100100101001 N#
1x
b100100101000000000000000000001100101011010000000000000000000000000000000000000000000000000000000000000000001 w
b100100101000000000000000000001100101011010000000000000000000000000000000000000000000000000000000000000000001 ~
b1 _#
b110010101101 ^#
1)
b11 4
1*
1"
1/
1#
10
b110010101101 !
b110010101101 7
b110010101101 n
b110010101101 .
b10010001110110010000110100011100 6
b1000 5
#230
0)
