cva6-model/tlb_traces_auto/test_18/tlb_wave_pipeline.vcd
$date
	Sat Nov 12 21:36:10 2022
$end
$version
	Icarus Verilog
$end
$timescale
	1s
$end
$scope module tlb_tb $end
$var wire 32 ! cdata [31:0] $end
$var wire 1 " de_io_flush_i $end
$var wire 1 # de_io_lu_access_i $end
$var wire 1 $ de_io_lu_asid_i $end
$var wire 32 % de_io_lu_vaddr_i [31:0] $end
$var wire 31 & tdata [30:0] $end
$var wire 32 ' de_io_vaddr_to_be_flushed_i [31:0] $end
$var wire 63 ( de_io_update_i [62:0] $end
$var wire 1 ) de_io_lu_is_4M_o $end
$var wire 1 * de_io_lu_hit_o $end
$var wire 32 + de_io_lu_content_o [31:0] $end
$var wire 1 , de_io_asid_to_be_flushed_i $end
$var reg 32 - CLK_CYCLE [31:0] $end
$var reg 9 . asid [8:0] $end
$var reg 2 / choice [1:0] $end
$var reg 1 0 clk $end
$var reg 32 1 edata [31:0] $end
$var reg 1 2 reset $end
$var reg 1 , tb_io_asid_to_be_flushed_i $end
$var reg 1 3 tb_io_flush_i $end
$var reg 1 4 tb_io_lu_access_i $end
$var reg 1 5 tb_io_lu_asid_i $end
$var reg 32 6 tb_io_lu_vaddr_i [31:0] $end
$var reg 63 7 tb_io_update_i [62:0] $end
$var reg 32 8 tb_io_vaddr_to_be_flushed_i [31:0] $end
$var reg 20 9 vpn [19:0] $end
$var integer 32 : i [31:0] $end
$var integer 32 ; seed [31:0] $end
$scope module tlb_i $end
$var wire 1 , asid_to_be_flushed_i $end
$var wire 1 < asid_to_be_flushed_is0 $end
$var wire 1 0 clk_i $end
$var wire 1 " flush_i $end
$var wire 1 # lu_access_i $end
$var wire 1 $ lu_asid_i $end
$var wire 32 = lu_vaddr_i [31:0] $end
$var wire 128 > port_content_q_o [127:0] $end
$var wire 124 ? port_tags_q_o [123:0] $end
$var wire 1 2 rst_ni $end
$var wire 63 @ update_i [62:0] $end
$var wire 32 A vaddr_to_be_flushed_i [31:0] $end
$var wire 1 B vaddr_to_be_flushed_is0 $end
$var wire 31 C tdata [30:0] $end
$var wire 31 D tags_q_3 [30:0] $end
$var wire 31 E tags_q_2 [30:0] $end
$var wire 31 F tags_q_1 [30:0] $end
$var wire 31 G tags_q_0 [30:0] $end
$var wire 32 H content_q_3 [31:0] $end
$var wire 32 I content_q_2 [31:0] $end
$var wire 32 J content_q_1 [31:0] $end
$var wire 32 K content_q_0 [31:0] $end
$var wire 32 L cdata [31:0] $end
$var reg 128 M content_n [127:0] $end
$var reg 128 N content_q [127:0] $end
$var reg 32 O lu_content_o [31:0] $end
$var reg 4 P lu_hit [3:0] $end
$var reg 1 * lu_hit_o $end
$var reg 1 ) lu_is_4M_o $end
$var reg 6 Q plru_tree_n [5:0] $end
$var reg 6 R plru_tree_q [5:0] $end
$var reg 4 S replace_en [3:0] $end
$var reg 124 T tags_n [123:0] $end
$var reg 124 U tags_q [123:0] $end
$var reg 4 V vaddr_vpn0_match [3:0] $end
$var reg 4 W vaddr_vpn1_match [3:0] $end
$var reg 10 X vpn0 [9:0] $end
$var reg 10 Y vpn1 [9:0] $end
$scope function countSetBits $end
$var reg 32 Z count [31:0] $end
$var reg 32 [ countSetBits [31:0] $end
$var reg 4 \ vector [3:0] $end
$scope begin sv2v_autoblock_9 $end
$var integer 32 ] idx [31:0] $end
$upscope $end
$upscope $end
$scope begin p_assertions $end
$upscope $end
$scope begin plru_replacement $end
$scope begin sv2v_autoblock_3 $end
$var reg 32 ^ i [31:0] $end
$scope begin sv2v_autoblock_4 $end
$var reg 32 _ idx_base [31:0] $end
$var reg 32 ` new_index [31:0] $end
$var reg 32 a shift [31:0] $end
$scope begin sv2v_autoblock_5 $end
$var reg 32 b lvl [31:0] $end
$upscope $end
$upscope $end
$upscope $end
$scope begin sv2v_autoblock_6 $end
$var reg 32 c i [31:0] $end
$scope begin sv2v_autoblock_7 $end
$var reg 1 d en $end
$var reg 32 e idx_base [31:0] $end
$var reg 32 f new_index [31:0] $end
$var reg 32 g shift [31:0] $end
$scope begin sv2v_autoblock_8 $end
$var reg 32 h lvl [31:0] $end
$upscope $end
$upscope $end
$upscope $end
$upscope $end
$scope begin translation $end
$scope begin sv2v_autoblock_1 $end
$var reg 32 i i [31:0] $end
$upscope $end
$upscope $end
$scope begin update_flush $end
$scope begin sv2v_autoblock_2 $end
$var reg 32 j i [31:0] $end
$upscope $end
$upscope $end
$upscope $end
$scope task make_tlb_flush $end
$var reg 9 k asid [8:0] $end
$var reg 20 l vpn [19:0] $end
$upscope $end
$scope task make_tlb_lookup $end
$var reg 9 m asid [8:0] $end
$var reg 20 n vpn [19:0] $end
$upscope $end
$scope task make_tlb_update $end
$var reg 9 o asid [8:0] $end
$var reg 32 p entry_data [31:0] $end
$var reg 20 q vpn [19:0] $end
$upscope $end
$upscope $end
$enddefinitions $end
#0
$dumpvars
bx q
bx p
bx o
bx n
bx m
bx l
bx k
bx j
bx i
bx h
bx g
bx f
bx e
xd
bx c
bx b
bx a
bx `
bx _
bx ^
bx ]
bx \
bx [
bx Z
bx Y
bx X
bx W
bx V
bx U
bx T
bx S
bx R
bx Q
bx P
bx O
bx N
bx M
b0xxxxxxxxxxxxxxxxxxxxxxxxxxxxxx1 L
bx K
bx J
bx I
bx H
bx G
bx F
bx E
bx D
bx C
xB
bx A
bx @
bx ?
bx >
bx =
x<
b1101001011 ;
bx :
bx 9
bx 8
bx 7
bx 6
x5
x4
x3
12
bx 1
10
bx /
bx .
b0 -
x,
bx +
x*
x)
bx (
bx '
bx01 &
bx %
x$
x#
x"
bx !
$end
#10
00
#20
b1 S
b1 f
b1 g
b1 e
b10 h
0d
b100 c
b100 ^
b0 Q
b0 K
b0 J
b0 I
b0 H
b100 j
b0 M
b0 T
b100 i
0)
b0 +
b0 O
0*
b0 P
b0 G
b0 F
b0 E
b0 D
b1 -
b0 R
b0 >
b0 N
b0 ?
b0 U
10
02
#30
00
#40
b10 -
10
#50
00
#60
b11 -
10
b11010111010011100010100010101110 !
b11010111010011100010100010101110 1
b10000111010000000110 9
b1010111010011100010011011010001 ;
b11000011101000000011001 &
b1 .
12
#70
00
#80
b11010111010011100010100010101110 K
b11000011101000000011001 G
b11010111010011100010100010101110 >
b11010111010011100010100010101110 N
b11000011101000000011001 ?
b11000011101000000011001 U
b100 -
b1010111010011100010100010101110 C
1B
1<
b100 i
b0 Y
b0 X
b11010111010011100010100010101110 M
b11000011101000000011001 T
b1110 W
b1110 V
b100 j
b11000011101000000011001 L
10
b10101101100101111010100101011 !
b10101101100101111010100101011 1
b10001100111000110101001 &
b11001110001101010 9
b0 '
b0 8
b0 A
0,
0"
03
0$
05
b0 %
b0 =
b0 6
b101000011101000000011000000000111010111010011100010100010101110 (
b101000011101000000011000000000111010111010011100010100010101110 7
b101000011101000000011000000000111010111010011100010100010101110 @
b11010111010011100010100010101110 p
b1 o
b10000111010000000110 q
b0 /
b10010101101100101111001011011100 ;
b0 :
#90
00
#100
b101 -
b0 C
b100 i
b1100111 Y
b1101010 X
b100 j
b1 L
10
b11011011001100010110101010110110 !
b11011011001100010110101010110110 1
b11011010111000000001001 &
b10110101110000000010 9
1$
15
b11001110001101010000000000000 %
b11001110001101010000000000000 =
b11001110001101010000000000000 6
b0 (
b0 7
b0 @
b1 m
b11001110001101010 n
b10 /
b1011011001100010110100100000011 ;
b1 :
#110
00
#120
b11000011101000000011000 G
b11000011101000000011000 ?
b11000011101000000011000 U
b110 -
0B
0<
b0 W
b0 V
b11000011101000000011000 T
b100 j
b100 i
b0 Y
b0 X
10
b10010100110111111111111000101001 !
b10010100110111111111111000101001 1
b11010010000111001110001 &
b10100100001110011100 9
b10110101110000000010000000000000 '
b10110101110000000010000000000000 8
b10110101110000000010000000000000 A
1,
1"
13
0$
05
b0 %
b0 =
b0 6
b1 k
b10110101110000000010 l
b11 /
b10100110111111111110001110110 ;
b10 :
#130
00
#140
b111 -
b100 j
10
b10010101110001110001011000101011 !
b10010101110001110001011000101011 1
b11110111000101000110101 &
b11101110001010001101 9
b10100100001110011100000000000000 '
b10100100001110011100000000000000 8
b10100100001110011100000000000000 A
b10100100001110011100 l
b10101110001110001010000100101 ;
b11 :
#150
00
#160
b1000 -
1B
b1110 W
b1110 V
b100 j
1<
10
b11111100111011100010011011111001 !
b11111100111011100010011011111001 1
b10100010101100111000101 &
b1000101011001110001 9
b0 '
b0 8
b0 A
0,
b0 k
b0 l
b1 /
b1111100111011100010010111000000 ;
b100 :
#170
00
#180
b11111100111011100010011011111001 K
b100 i
b10100010101100111000101 G
b11111100111011100010011011111001 >
b11111100111011100010011011111001 N
b10100010101100111000101 ?
b10100010101100111000101 U
b1001 -
b1111100111011100010011011111001 C
b11111100111011100010011011111001 M
b10100010101100111000101 T
b100 j
b10100010101100111000101 L
10
b101101001001000010111101011010 !
b101101001001000010111101011010 1
b11011100110111000001101 &
b10111001101110000011 9
0"
03
b100100010101100111000100000000111111100111011100010011011111001 (
b100100010101100111000100000000111111100111011100010011011111001 7
b100100010101100111000100000000111111100111011100010011011111001 @
b11111100111011100010011011111001 p
b1000101011001110001 q
b0 /
b10101101001001000010110010110111 ;
b101 :
#190
00
#200
b100 i
b10100010101100111000100 G
b10100010101100111000100 ?
b10100010101100111000100 U
b1010 -
b0 C
b10100010101100111000100 T
b100 j
b1 L
10
b101010111111111010111101010101 !
b101010111111111010111101010101 1
b10000100100111001010001 &
b1001001110010100 9
1"
13
b0 (
b0 7
b0 @
b1 /
b10101010111111111010110100111010 ;
b110 :
#210
00
#220
b1011 -
0B
b0 W
b0 V
b100 j
0<
10
b11010001111110100011010010100011 !
b11010001111110100011010010100011 1
b11100100010100100000101 &
b11001000101001000001 9
b1001001110010100000000000000 '
b1001001110010100000000000000 8
b1001001110010100000000000000 A
1,
b1 k
b1001001110010100 l
b11 /
b1010001111110100011001100111001 ;
b111 :
#230
00
#240
b1100 -
1B
1<
b1110 W
b1110 V
b100 j
b100 i
b1100100010 Y
b1001000001 X
10
b10111111000111011111111001111110 !
b10111111000111011111111001111110 1
b10111100010001001100001 &
b1111000100010011000 9
b0 '
b0 8
b0 A
0,
0"
03
1$
15
b11001000101001000001000000000000 %
b11001000101001000001000000000000 =
b11001000101001000001000000000000 6
b11001000101001000001 n
b10 /
b111111000111011111110101100100 ;
b1000 :
#250
00
#260
b10111111000111011111111001111110 K
b10111100010001001100001 G
b10111111000111011111111001111110 >
b10111111000111011111111001111110 N
b10111100010001001100001 ?
b10111100010001001100001 U
b1101 -
b111111000111011111111001111110 C
b100 i
b0 Y
b0 X
b10111111000111011111111001111110 M
b10111100010001001100001 T
b100 j
b10111100010001001100001 L
10
b1010111000101100100011110101110 !
b1010111000101100100011110101110 1
b11010101111011111000101 &
b10101011110111110001 9
0$
05
b0 %
b0 =
b0 6
b100111100010001001100000000000110111111000111011111111001111110 (
b100111100010001001100000000000110111111000111011111111001111110 7
b100111100010001001100000000000110111111000111011111111001111110 @
b10111111000111011111111001111110 p
b1111000100010011000 q
b0 /
b11010111000101100100010000101011 ;
b1001 :
#270
00
#280
b1010111000101100100011110101110 K
b100 i
b11010101111011111000101 G
b1010111000101100100011110101110 >
b1010111000101100100011110101110 N
b11010101111011111000101 ?
b11010101111011111000101 U
b1110 -
b1010111000101100100011110101110 C
b1010111000101100100011110101110 M
b11010101111011111000101 T
b100 j
b11010101111011111000101 L
10
b11101100010111110100111011011000 !
b11101100010111110100111011011000 1
b10101110011011011000101 &
b1011100110110110001 9
b101010101111011111000100000000101010111000101100100011110101110 (
b101010101111011111000100000000101010111000101100100011110101110 7
b101010101111011111000100000000101010111000101100100011110101110 @
b1010111000101100100011110101110 p
b10101011110111110001 q
b1101100010111110100110010111110 ;
b1010 :
#290
00
#300
b100 i
b11010101111011111000100 G
b11010101111011111000100 ?
b11010101111011111000100 U
b1111 -
b0 C
0B
0<
b0 W
b0 V
b11010101111011111000100 T
b100 j
b1 L
10
b1111100011110011101100011111 !
b1111100011110011101100011111 1
b10011111011101110001101 &
b111110111011100011 9
b1011100110110110001000000000000 '
b1011100110110110001000000000000 8
b1011100110110110001000000000000 A
1,
1"
13
b0 (
b0 7
b0 @
b1011100110110110001 l
b11 /
b10001111100011110011100000001101 ;
b1011 :
#310
00
#320
b10000 -
b100 j
10
b1110101101001110011111111101011 !
b1110101101001110011111111101011 1
b11111000001110110010001 &
b11110000011101100100 9
b111110111011100011000000000000 '
b111110111011100011000000000000 8
b111110111011100011000000000000 A
b111110111011100011 l
b11110101101001110011110111001000 ;
b1100 :
#330
00
#340
b10001 -
1B
b1110 W
b1110 V
b100 j
1<
10
b101010111010101100010101010101 !
b101010111010101100010101010101 1
b10100001001010001011001 &
b1000010010100010110 9
b0 '
b0 8
b0 A
0,
b0 k
b0 l
b1 /
b10101010111010101100001101011111 ;
b1101 :
#350
00
#360
b10010 -
b100 j
b100 i
b100001001 Y
b100010110 X
10
b101101111010101000000101011011 !
b101101111010101000000101011011 1
b10000001001000100010001 &
b10010001000100 9
0"
03
1$
15
b1000010010100010110000000000000 %
b1000010010100010110000000000000 =
b1000010010100010110000000000000 6
b1000010010100010110 n
b10 /
b10101101111010100111111100000010 ;
b1110 :
#370
00
#380
b101101111010101000000101011011 K
b10000001001000100010001 G
b101101111010101000000101011011 >
b101101111010101000000101011011 N
b10000001001000100010001 ?
b10000001001000100010001 U
b10011 -
b101101111010101000000101011011 C
b100 i
b0 Y
b0 X
b101101111010101000000101011011 M
b10000001001000100010001 T
b100 j
b10000001001000100010001 L
10
b10110010000011001100100101100 !
b10110010000011001100100101100 1
b11010010100111010001101 &
b10100101001110100011 9
0$
05
b0 %
b0 =
b0 6
b100000001001000100010000000000100101101111010101000000101011011 (
b100000001001000100010000000000100101101111010101000000101011011 7
b100000001001000100010000000000100101101111010101000000101011011 @
b101101111010101000000101011011 p
b10010001000100 q
b0 /
b10010110010000011001011010100001 ;
b1111 :
#390
00
#400
b100 i
b10000001001000100010000 G
b10000001001000100010000 ?
b10000001001000100010000 U
b10100 -
b0 C
0B
0<
b0 W
b0 V
b10000001001000100010000 T
b100 j
b1 L
10
b11101101100111010110110011011011 !
b11101101100111010110110011011011 1
b11000011001010101111001 &
b10000110010101011110 9
b10100101001110100011000000000000 '
b10100101001110100011000000000000 8
b10100101001110100011000000000000 A
1,
1"
13
b0 (
b0 7
b0 @
b1 k
b10100101001110100011 l
b11 /
b1101101100111010110101011101100 ;
b10000 :
#410
00
#420
b11101101100111010110110011011011 K
b100 i
b11000011001010101111001 G
b11101101100111010110110011011011 >
b11101101100111010110110011011011 N
b11000011001010101111001 ?
b11000011001010101111001 U
b10101 -
b1101101100111010110110011011011 C
1B
1<
b1110 W
b1110 V
b11101101100111010110110011011011 M
b11000011001010101111001 T
b100 j
b11000011001010101111001 L
10
b1101011001010101000000111010110 !
b1101011001010101000000111010110 1
b11111111101110101110101 &
b11111111011101011101 9
b0 '
b0 8
b0 A
0,
0"
03
b101000011001010101111000000000111101101100111010110110011011011 (
b101000011001010101111000000000111101101100111010110110011011011 7
b101000011001010101111000000000111101101100111010110110011011011 @
b11101101100111010110110011011011 p
b10000110010101011110 q
b0 /
b11101011001010100111111001010011 ;
b10001 :
#430
00
#440
b10110 -
10
b11110111110001000101111101111000 ;
b10010 :
