cva6-model/tlb_traces_auto/test_15/tlb_wave_pipeline.vcd
$date
	Sat Nov 12 21:36:10 2022
$end
$version
	Icarus Verilog
$end
$timescale
	1s
$end
$scope module tlb_tb $end
$var wire 32 ! cdata [31:0] $end
$var wire 1 " de_io_flush_i $end
$var wire 1 # de_io_lu_access_i $end
$var wire 1 $ de_io_lu_asid_i $end
$var wire 32 % de_io_lu_vaddr_i [31:0] $end
$var wire 31 & tdata [30:0] $end
$var wire 32 ' de_io_vaddr_to_be_flushed_i [31:0] $end
$var wire 63 ( de_io_update_i [62:0] $end
$var wire 1 ) de_io_lu_is_4M_o $end
$var wire 1 * de_io_lu_hit_o $end
$var wire 32 + de_io_lu_content_o [31:0] $end
$var wire 1 , de_io_asid_to_be_flushed_i $end
$var reg 32 - CLK_CYCLE [31:0] $end
$var reg 9 . asid [8:0] $end
$var reg 2 / choice [1:0] $end
$var reg 1 0 clk $end
$var reg 32 1 edata [31:0] $end
$var reg 1 2 reset $end
$var reg 1 , tb_io_asid_to_be_flushed_i $end
$var reg 1 3 tb_io_flush_i $end
$var reg 1 4 tb_io_lu_access_i $end
$var reg 1 5 tb_io_lu_asid_i $end
$var reg 32 6 tb_io_lu_vaddr_i [31:0] $end
$var reg 63 7 tb_io_update_i [62:0] $end
$var reg 32 8 tb_io_vaddr_to_be_flushed_i [31:0] $end
$var reg 20 9 vpn [19:0] $end
$var integer 32 : i [31:0] $end
$var integer 32 ; seed [31:0] $end
$scope module tlb_i $end
$var wire 1 , asid_to_be_flushed_i $end
$var wire 1 < asid_to_be_flushed_is0 $end
$var wire 1 0 clk_i $end
$var wire 1 " flush_i $end
$var wire 1 # lu_access_i $end
$var wire 1 $ lu_asid_i $end
$var wire 32 = lu_vaddr_i [31:0] $end
$var wire 128 > port_content_q_o [127:0] $end
$var wire 124 ? port_tags_q_o [123:0] $end
$var wire 1 2 rst_ni $end
$var wire 63 @ update_i [62:0] $end
$var wire 32 A vaddr_to_be_flushed_i [31:0] $end
$var wire 1 B vaddr_to_be_flushed_is0 $end
$var wire 31 C tdata [30:0] $end
$var wire 31 D tags_q_3 [30:0] $end
$var wire 31 E tags_q_2 [30:0] $end
$var wire 31 F tags_q_1 [30:0] $end
$var wire 31 G tags_q_0 [30:0] $end
$var wire 32 H content_q_3 [31:0] $end
$var wire 32 I content_q_2 [31:0] $end
$var wire 32 J content_q_1 [31:0] $end
$var wire 32 K content_q_0 [31:0] $end
$var wire 32 L cdata [31:0] $end
$var reg 128 M content_n [127:0] $end
$var reg 128 N content_q [127:0] $end
$var reg 32 O lu_content_o [31:0] $end
$var reg 4 P lu_hit [3:0] $end
$var reg 1 * lu_hit_o $end
$var reg 1 ) lu_is_4M_o $end
$var reg 6 Q plru_tree_n [5:0] $end
$var reg 6 R plru_tree_q [5:0] $end
$var reg 4 S replace_en [3:0] $end
$var reg 124 T tags_n [123:0] $end
$var reg 124 U tags_q [123:0] $end
$var reg 4 V vaddr_vpn0_match [3:0] $end
$var reg 4 W vaddr_vpn1_match [3:0] $end
$var reg 10 X vpn0 [9:0] $end
$var reg 10 Y vpn1 [9:0] $end
$scope function countSetBits $end
$var reg 32 Z count [31:0] $end
$var reg 32 [ countSetBits [31:0] $end
$var reg 4 \ vector [3:0] $end
$scope begin sv2v_autoblock_9 $end
$var integer 32 ] idx [31:0] $end
$upscope $end
$upscope $end
$scope begin p_assertions $end
$upscope $end
$scope begin plru_replacement $end
$scope begin sv2v_autoblock_3 $end
$var reg 32 ^ i [31:0] $end
$scope begin sv2v_autoblock_4 $end
$var reg 32 _ idx_base [31:0] $end
$var reg 32 ` new_index [31:0] $end
$var reg 32 a shift [31:0] $end
$scope begin sv2v_autoblock_5 $end
$var reg 32 b lvl [31:0] $end
$upscope $end
$upscope $end
$upscope $end
$scope begin sv2v_autoblock_6 $end
$var reg 32 c i [31:0] $end
$scope begin sv2v_autoblock_7 $end
$var reg 1 d en $end
$var reg 32 e idx_base [31:0] $end
$var reg 32 f new_index [31:0] $end
$var reg 32 g shift [31:0] $end
$scope begin sv2v_autoblock_8 $end
$var reg 32 h lvl [31:0] $end
$upscope $end
$upscope $end
$upscope $end
$upscope $end
$scope begin translation $end
$scope begin sv2v_autoblock_1 $end
$var reg 32 i i [31:0] $end
$upscope $end
$upscope $end
$scope begin update_flush $end
$scope begin sv2v_autoblock_2 $end
$var reg 32 j i [31:0] $end
$upscope $end
$upscope $end
$upscope $end
$scope task make_tlb_flush $end
$var reg 9 k asid [8:0] $end
$var reg 20 l vpn [19:0] $end
$upscope $end
$scope task make_tlb_lookup $end
$var reg 9 m asid [8:0] $end
$var reg 20 n vpn [19:0] $end
$upscope $end
$scope task make_tlb_update $end
$var reg 9 o asid [8:0] $end
$var reg 32 p entry_data [31:0] $end
$var reg 20 q vpn [19:0] $end
$upscope $end
$upscope $end
$enddefinitions $end
#0
$dumpvars
bx q
bx p
bx o
bx n
bx m
bx l
bx k
bx j
bx i
bx h
bx g
bx f
bx e
xd
bx c
bx b
bx a
bx `
bx _
bx ^
bx ]
bx \
bx [
bx Z
bx Y
bx X
bx W
bx V
bx U
bx T
bx S
bx R
bx Q
bx P
bx O
bx N
bx M
b0xxxxxxxxxxxxxxxxxxxxxxxxxxxxxx1 L
bx K
bx J
bx I
bx H
bx G
bx F
bx E
bx D
bx C
xB
bx A
bx @
bx ?
bx >
bx =
x<
b1001011101 ;
bx :
bx 9
bx 8
bx 7
bx 6
x5
x4
x3
12
bx 1
10
bx /
bx .
b0 -
x,
bx +
x*
x)
bx (
bx '
bx01 &
bx %
x$
x#
x"
bx !
$end
#10
00
#20
b1 S
b1 f
b1 g
b1 e
b10 h
0d
b100 c
b100 ^
b0 Q
b0 K
b0 J
b0 I
b0 H
b100 j
b0 M
b0 T
b100 i
0)
b0 +
b0 O
0*
b0 P
b0 G
b0 F
b0 E
b0 D
b1 -
b0 R
b0 >
b0 N
b0 ?
b0 U
10
02
#30
00
#40
b10 -
10
#50
00
#60
b11 -
10
b1111101000100000100111111111010 !
b1111101000100000100111111111010 1
b11011001111000000100 9
b11111101000100000100110010110011 ;
b11101100111100000010001 &
b1 .
12
#70
00
#80
b100 -
b0 C
1B
1<
b100 i
b0 Y
b0 X
b1111 W
b1111 V
b100 j
b1 L
10
b1000110101110111111100010001 !
b1000110101110111111100010001 1
b11111110110111111100001 &
b11111101101111111000 9
b0 '
b0 8
b0 A
0,
1"
13
0$
05
b0 %
b0 =
b0 6
b0 (
b0 7
b0 @
b0 k
b0 l
b1 /
b10001000110101110111110111100110 ;
b0 :
#90
00
#100
b101 -
0B
b0 W
b0 V
b100 j
0<
10
b10110000110001110001100001100001 !
b10110000110001110001100001100001 1
b11100001111010101101101 &
b11000011110101011011 9
b11111101101111111000000000000000 '
b11111101101111111000000000000000 8
b11111101101111111000000000000000 A
1,
b1 k
b11111101101111111000 l
b11 /
b110000110001110001011001010101 ;
b1 :
#110
00
#120
b110 -
b100 j
10
b11000011010001111000100010000110 !
b11000011010001111000100010000110 1
b10110110100010001101001 &
b1101101000100011010 9
b11000011110101011011000000000000 '
b11000011110101011011000000000000 8
b11000011110101011011000000000000 A
b11000011110101011011 l
b1000011010001111000011110110000 ;
b10 :
#130
00
#140
b111 -
b100 j
10
b11100011000011010111101011000110 !
b11100011000011010111101011000110 1
b10000111010110100011101 &
b1110101101000111 9
b1101101000100011010000000000000 '
b1101101000100011010000000000000 8
b1101101000100011010000000000000 A
b1101101000100011010 l
b1100011000011010111100101100111 ;
b11 :
#150
00
#160
b11100011000011010111101011000110 K
b100 i
b10000111010110100011101 G
b11100011000011010111101011000110 >
b11100011000011010111101011000110 N
b10000111010110100011101 ?
b10000111010110100011101 U
b1000 -
b1100011000011010111101011000110 C
1B
1<
b11100011000011010111101011000110 M
b10000111010110100011101 T
b1110 W
b1110 V
b100 j
b10000111010110100011101 L
10
b101010000010111000110101010100 !
b101010000010111000110101010100 1
b10110111110100010010101 &
b1101111101000100101 9
b0 '
b0 8
b0 A
0,
0"
03
b100000111010110100011100000000111100011000011010111101011000110 (
b100000111010110100011100000000111100011000011010111101011000110 7
b100000111010110100011100000000111100011000011010111101011000110 @
b11100011000011010111101011000110 p
b1 o
b1110101101000111 q
b0 /
b10101010000010111000101110101010 ;
b100 :
#170
00
#180
b1001 -
b0 C
b100 i
b110111110 Y
b1000100101 X
b100 j
b1 L
10
b10000100111100101001100000001001 !
b10000100111100101001100000001001 1
b11010110010100101000101 &
b10101100101001010001 9
1$
15
b1101111101000100101000000000000 %
b1101111101000100101000000000000 =
b1101111101000100101000000000000 6
b0 (
b0 7
b0 @
b1 m
b1101111101000100101 n
b10 /
b100111100101001011001101001 ;
b101 :
#190
00
#200
b10000100111100101001100000001001 K
b11010110010100101000101 G
b10000100111100101001100000001001 >
b10000100111100101001100000001001 N
b11010110010100101000101 ?
b11010110010100101000101 U
b1010 -
b100111100101001100000001001 C
b100 i
b0 Y
b0 X
b10000100111100101001100000001001 M
b11010110010100101000101 T
b100 j
b11010110010100101000101 L
10
b1000001111100110001011110000011 !
b1000001111100110001011110000011 1
b10111100011011001100001 &
b1111000110110011000 9
0$
05
b0 %
b0 =
b0 6
b101010110010100101000100000000110000100111100101001100000001001 (
b101010110010100101000100000000110000100111100101001100000001001 7
b101010110010100101000100000000110000100111100101001100000001001 @
b10000100111100101001100000001001 p
b10101100101001010001 q
b0 /
b11000001111100110001010001010100 ;
b110 :
#210
00
#220
b1000001111100110001011110000011 K
b100 i
b10111100011011001100001 G
b1000001111100110001011110000011 >
b1000001111100110001011110000011 N
b10111100011011001100001 ?
b10111100011011001100001 U
b1011 -
b1000001111100110001011110000011 C
b1000001111100110001011110000011 M
b10111100011011001100001 T
b100 j
b10111100011011001100001 L
10
b10101010011111000010101001010100 !
b10101010011111000010101001010100 1
b11110000010001001000001 &
b11100000100010010000 9
b100111100011011001100000000000101000001111100110001011110000011 (
b100111100011011001100000000000101000001111100110001011110000011 7
b100111100011011001100000000000101000001111100110001011110000011 @
b1000001111100110001011110000011 p
b1111000110110011000 q
b101010011111000010100111011011 ;
b111 :
#230
00
#240
b1100 -
b0 C
b100 i
b1110000010 Y
b10010000 X
b100 j
b1 L
10
b1111010000100010111101111110100 !
b1111010000100010111101111110100 1
b10110101101001100000001 &
b1101011010011000000 9
1$
15
b11100000100010010000000000000000 %
b11100000100010010000000000000000 =
b11100000100010010000000000000000 6
b0 (
b0 7
b0 @
b11100000100010010000 n
b10 /
b11111010000100010111100000101110 ;
b1000 :
#250
00
#260
b1101 -
b100 i
b110101101 Y
b11000000 X
10
b1101101101111001010111111011011 !
b1101101101111001010111111011011 1
b10010100000101110010001 &
b101000001011100100 9
b1101011010011000000000000000000 %
b1101011010011000000000000000000 =
b1101011010011000000000000000000 6
b1101011010011000000 n
b11101101101111001010110000111101 ;
b1001 :
#270
00
#280
b1110 -
b100 i
b10100000 Y
b1011100100 X
10
b1110101100001100111101111101011 !
b1110101100001100111101111101011 1
b10100110000111101011101 &
b1001100001111010111 9
b101000001011100100000000000000 %
b101000001011100100000000000000 =
b101000001011100100000000000000 6
b101000001011100100 n
b11110101100001100111100110111000 ;
b1010 :
#290
00
#300
b10111100011011001100000 G
b10111100011011001100000 ?
b10111100011011001100000 U
b1111 -
b10111100011011001100000 T
b100 j
b100 i
b0 Y
b0 X
10
b1111010101000000111010111110101 !
b1111010101000000111010111110101 1
b10101010111101000101101 &
b1010101111010001011 9
1"
13
0$
05
b0 %
b0 =
b0 6
b0 k
b0 l
b1 /
b11111010101000000111001000001111 ;
b1011 :
#310
00
#320
b1111010101000000111010111110101 K
b100 i
b10101010111101000101101 G
b1111010101000000111010111110101 >
b1111010101000000111010111110101 N
b10101010111101000101101 ?
b10101010111101000101101 U
b10000 -
b1111010101000000111010111110101 C
b1111010101000000111010111110101 M
b10101010111101000101101 T
b100 j
b10101010111101000101101 L
10
b10101010100010011110100001010101 !
b10101010100010011110100001010101 1
b11110001111111110001001 &
b11100011111111100010 9
0"
03
b100101010111101000101100000000101111010101000000111010111110101 (
b100101010111101000101100000000101111010101000000111010111110101 7
b100101010111101000101100000000101111010101000000111010111110101 @
b1111010101000000111010111110101 p
b1010101111010001011 q
b0 /
b101010100010011110011101110010 ;
b1100 :
#330
00
#340
b100 i
b10101010111101000101100 G
b10101010111101000101100 ?
b10101010111101000101100 U
b10001 -
b0 C
b10101010111101000101100 T
b100 j
b1 L
10
b11100100011110011100110011001000 !
b11100100011110011100110011001000 1
b10101101011001100111101 &
b1011010110011001111 9
1"
13
b0 (
b0 7
b0 @
b1 /
b1100100011110011100101111010001 ;
b1101 :
#350
00
#360
b10010 -
10
b11101010011000100011110011010100 !
b11101010011000100011110011010100 1
b11101000010100100111001 &
b11010000101001001110 9
b1101010011000100011101111011100 ;
b1110 :
#370
00
#380
b10011 -
0B
b0 W
b0 V
b100 j
0<
10
b11000000101000010100100110000 !
b11000000101000010100100110000 1
b10100000011111110100101 &
b1000000111111101001 9
b11010000101001001110000000000000 '
b11010000101001001110000000000000 8
b11010000101001001110000000000000 A
1,
b1 k
b11010000101001001110 l
b11 /
b10011000000101000010011000000011 ;
b1111 :
#390
00
#400
b11000000101000010100100110000 K
b100 i
b10100000011111110100101 G
b11000000101000010100100110000 >
b11000000101000010100100110000 N
b10100000011111110100101 ?
b10100000011111110100101 U
b10100 -
b11000000101000010100100110000 C
1B
1<
b1110 W
b1110 V
b11000000101000010100100110000 M
b10100000011111110100101 T
b100 j
b10100000011111110100101 L
10
b1010101011100011111100010101 !
b1010101011100011111100010101 1
b11000100010000001001101 &
b10001000100000010011 9
b0 '
b0 8
b0 A
0,
0"
03
b100100000011111110100100000000100011000000101000010100100110000 (
b100100000011111110100100000000100011000000101000010100100110000 7
b100100000011111110100100000000100011000000101000010100100110000 @
b11000000101000010100100110000 p
b1000000111111101001 q
b0 /
b10001010101011100011110101110110 ;
b10000 :
#410
00
#420
b1010101011100011111100010101 K
b100 i
b11000100010000001001101 G
b1010101011100011111100010101 >
b1010101011100011111100010101 N
b11000100010000001001101 ?
b11000100010000001001101 U
b10101 -
b1010101011100011111100010101 C
b1010101011100011111100010101 M
b11000100010000001001101 T
b100 j
b11000100010000001001101 L
10
b10010000110101100010101000100001 !
b10010000110101100010101000100001 1
b11101010010110001110101 &
b11010100101100011101 9
b101000100010000001001100000000100001010101011100011111100010101 (
b101000100010000001001100000000100001010101011100011111100010101 7
b101000100010000001001100000000100001010101011100011111100010101 @
b1010101011100011111100010101 p
b10001000100000010011 q
b10000110101100010100100100101 ;
b10001 :
#430
00
#440
b10110 -
10
b10000100101110101101001110100010 ;
b10010 :
