cva6-model/tlb_traces/test_1/tlb_wave_pipeline.vcd
$date
	Sat Nov  5 20:55:32 2022
$end
$version
	Icarus Verilog
$end
$timescale
	1s
$end
$scope module tlb_tb $end
$var wire 32 ! cdata [31:0] $end
$var wire 1 " de_io_flush_i $end
$var wire 1 # de_io_lu_access_i $end
$var wire 1 $ de_io_lu_asid_i $end
$var wire 32 % de_io_lu_vaddr_i [31:0] $end
$var wire 31 & tdata [30:0] $end
$var wire 32 ' de_io_vaddr_to_be_flushed_i [31:0] $end
$var wire 63 ( de_io_update_i [62:0] $end
$var wire 1 ) de_io_lu_is_4M_o $end
$var wire 1 * de_io_lu_hit_o $end
$var wire 32 + de_io_lu_content_o [31:0] $end
$var wire 1 , de_io_asid_to_be_flushed_i $end
$var reg 32 - CLK_CYCLE [31:0] $end
$var reg 9 . asid [8:0] $end
$var reg 2 / choice [1:0] $end
$var reg 1 0 clk $end
$var reg 32 1 edata [31:0] $end
$var reg 1 2 reset $end
$var reg 1 , tb_io_asid_to_be_flushed_i $end
$var reg 1 3 tb_io_flush_i $end
$var reg 1 4 tb_io_lu_access_i $end
$var reg 1 5 tb_io_lu_asid_i $end
$var reg 32 6 tb_io_lu_vaddr_i [31:0] $end
$var reg 63 7 tb_io_update_i [62:0] $end
$var reg 32 8 tb_io_vaddr_to_be_flushed_i [31:0] $end
$var reg 20 9 vpn [19:0] $end
$var integer 32 : i [31:0] $end
$var integer 32 ; seed [31:0] $end
$scope module tlb_i $end
$var wire 1 , asid_to_be_flushed_i $end
$var wire 1 < asid_to_be_flushed_is0 $end
$var wire 1 0 clk_i $end
$var wire 1 " flush_i $end
$var wire 1 # lu_access_i $end
$var wire 1 $ lu_asid_i $end
$var wire 32 = lu_vaddr_i [31:0] $end
$var wire 128 > port_content_q_o [127:0] $end
$var wire 124 ? port_tags_q_o [123:0] $end
$var wire 1 2 rst_ni $end
$var wire 63 @ update_i [62:0] $end
$var wire 32 A vaddr_to_be_flushed_i [31:0] $end
$var wire 1 B vaddr_to_be_flushed_is0 $end
$var wire 31 C tdata [30:0] $end
$var wire 31 D tags_q_3 [30:0] $end
$var wire 31 E tags_q_2 [30:0] $end
$var wire 31 F tags_q_1 [30:0] $end
$var wire 31 G tags_q_0 [30:0] $end
$var wire 32 H content_q_3 [31:0] $end
$var wire 32 I content_q_2 [31:0] $end
$var wire 32 J content_q_1 [31:0] $end
$var wire 32 K content_q_0 [31:0] $end
$var wire 32 L cdata [31:0] $end
$var reg 128 M content_n [127:0] $end
$var reg 128 N content_q [127:0] $end
$var reg 32 O lu_content_o [31:0] $end
$var reg 4 P lu_hit [3:0] $end
$var reg 1 * lu_hit_o $end
$var reg 1 ) lu_is_4M_o $end
$var reg 6 Q plru_tree_n [5:0] $end
$var reg 6 R plru_tree_q [5:0] $end
$var reg 4 S replace_en [3:0] $end
$var reg 124 T tags_n [123:0] $end
$var reg 124 U tags_q [123:0] $end
$var reg 4 V vaddr_vpn0_match [3:0] $end
$var reg 4 W vaddr_vpn1_match [3:0] $end
$var reg 10 X vpn0 [9:0] $end
$var reg 10 Y vpn1 [9:0] $end
$scope function countSetBits $end
$var reg 32 Z count [31:0] $end
$var reg 32 [ countSetBits [31:0] $end
$var reg 4 \ vector [3:0] $end
$scope begin sv2v_autoblock_9 $end
$var integer 32 ] idx [31:0] $end
$upscope $end
$upscope $end
$scope begin p_assertions $end
$upscope $end
$scope begin plru_replacement $end
$scope begin sv2v_autoblock_3 $end
$var reg 32 ^ i [31:0] $end
$scope begin sv2v_autoblock_4 $end
$var reg 32 _ idx_base [31:0] $end
$var reg 32 ` new_index [31:0] $end
$var reg 32 a shift [31:0] $end
$scope begin sv2v_autoblock_5 $end
$var reg 32 b lvl [31:0] $end
$upscope $end
$upscope $end
$upscope $end
$scope begin sv2v_autoblock_6 $end
$var reg 32 c i [31:0] $end
$scope begin sv2v_autoblock_7 $end
$var reg 1 d en $end
$var reg 32 e idx_base [31:0] $end
$var reg 32 f new_index [31:0] $end
$var reg 32 g shift [31:0] $end
$scope begin sv2v_autoblock_8 $end
$var reg 32 h lvl [31:0] $end
$upscope $end
$upscope $end
$upscope $end
$upscope $end
$scope begin translation $end
$scope begin sv2v_autoblock_1 $end
$var reg 32 i i [31:0] $end
$upscope $end
$upscope $end
$scope begin update_flush $end
$scope begin sv2v_autoblock_2 $end
$var reg 32 j i [31:0] $end
$upscope $end
$upscope $end
$upscope $end
$scope task make_tlb_flush $end
$var reg 9 k asid [8:0] $end
$var reg 20 l vpn [19:0] $end
$upscope $end
$scope task make_tlb_lookup $end
$var reg 9 m asid [8:0] $end
$var reg 20 n vpn [19:0] $end
$upscope $end
$scope task make_tlb_update $end
$var reg 9 o asid [8:0] $end
$var reg 32 p entry_data [31:0] $end
$var reg 20 q vpn [19:0] $end
$upscope $end
$upscope $end
$enddefinitions $end
#0
$dumpvars
bx q
bx p
bx o
bx n
bx m
bx l
bx k
bx j
bx i
bx h
bx g
bx f
bx e
xd
bx c
bx b
bx a
bx `
bx _
bx ^
bx ]
bx \
bx [
bx Z
bx Y
bx X
bx W
bx V
bx U
bx T
bx S
bx R
bx Q
bx P
bx O
bx N
bx M
b0xxxxxxxxxxxxxxxxxxxxxxxxxxxxxx1 L
bx K
bx J
bx I
bx H
bx G
bx F
bx E
bx D
bx C
xB
bx A
bx @
bx ?
bx >
bx =
x<
b1111111111 ;
bx :
bx 9
bx 8
bx 7
bx 6
x5
x4
x3
12
bx 1
10
bx /
bx .
b0 -
x,
bx +
x*
x)
bx (
bx '
bx01 &
bx %
x$
x#
x"
bx !
$end
#10
00
#20
b1 S
b1 f
b1 g
b1 e
b10 h
0d
b100 c
b100 ^
b0 Q
b0 K
b0 J
b0 I
b0 H
b100 j
b0 M
b0 T
b100 i
0)
b0 +
b0 O
0*
b0 P
b0 G
b0 F
b0 E
b0 D
b1 -
b0 R
b0 >
b0 N
b0 ?
b0 U
10
02
#30
00
#40
b10 -
10
#50
00
#60
b11 -
10
b11000101100000010011110010001011 !
b11000101100000010011110010001011 1
b1100010100000001000 9
b1000101100000010011101110100101 ;
b10110001010000000100001 &
b1 .
12
#70
00
#80
b11000101100000010011110010001011 K
b10110001010000000100001 G
b11000101100000010011110010001011 >
b11000101100000010011110010001011 N
b10110001010000000100001 ?
b10110001010000000100001 U
b100 -
b1000101100000010011110010001011 C
1B
1<
b100 i
b0 Y
b0 X
b11000101100000010011110010001011 M
b10110001010000000100001 T
b1110 W
b1110 V
b100 j
b10110001010000000100001 L
10
b110100111011111000010101101001 !
b110100111011111000010101101001 1
b11001101010100111111101 &
b10011010101001111111 9
b0 '
b0 8
b0 A
0,
0"
03
0$
05
b0 %
b0 =
b0 6
b100110001010000000100000000000111000101100000010011110010001011 (
b100110001010000000100000000000111000101100000010011110010001011 7
b100110001010000000100000000000111000101100000010011110010001011 @
b11000101100000010011110010001011 p
b1 o
b1100010100000001000 q
b0 /
b10110100111011111000001101000000 ;
b0 :
#90
00
#100
b100 i
b10110001010000000100000 G
b10110001010000000100000 ?
b10110001010000000100000 U
b101 -
b0 C
b10110001010000000100000 T
b100 j
b1 L
10
b11011101001001110111101010111010 !
b11011101001001110111101010111010 1
b11100100101001111110101 &
b11001001010011111101 9
1"
13
b0 (
b0 7
b0 @
b0 k
b0 l
b1 /
b1011101001001110111100000110111 ;
b1 :
#110
00
#120
b110 -
0B
b0 W
b0 V
b100 j
0<
10
b100000000010000000000101000000 !
b100000000010000000000101000000 1
b10100101010101110011101 &
b1001010101011100111 9
b11001001010011111101000000000000 '
b11001001010011111101000000000000 8
b11001001010011111101000000000000 A
1,
b1 k
b11001001010011111101 l
b11 /
b10100000000001111111111010111010 ;
b10 :
#130
00
#140
b111 -
1B
1<
b1110 W
b1110 V
b100 j
b100 i
b100101010 Y
b1011100111 X
10
b10110001011000101000010001100010 !
b10110001011000101000010001100010 1
b10010100101100111000101 &
b101001011001110001 9
b0 '
b0 8
b0 A
0,
0"
03
1$
15
b1001010101011100111000000000000 %
b1001010101011100111000000000000 =
b1001010101011100111000000000000 6
b1 m
b1001010101011100111 n
b10 /
b110001011000101000001010111001 ;
b11 :
#150
00
#160
b1000 -
b100 i
b10100101 Y
b1001110001 X
10
b11000000111111101010010010000001 !
b11000000111111101010010010000001 1
b10001010001001111100101 &
b10100010011111001 9
b101001011001110001000000000000 %
b101001011001110001000000000000 =
b101001011001110001000000000000 6
b101001011001110001 n
b1000000111111101010001011100100 ;
b100 :
#170
00
#180
b1001 -
b100 i
b1010001 Y
b11111001 X
10
b11010101001110000111100010101010 !
b11010101001110000111100010101010 1
b11110001111110110110001 &
b11100011111101101100 9
b10100010011111001000000000000 %
b10100010011111001000000000000 =
b10100010011111001000000000000 6
b10100010011111001 n
b1010101001110000111011110101011 ;
b101 :
#190
00
#200
b1010 -
0B
0<
b0 W
b0 V
b100 j
b100 i
b0 Y
b0 X
10
b10101010101101010100100101010 !
b10101010101101010100100101010 1
b11101000011010000011101 &
b11010000110100000111 9
b11100011111101101100000000000000 '
b11100011111101101100000000000000 8
b11100011111101101100000000000000 A
1,
1"
13
0$
05
b0 %
b0 =
b0 6
b11100011111101101100 l
b11 /
b10010101010101101010011000111110 ;
b110 :
#210
00
#220
b1011 -
1B
1<
b1110 W
b1110 V
b100 j
b100 i
b1101000011 Y
b100000111 X
10
b111111011100010011000101111110 !
b111111011100010011000101111110 1
b10010010000111001000101 &
b100100001110010001 9
b0 '
b0 8
b0 A
0,
0"
03
1$
15
b11010000110100000111000000000000 %
b11010000110100000111000000000000 =
b11010000110100000111000000000000 6
b11010000110100000111 n
b10 /
b10111111011100010010111110001101 ;
b111 :
#230
00
#240
b1100 -
b100 j
b100 i
b0 Y
b0 X
10
b11010101001110001010110010101010 !
b11010101001110001010110010101010 1
b10100101010110011001101 &
b1001010101100110011 9
1"
13
0$
05
b0 %
b0 =
b0 6
b0 k
b0 l
b1 /
b1010101001110001010101101001000 ;
b1000 :
#250
00
#260
b11010101001110001010110010101010 K
b100 i
b10100101010110011001101 G
b11010101001110001010110010101010 >
b11010101001110001010110010101010 N
b10100101010110011001101 ?
b10100101010110011001101 U
b1101 -
b1010101001110001010110010101010 C
b11010101001110001010110010101010 M
b10100101010110011001101 T
b100 j
b10100101010110011001101 L
10
b1110000111110110110000111100001 !
b1110000111110110110000111100001 1
b10111101011110000101101 &
b1111010111100001011 9
0"
03
b100100101010110011001100000000111010101001110001010110010101010 (
b100100101010110011001100000000111010101001110001010110010101010 7
b100100101010110011001100000000111010101001110001010110010101010 @
b11010101001110001010110010101010 p
b1001010101100110011 q
b0 /
b11110000111110110101111011011111 ;
b1001 :
#270
00
#280
b100 i
b10100101010110011001100 G
b10100101010110011001100 ?
b10100101010110011001100 U
b1110 -
b0 C
0B
0<
b0 W
b0 V
b10100101010110011001100 T
b100 j
b1 L
10
b11111010111101100110001011110101 !
b11111010111101100110001011110101 1
b10110000010101110110101 &
b1100000101011101101 9
b1111010111100001011000000000000 '
b1111010111100001011000000000000 8
b1111010111100001011000000000000 A
1,
1"
13
b0 (
b0 7
b0 @
b1 k
b1111010111100001011 l
b11 /
b1111010111101100110000010000010 ;
b1010 :
#290
00
#300
b1111 -
1B
b1110 W
b1110 V
b100 j
1<
10
b10011110010100001011100000111100 !
b10011110010100001011100000111100 1
b10010011100010100110101 &
b100111000101001101 9
b0 '
b0 8
b0 A
0,
b0 k
b0 l
b1 /
b11110010100001011011000100001 ;
b1011 :
#310
00
#320
b10011110010100001011100000111100 K
b100 i
b10010011100010100110101 G
b10011110010100001011100000111100 >
b10011110010100001011100000111100 N
b10010011100010100110101 ?
b10010011100010100110101 U
b10000 -
b11110010100001011100000111100 C
b10011110010100001011100000111100 M
b10010011100010100110101 T
b100 j
b10010011100010100110101 L
10
b10101101110010010001100101011 !
b10101101110010010001100101011 1
b11001011100001000110001 &
b10010111000010001100 9
0"
03
b100010011100010100110100000000110011110010100001011100000111100 (
b100010011100010100110100000000110011110010100001011100000111100 7
b100010011100010100110100000000110011110010100001011100000111100 @
b10011110010100001011100000111100 p
b100111000101001101 q
b0 /
b10010101101110010010000001101100 ;
b1100 :
#330
00
#340
b10101101110010010001100101011 K
b100 i
b11001011100001000110001 G
b10101101110010010001100101011 >
b10101101110010010001100101011 N
b11001011100001000110001 ?
b11001011100001000110001 U
b10001 -
b10101101110010010001100101011 C
b10101101110010010001100101011 M
b11001011100001000110001 T
b100 j
b11001011100001000110001 L
10
b11110100101000010000001011101001 !
b11110100101000010000001011101001 1
b11001000010001000100101 &
b10010000100010001001 9
b101001011100001000110000000000100010101101110010010001100101011 (
b101001011100001000110000000000100010101101110010010001100101011 7
b101001011100001000110000000000100010101101110010010001100101011 @
b10101101110010010001100101011 p
b10010111000010001100 q
b1110100101000010000000111010011 ;
b1101 :
#350
00
#360
b100 i
b11001011100001000110000 G
b11001011100001000110000 ?
b11001011100001000110000 U
b10010 -
b0 C
0B
0<
b0 W
b0 V
b11001011100001000110000 T
b100 j
b1 L
10
b11011101110000111001001010111011 !
b11011101110000111001001010111011 1
b11001100111010011001001 &
b10011001110100110010 9
b10010000100010001001000000000000 '
b10010000100010001001000000000000 8
b10010000100010001001000000000000 A
1,
1"
13
b0 (
b0 7
b0 @
b1 k
b10010000100010001001 l
b11 /
b1011101110000111001000110000110 ;
b1110 :
#370
00
#380
b10011 -
b100 j
10
b110111010011000100110101101110 !
b110111010011000100110101101110 1
b10111001000111010111001 &
b1110010001110101110 9
b10011001110100110010000000000000 '
b10011001110100110010000000000000 8
b10011001110100110010000000000000 A
b10011001110100110010 l
b10110111010011000100101001110101 ;
b1111 :
#390
00
#400
b110111010011000100110101101110 K
b100 i
b10111001000111010111001 G
b110111010011000100110101101110 >
b110111010011000100110101101110 N
b10111001000111010111001 ?
b10111001000111010111001 U
b10100 -
b110111010011000100110101101110 C
1B
1<
b1110 W
b1110 V
b110111010011000100110101101110 M
b10111001000111010111001 T
b100 j
b10111001000111010111001 L
10
b1111111011011100100100111111110 !
b1111111011011100100100111111110 1
b10010111010111101001101 &
b101110101111010011 9
b0 '
b0 8
b0 A
0,
0"
03
b100111001000111010111000000000100110111010011000100110101101110 (
b100111001000111010111000000000100110111010011000100110101101110 7
b100111001000111010111000000000100110111010011000100110101101110 @
b110111010011000100110101101110 p
b1110010001110101110 q
b0 /
b11111111011011100100011001010000 ;
b10000 :
#410
00
#420
b10101 -
b0 C
b100 i
b10111010 Y
b1111010011 X
b100 j
b1 L
10
b100111111100111111011101001111 !
b100111111100111111011101001111 1
b10011001100110101000101 &
b110011001101010001 9
1$
15
b101110101111010011000000000000 %
b101110101111010011000000000000 =
b101110101111010011000000000000 6
b0 (
b0 7
b0 @
b101110101111010011 n
b10 /
b10100111111100111111010010000111 ;
b10001 :
#430
00
#440
b10110 -
10
b11010110010011001010101100011100 ;
b10010 :
