cva6-model/tlb_traces_final/test_12/tlb_wave_pipeline.vcd
$date
	Thu Apr 27 01:01:30 2023
$end
$version
	Icarus Verilog
$end
$timescale
	1s
$end
$scope module tlb_tb $end
$var wire 32 ! cdata [31:0] $end
$var wire 1 " de_io_flush_i $end
$var wire 1 # de_io_lu_access_i $end
$var wire 1 $ de_io_lu_asid_i $end
$var wire 32 % de_io_lu_vaddr_i [31:0] $end
$var wire 31 & tdata [30:0] $end
$var wire 32 ' de_io_vaddr_to_be_flushed_i [31:0] $end
$var wire 63 ( de_io_update_i [62:0] $end
$var wire 1 ) de_io_lu_is_4M_o $end
$var wire 1 * de_io_lu_hit_o $end
$var wire 32 + de_io_lu_content_o [31:0] $end
$var wire 1 , de_io_asid_to_be_flushed_i $end
$var reg 32 - CLK_CYCLE [31:0] $end
$var reg 9 . asid [8:0] $end
$var reg 2 / choice [1:0] $end
$var reg 1 0 clk $end
$var reg 32 1 edata [31:0] $end
$var reg 1 2 reset $end
$var reg 1 , tb_io_asid_to_be_flushed_i $end
$var reg 1 3 tb_io_flush_i $end
$var reg 1 4 tb_io_lu_access_i $end
$var reg 1 5 tb_io_lu_asid_i $end
$var reg 32 6 tb_io_lu_vaddr_i [31:0] $end
$var reg 63 7 tb_io_update_i [62:0] $end
$var reg 32 8 tb_io_vaddr_to_be_flushed_i [31:0] $end
$var reg 20 9 vpn [19:0] $end
$var integer 32 : i [31:0] $end
$var integer 32 ; seed [31:0] $end
$scope module tlb_i $end
$var wire 1 , asid_to_be_flushed_i $end
$var wire 1 < asid_to_be_flushed_is0 $end
$var wire 1 0 clk_i $end
$var wire 1 " flush_i $end
$var wire 1 # lu_access_i $end
$var wire 1 $ lu_asid_i $end
$var wire 32 = lu_vaddr_i [31:0] $end
$var wire 128 > port_content_q_o [127:0] $end
$var wire 4 ? port_replace_en_o [3:0] $end
$var wire 124 @ port_tags_q_o [123:0] $end
$var wire 1 2 rst_ni $end
$var wire 63 A update_i [62:0] $end
$var wire 32 B vaddr_to_be_flushed_i [31:0] $end
$var wire 1 C vaddr_to_be_flushed_is0 $end
$var wire 31 D tdata [30:0] $end
$var wire 31 E tags_q_3 [30:0] $end
$var wire 31 F tags_q_2 [30:0] $end
$var wire 31 G tags_q_1 [30:0] $end
$var wire 31 H tags_q_0 [30:0] $end
$var wire 32 I content_q_3 [31:0] $end
$var wire 32 J content_q_2 [31:0] $end
$var wire 32 K content_q_1 [31:0] $end
$var wire 32 L content_q_0 [31:0] $end
$var wire 32 M cdata [31:0] $end
$var reg 128 N content_n [127:0] $end
$var reg 128 O content_q [127:0] $end
$var reg 32 P lu_content_o [31:0] $end
$var reg 4 Q lu_hit [3:0] $end
$var reg 1 * lu_hit_o $end
$var reg 1 ) lu_is_4M_o $end
$var reg 6 R plru_tree_n [5:0] $end
$var reg 6 S plru_tree_q [5:0] $end
$var reg 4 T replace_en [3:0] $end
$var reg 124 U tags_n [123:0] $end
$var reg 124 V tags_q [123:0] $end
$var reg 4 W vaddr_vpn0_match [3:0] $end
$var reg 4 X vaddr_vpn1_match [3:0] $end
$var reg 10 Y vpn0 [9:0] $end
$var reg 10 Z vpn1 [9:0] $end
$scope function countSetBits $end
$var reg 32 [ count [31:0] $end
$var reg 32 \ countSetBits [31:0] $end
$var reg 4 ] vector [3:0] $end
$scope begin sv2v_autoblock_9 $end
$var integer 32 ^ idx [31:0] $end
$upscope $end
$upscope $end
$scope begin p_assertions $end
$upscope $end
$scope begin plru_replacement $end
$scope begin sv2v_autoblock_3 $end
$var reg 32 _ i [31:0] $end
$scope begin sv2v_autoblock_4 $end
$var reg 32 ` idx_base [31:0] $end
$var reg 32 a new_index [31:0] $end
$var reg 32 b shift [31:0] $end
$scope begin sv2v_autoblock_5 $end
$var reg 32 c lvl [31:0] $end
$upscope $end
$upscope $end
$upscope $end
$scope begin sv2v_autoblock_6 $end
$var reg 32 d i [31:0] $end
$scope begin sv2v_autoblock_7 $end
$var reg 1 e en $end
$var reg 32 f idx_base [31:0] $end
$var reg 32 g new_index [31:0] $end
$var reg 32 h shift [31:0] $end
$scope begin sv2v_autoblock_8 $end
$var reg 32 i lvl [31:0] $end
$upscope $end
$upscope $end
$upscope $end
$upscope $end
$scope begin translation $end
$scope begin sv2v_autoblock_1 $end
$var reg 32 j i [31:0] $end
$upscope $end
$upscope $end
$scope begin update_flush $end
$scope begin sv2v_autoblock_2 $end
$var reg 32 k i [31:0] $end
$upscope $end
$upscope $end
$upscope $end
$scope task make_tlb_flush $end
$var reg 9 l asid [8:0] $end
$var reg 20 m vpn [19:0] $end
$upscope $end
$scope task make_tlb_lookup $end
$var reg 9 n asid [8:0] $end
$var reg 20 o vpn [19:0] $end
$upscope $end
$scope task make_tlb_update $end
$var reg 9 p asid [8:0] $end
$var reg 32 q entry_data [31:0] $end
$var reg 20 r vpn [19:0] $end
$upscope $end
$upscope $end
$enddefinitions $end
#0
$dumpvars
bx r
bx q
bx p
bx o
bx n
bx m
bx l
bx k
bx j
bx i
bx h
bx g
bx f
xe
bx d
bx c
bx b
bx a
bx `
bx _
bx ^
bx ]
bx \
bx [
bx Z
bx Y
bx X
bx W
bx V
bx U
bx T
bx S
bx R
bx Q
bx P
bx O
bx N
b0xxxxxxxxxxxxxxxxxxxxxxxxxxxxxx1 M
bx L
bx K
bx J
bx I
bx H
bx G
bx F
bx E
bx D
xC
bx B
bx A
bx @
bx ?
bx >
bx =
x<
b100100011 ;
bx :
bx 9
bx 8
bx 7
bx 6
x5
x4
x3
12
bx 1
10
bx /
bx .
b0 -
x,
bx +
x*
x)
bx (
bx '
bx01 &
bx %
x$
x#
x"
bx !
$end
#10
00
#20
b1 ?
b1 T
b1 g
b1 h
b1 f
b10 i
0e
b100 d
b100 _
b0 R
b0 L
b0 K
b0 J
b0 I
b100 k
b0 N
b0 U
b100 j
0)
b0 +
b0 P
0*
b0 Q
b0 H
b0 G
b0 F
b0 E
b1 -
b0 S
b0 >
b0 O
b0 @
b0 V
10
02
#30
00
#40
b10 -
10
#50
00
#60
b11 -
10
b10111000100011110110000001110001 !
b10111000100011110110000001110001 1
b101011001000000010 9
b111000100011110101111001101001 ;
b10010101100100000001001 &
b1 .
12
#70
00
#80
b100 -
b0 D
1C
1<
b100 j
b10101100 Z
b1000000010 Y
b1111 X
b1111 W
b100 k
b1 M
10
b1011001111010111111100010110 !
b1011001111010111111100010110 1
b10011100101000010100101 &
b111001010000101001 9
b0 '
b0 8
b0 B
0,
0"
03
1$
15
b101011001000000010000000000000 %
b101011001000000010000000000000 =
b101011001000000010000000000000 6
b0 (
b0 7
b0 A
b1 n
b101011001000000010 o
b10 /
b10001011001111010111110001010100 ;
b0 :
#90
00
#100
b101 -
0C
0<
b0 X
b0 W
b100 k
b100 j
b0 Z
b0 Y
10
b11000100000111001011001010001000 !
b11000100000111001011001010001000 1
b11000101100010010001001 &
b10001011000100100010 9
b111001010000101001000000000000 '
b111001010000101001000000000000 8
b111001010000101001000000000000 B
1,
1"
13
0$
05
b0 %
b0 =
b0 6
b1 l
b111001010000101001 m
b11 /
b1000100000111001011000111011011 ;
b1 :
#110
00
#120
b110 -
b100 k
10
b10000011101110101010001000000111 !
b10000011101110101010001000000111 1
b11100011111000111001101 &
b11000111110001110011 9
b10001011000100100010000000000000 '
b10001011000100100010000000000000 8
b10001011000100100010000000000000 B
b10001011000100100010 m
b11101110101010000000101110 ;
b10 :
#130
00
#140
b111 -
1C
b1111 X
b1111 W
b100 k
1<
10
b10010110011100101111011000101100 !
b10010110011100101111011000101100 1
b11001111010110110110101 &
b10011110101101101101 9
b0 '
b0 8
b0 B
0,
b0 l
b0 m
b1 /
b10110011100101111010000111101 ;
b11 :
#150
00
#160
b1000 -
10
b10000001100010000110001000000011 !
b10000001100010000110001000000011 1
b10110010010100110101101 &
b1100100101001101011 9
b1100010000110000110111000 ;
b100 :
#170
00
#180
b1001 -
10
b11100101011011100111110011001010 !
b11100101011011100111110011001010 1
b10011100001111010011001 &
b111000011110100110 9
b1100101011011100111101000001111 ;
b101 :
#190
00
#200
b1010 -
0C
b0 X
b0 W
b100 k
0<
10
b10001111100011101001000000011111 !
b10001111100011101001000000011111 1
b11101100001111000100001 &
b11011000011110001000 9
b111000011110100110000000000000 '
b111000011110100110000000000000 8
b111000011110100110000000000000 B
1,
b1 l
b111000011110100110 m
b11 /
b1111100011101000111101110010 ;
b110 :
#210
00
#220
b1011 -
b100 k
10
b1010110100011001010100010101 !
b1010110100011001010100010101 1
b10100100101011111011001 &
b1001001010111110110 9
b11011000011110001000000000000000 '
b11011000011110001000000000000000 8
b11011000011110001000000000000000 B
b11011000011110001000 m
b10001010110100011001001111010001 ;
b111 :
#230
00
#240
b1010110100011001010100010101 L
b100 j
b10100100101011111011001 H
b1010110100011001010100010101 >
b1010110100011001010100010101 O
b10100100101011111011001 @
b10100100101011111011001 V
b1100 -
b1010110100011001010100010101 D
1C
1<
b1010110100011001010100010101 N
b10100100101011111011001 U
b1110 X
b1110 W
b100 k
b10100100101011111011001 M
10
b1101010010000111010010111010100 !
b1101010010000111010010111010100 1
b11100000100110000001101 &
b11000001001100000011 9
b0 '
b0 8
b0 B
0,
0"
03
b100100100101011111011000000000100001010110100011001010100010101 (
b100100100101011111011000000000100001010110100011001010100010101 7
b100100100101011111011000000000100001010110100011001010100010101 A
b1010110100011001010100010101 q
b1 p
b1001001010111110110 r
b0 /
b11101010010000111010001111011100 ;
b1000 :
#250
00
#260
b1101 -
b0 D
b100 j
b1100000100 Z
b1100000011 Y
b100 k
b1 M
10
b10110010010101111011000001100100 !
b10110010010101111011000001100100 1
b11101101101100010101101 &
b11011011011000101011 9
1$
15
b11000001001100000011000000000000 %
b11000001001100000011000000000000 =
b11000001001100000011000000000000 6
b0 (
b0 7
b0 A
b11000001001100000011 o
b10 /
b110010010101111010111000000011 ;
b1001 :
#270
00
#280
b10110010010101111011000001100100 L
b11101101101100010101101 H
b10110010010101111011000001100100 >
b10110010010101111011000001100100 O
b11101101101100010101101 @
b11101101101100010101101 V
b1110 -
b110010010101111011000001100100 D
b100 j
b0 Z
b0 Y
b10110010010101111011000001100100 N
b11101101101100010101101 U
b100 k
b11101101101100010101101 M
10
b10100111101100110011100101001 !
b10100111101100110011100101001 1
b11001010100010011111001 &
b10010101000100111110 9
0$
05
b0 %
b0 =
b0 6
b101101101101100010101100000000110110010010101111011000001100100 (
b101101101101100010101100000000110110010010101111011000001100100 7
b101101101101100010101100000000110110010010101111011000001100100 A
b10110010010101111011000001100100 q
b11011011011000101011 r
b0 /
b10010100111101100110010101110110 ;
b1010 :
#290
00
#300
b100 j
b11101101101100010101100 H
b11101101101100010101100 @
b11101101101100010101100 V
b1111 -
b0 D
0C
0<
b0 X
b0 W
b11101101101100010101100 U
b100 k
b1 M
10
b1101010110101110111001111010101 !
b1101010110101110111001111010101 1
b11011101100100110110101 &
b10111011001001101101 9
b10010101000100111110000000000000 '
b10010101000100111110000000000000 8
b10010101000100111110000000000000 B
1,
1"
13
b0 (
b0 7
b0 A
b10010101000100111110 m
b11 /
b11101010110101110111000100100101 ;
b1011 :
#310
00
#320
b1101010110101110111001111010101 L
b100 j
b11011101100100110110101 H
b1101010110101110111001111010101 >
b1101010110101110111001111010101 O
b11011101100100110110101 @
b11011101100100110110101 V
b10000 -
b1101010110101110111001111010101 D
1C
1<
b1110 X
b1110 W
b1101010110101110111001111010101 N
b11011101100100110110101 U
b100 k
b11011101100100110110101 M
10
b1010111100100101000100110101111 !
b1010111100100101000100110101111 1
b10001001111011011011001 &
b10011110110110110 9
b0 '
b0 8
b0 B
0,
0"
03
b101011101100100110110100000000101101010110101110111001111010101 (
b101011101100100110110100000000101101010110101110111001111010101 7
b101011101100100110110100000000101101010110101110111001111010101 A
b1101010110101110111001111010101 q
b10111011001001101101 r
b0 /
b11010111100100101000011011000000 ;
b1100 :
#330
00
#340
b100 j
b11011101100100110110100 H
b11011101100100110110100 @
b11011101100100110110100 V
b10001 -
b0 D
0C
0<
b0 X
b0 W
b11011101100100110110100 U
b100 k
b1 M
10
b100110101110111110001101001101 !
b100110101110111110001101001101 1
b10101001001001100010101 &
b1010010010011000101 9
b10011110110110110000000000000 '
b10011110110110110000000000000 8
b10011110110110110000000000000 B
1,
1"
13
b0 (
b0 7
b0 A
b10011110110110110 m
b11 /
b10100110101110111110000110110111 ;
b1101 :
#350
00
#360
b10010 -
1C
b1110 X
b1110 W
b100 k
1<
10
b110100110010000100100101101001 !
b110100110010000100100101101001 1
b11010100100011101001001 &
b10101001000111010010 9
b0 '
b0 8
b0 B
0,
b0 l
b0 m
b1 /
b10110100110010000100011000111010 ;
b1110 :
#370
00
#380
b110100110010000100100101101001 L
b100 j
b11010100100011101001001 H
b110100110010000100100101101001 >
b110100110010000100100101101001 O
b11010100100011101001001 @
b11010100100011101001001 V
b10011 -
b110100110010000100100101101001 D
b110100110010000100100101101001 N
b11010100100011101001001 U
b100 k
b11010100100011101001001 M
10
b10011111110111001000001000111111 !
b10011111110111001000001000111111 1
b10011000010111000000001 &
b110000101110000000 9
0"
03
b101010100100011101001000000000100110100110010000100100101101001 (
b101010100100011101001000000000100110100110010000100100101101001 7
b101010100100011101001000000000100110100110010000100100101101001 A
b110100110010000100100101101001 q
b10101001000111010010 r
b0 /
b11111110111001000000000111001 ;
b1111 :
#390
00
#400
b10011111110111001000001000111111 L
b100 j
b10011000010111000000001 H
b10011111110111001000001000111111 >
b10011111110111001000001000111111 O
b10011000010111000000001 @
b10011000010111000000001 V
b10100 -
b11111110111001000001000111111 D
b10011111110111001000001000111111 N
b10011000010111000000001 U
b100 k
b10011000010111000000001 M
10
b11111011001111110001000011110110 !
b11111011001111110001000011110110 1
b10011110111100001101001 &
b111101111000011010 9
b100011000010111000000000000000110011111110111001000001000111111 (
b100011000010111000000000000000110011111110111001000001000111111 7
b100011000010111000000000000000110011111110111001000001000111111 A
b10011111110111001000001000111111 q
b110000101110000000 r
b1111011001111110000111001100100 ;
b10000 :
#410
00
#420
b100 j
b10011000010111000000000 H
b10011000010111000000000 @
b10011000010111000000000 V
b10101 -
b0 D
0C
0<
b0 X
b0 W
b10011000010111000000000 U
b100 k
b1 M
10
b1101100011111000110101111011000 !
b1101100011111000110101111011000 1
b11100011101010110000001 &
b11000111010101100000 9
b111101111000011010000000000000 '
b111101111000011010000000000000 8
b111101111000011010000000000000 B
1,
1"
13
b0 (
b0 7
b0 A
b1 l
b111101111000011010 m
b11 /
b11101100011111000110100100101011 ;
b10001 :
#430
00
#440
b10110 -
10
b11010001000100110011001110000 ;
b10010 :
