cva6-model/tlb_traces_micro/test_16/tlb_wave_pipeline.vcd
$date
	Thu Apr 20 01:37:57 2023
$end
$version
	Icarus Verilog
$end
$timescale
	1s
$end
$scope module tlb_tb $end
$var wire 32 ! cdata [31:0] $end
$var wire 1 " de_io_flush_i $end
$var wire 1 # de_io_lu_access_i $end
$var wire 1 $ de_io_lu_asid_i $end
$var wire 32 % de_io_lu_vaddr_i [31:0] $end
$var wire 31 & tdata [30:0] $end
$var wire 32 ' de_io_vaddr_to_be_flushed_i [31:0] $end
$var wire 63 ( de_io_update_i [62:0] $end
$var wire 1 ) de_io_lu_is_4M_o $end
$var wire 1 * de_io_lu_hit_o $end
$var wire 32 + de_io_lu_content_o [31:0] $end
$var wire 1 , de_io_asid_to_be_flushed_i $end
$var reg 32 - CLK_CYCLE [31:0] $end
$var reg 9 . asid [8:0] $end
$var reg 2 / choice [1:0] $end
$var reg 1 0 clk $end
$var reg 32 1 edata [31:0] $end
$var reg 1 2 reset $end
$var reg 1 , tb_io_asid_to_be_flushed_i $end
$var reg 1 3 tb_io_flush_i $end
$var reg 1 4 tb_io_lu_access_i $end
$var reg 1 5 tb_io_lu_asid_i $end
$var reg 32 6 tb_io_lu_vaddr_i [31:0] $end
$var reg 63 7 tb_io_update_i [62:0] $end
$var reg 32 8 tb_io_vaddr_to_be_flushed_i [31:0] $end
$var reg 20 9 vpn [19:0] $end
$var integer 32 : i [31:0] $end
$var integer 32 ; seed [31:0] $end
$scope module tlb_i $end
$var wire 1 , asid_to_be_flushed_i $end
$var wire 1 < asid_to_be_flushed_is0 $end
$var wire 1 0 clk_i $end
$var wire 1 " flush_i $end
$var wire 1 # lu_access_i $end
$var wire 1 $ lu_asid_i $end
$var wire 32 = lu_vaddr_i [31:0] $end
$var wire 128 > port_content_q_o [127:0] $end
$var wire 4 ? port_replace_en_o [3:0] $end
$var wire 124 @ port_tags_q_o [123:0] $end
$var wire 1 2 rst_ni $end
$var wire 63 A update_i [62:0] $end
$var wire 32 B vaddr_to_be_flushed_i [31:0] $end
$var wire 1 C vaddr_to_be_flushed_is0 $end
$var wire 31 D tdata [30:0] $end
$var wire 31 E tags_q_3 [30:0] $end
$var wire 31 F tags_q_2 [30:0] $end
$var wire 31 G tags_q_1 [30:0] $end
$var wire 31 H tags_q_0 [30:0] $end
$var wire 32 I content_q_3 [31:0] $end
$var wire 32 J content_q_2 [31:0] $end
$var wire 32 K content_q_1 [31:0] $end
$var wire 32 L content_q_0 [31:0] $end
$var wire 32 M cdata [31:0] $end
$var reg 128 N content_n [127:0] $end
$var reg 128 O content_q [127:0] $end
$var reg 32 P lu_content_o [31:0] $end
$var reg 4 Q lu_hit [3:0] $end
$var reg 1 * lu_hit_o $end
$var reg 1 ) lu_is_4M_o $end
$var reg 6 R plru_tree_n [5:0] $end
$var reg 6 S plru_tree_q [5:0] $end
$var reg 4 T replace_en [3:0] $end
$var reg 124 U tags_n [123:0] $end
$var reg 124 V tags_q [123:0] $end
$var reg 4 W vaddr_vpn0_match [3:0] $end
$var reg 4 X vaddr_vpn1_match [3:0] $end
$var reg 10 Y vpn0 [9:0] $end
$var reg 10 Z vpn1 [9:0] $end
$scope function countSetBits $end
$var reg 32 [ count [31:0] $end
$var reg 32 \ countSetBits [31:0] $end
$var reg 4 ] vector [3:0] $end
$scope begin sv2v_autoblock_9 $end
$var integer 32 ^ idx [31:0] $end
$upscope $end
$upscope $end
$scope begin p_assertions $end
$upscope $end
$scope begin plru_replacement $end
$scope begin sv2v_autoblock_3 $end
$var reg 32 _ i [31:0] $end
$scope begin sv2v_autoblock_4 $end
$var reg 32 ` idx_base [31:0] $end
$var reg 32 a new_index [31:0] $end
$var reg 32 b shift [31:0] $end
$scope begin sv2v_autoblock_5 $end
$var reg 32 c lvl [31:0] $end
$upscope $end
$upscope $end
$upscope $end
$scope begin sv2v_autoblock_6 $end
$var reg 32 d i [31:0] $end
$scope begin sv2v_autoblock_7 $end
$var reg 1 e en $end
$var reg 32 f idx_base [31:0] $end
$var reg 32 g new_index [31:0] $end
$var reg 32 h shift [31:0] $end
$scope begin sv2v_autoblock_8 $end
$var reg 32 i lvl [31:0] $end
$upscope $end
$upscope $end
$upscope $end
$upscope $end
$scope begin translation $end
$scope begin sv2v_autoblock_1 $end
$var reg 32 j i [31:0] $end
$upscope $end
$upscope $end
$scope begin update_flush $end
$scope begin sv2v_autoblock_2 $end
$var reg 32 k i [31:0] $end
$upscope $end
$upscope $end
$upscope $end
$scope task make_tlb_flush $end
$var reg 9 l asid [8:0] $end
$var reg 20 m vpn [19:0] $end
$upscope $end
$scope task make_tlb_lookup $end
$var reg 9 n asid [8:0] $end
$var reg 20 o vpn [19:0] $end
$upscope $end
$scope task make_tlb_update $end
$var reg 9 p asid [8:0] $end
$var reg 32 q entry_data [31:0] $end
$var reg 20 r vpn [19:0] $end
$upscope $end
$upscope $end
$enddefinitions $end
#0
$dumpvars
bx r
bx q
bx p
bx o
bx n
bx m
bx l
bx k
bx j
bx i
bx h
bx g
bx f
xe
bx d
bx c
bx b
bx a
bx `
bx _
bx ^
bx ]
bx \
bx [
bx Z
bx Y
bx X
bx W
bx V
bx U
bx T
bx S
bx R
bx Q
bx P
bx O
bx N
b0xxxxxxxxxxxxxxxxxxxxxxxxxxxxxx1 M
bx L
bx K
bx J
bx I
bx H
bx G
bx F
bx E
bx D
xC
bx B
bx A
bx @
bx ?
bx >
bx =
x<
b11101011 ;
bx :
bx 9
bx 8
bx 7
bx 6
x5
x4
x3
12
bx 1
10
bx /
bx .
b0 -
x,
bx +
x*
x)
bx (
bx '
bx01 &
bx %
x$
x#
x"
bx !
$end
#10
00
#20
b1 ?
b1 T
b1 g
b1 h
b1 f
b10 i
0e
b100 d
b100 _
b0 R
b0 L
b0 K
b0 J
b0 I
b100 k
b0 N
b0 U
b100 j
0)
b0 +
b0 P
0*
b0 Q
b0 H
b0 G
b0 F
b0 E
b1 -
b0 S
b0 >
b0 O
b0 @
b0 V
10
02
#30
00
#40
b10 -
10
#50
00
#60
b11 -
10
b10000101001101011000011000001010 !
b10000101001101011000011000001010 1
b1111010110000000001 9
b101001101011000010101110001 ;
b10111101011000000000101 &
b1 .
12
#70
00
#80
b100 -
b0 D
1C
1<
b100 j
b111101011 Z
b1 Y
b1111 X
b1111 W
b100 k
b1 M
10
b10001111101111101000111000011111 !
b10001111101111101000111000011111 1
b11101100001010111011101 &
b11011000010101110111 9
b0 '
b0 8
b0 B
0,
0"
03
1$
15
b1111010110000000001000000000000 %
b1111010110000000001000000000000 =
b1111010110000000001000000000000 6
b0 (
b0 7
b0 A
b1 n
b1111010110000000001 o
b10 /
b1111101111101000110111111100 ;
b0 :
#90
00
#100
b101 -
b100 k
b100 j
b0 Z
b0 Y
10
b11001001001100001101110010010010 !
b11001001001100001101110010010010 1
b10111111101010111001101 &
b1111111010101110011 9
1"
13
0$
05
b0 %
b0 =
b0 6
b0 l
b0 m
b1 /
b1001001001100001101101010100011 ;
b1 :
#110
00
#120
b110 -
0C
b0 X
b0 W
b100 k
0<
10
b100101001111000110100101001010 !
b100101001111000110100101001010 1
b10011001101000111001101 &
b110011010001110011 9
b1111111010101110011000000000000 '
b1111111010101110011000000000000 8
b1111111010101110011000000000000 B
1,
b1 l
b1111111010101110011 m
b11 /
b10100101001111000110011010010110 ;
b10 :
#130
00
#140
b111 -
1C
1<
b1111 X
b1111 W
b100 k
b100 j
b11001101 Z
b1110011 Y
10
b11000110101111111100001010001101 !
b11000110101111111100001010001101 1
b10110101000011111001101 &
b1101010000111110011 9
b0 '
b0 8
b0 B
0,
0"
03
1$
15
b110011010001110011000000000000 %
b110011010001110011000000000000 =
b110011010001110011000000000000 6
b110011010001110011 o
b10 /
b1000110101111111100000011000101 ;
b11 :
#150
00
#160
b1000 -
b100 j
b110101000 Z
b111110011 Y
10
b1001111111010011010100110011111 !
b1001111111010011010100110011111 1
b11001101111010000111001 &
b10011011110100001110 9
b1101010000111110011000000000000 %
b1101010000111110011000000000000 =
b1101010000111110011000000000000 6
b1101010000111110011 o
b11001111111010011010011011100000 ;
b100 :
#170
00
#180
b1001111111010011010100110011111 L
b1110 X
b1110 W
b11001101111010000111001 H
b1001111111010011010100110011111 >
b1001111111010011010100110011111 O
b11001101111010000111001 @
b11001101111010000111001 V
b1001 -
b1001111111010011010100110011111 D
b100 j
b0 Z
b0 Y
b1001111111010011010100110011111 N
b11001101111010000111001 U
b100 k
b11001101111010000111001 M
10
b1110010100011111111111111100101 !
b1110010100011111111111111100101 1
b11000000010011011100001 &
b10000000100110111000 9
0$
05
b0 %
b0 =
b0 6
b101001101111010000111000000000101001111111010011010100110011111 (
b101001101111010000111000000000101001111111010011010100110011111 7
b101001101111010000111000000000101001111111010011010100110011111 A
b1001111111010011010100110011111 q
b1 p
b10011011110100001110 r
b0 /
b11110010100011111111110001010111 ;
b101 :
#190
00
#200
b1010 -
b0 D
b100 j
b1000000010 Z
b110111000 Y
b100 k
b1 M
10
b11100000010000000100111011000000 !
b11100000010000000100111011000000 1
b11000100100101111001001 &
b10001001001011110010 9
1$
15
b10000000100110111000000000000000 %
b10000000100110111000000000000000 =
b10000000100110111000000000000000 6
b0 (
b0 7
b0 A
b10000000100110111000 o
b10 /
b1100000010000000100110101011010 ;
b110 :
#210
00
#220
b11001101111010000111000 H
b11001101111010000111000 @
b11001101111010000111000 V
b1011 -
b11001101111010000111000 U
b100 k
b100 j
b0 Z
b0 Y
10
b10000100101011100111100100001 !
b10000100101011100111100100001 1
b10100111011101111100101 &
b1001110111011111001 9
1"
13
0$
05
b0 %
b0 =
b0 6
b0 l
b0 m
b1 /
b10010000100101011100110111011001 ;
b111 :
#230
00
#240
b1100 -
b100 k
b100 j
b100111011 Z
b1011111001 Y
10
b1101001000100111000011111010010 !
b1101001000100111000011111010010 1
b11001000011010110011001 &
b10010000110101100110 9
0"
03
1$
15
b1001110111011111001000000000000 %
b1001110111011111001000000000000 =
b1001110111011111001000000000000 6
b1001110111011111001 o
b10 /
b11101001000100111000010010000100 ;
b1000 :
#250
00
#260
b1101 -
b100 k
b100 j
b0 Z
b0 Y
10
b11000110101110110001001010001101 !
b11000110101110110001001010001101 1
b10110001000001010000101 &
b1100010000010100001 9
1"
13
0$
05
b0 %
b0 =
b0 6
b1 /
b1000110101110110001000111001011 ;
b1001 :
#270
00
#280
b1110 -
b100 k
b100 j
b110001000 Z
b10100001 Y
10
b10011110101001010100010000111101 !
b10011110101001010100010000111101 1
b10010011110111011111101 &
b100111101110111111 9
0"
03
1$
15
b1100010000010100001000000000000 %
b1100010000010100001000000000000 =
b1100010000010100001000000000000 6
b1100010000010100001 o
b10 /
b11110101001010100001011011110 ;
b1010 :
#290
00
#300
b1111 -
0C
0<
b0 X
b0 W
b100 k
b100 j
b0 Z
b0 Y
10
b111000101111010110001101110001 !
b111000101111010110001101110001 1
b11011000110001011001101 &
b10110001100010110011 9
b100111101110111111000000000000 '
b100111101110111111000000000000 8
b100111101110111111000000000000 B
1,
1"
13
0$
05
b0 %
b0 =
b0 6
b1 l
b100111101110111111 m
b11 /
b10111000101111010110000010101101 ;
b1011 :
#310
00
#320
b111000101111010110001101110001 L
b100 j
b11011000110001011001101 H
b111000101111010110001101110001 >
b111000101111010110001101110001 O
b11011000110001011001101 @
b11011000110001011001101 V
b10000 -
b111000101111010110001101110001 D
1C
1<
b1110 X
b1110 W
b111000101111010110001101110001 N
b11011000110001011001101 U
b100 k
b11011000110001011001101 M
10
b110110110101101110110101101101 !
b110110110101101110110101101101 1
b11101010010000001000001 &
b11010100100000010000 9
b0 '
b0 8
b0 B
0,
0"
03
b101011000110001011001100000000100111000101111010110001101110001 (
b101011000110001011001100000000100111000101111010110001101110001 7
b101011000110001011001100000000100111000101111010110001101110001 A
b111000101111010110001101110001 q
b10110001100010110011 r
b0 /
b10110110110101101110101011101000 ;
b1100 :
#330
00
#340
b100 j
b11011000110001011001100 H
b11011000110001011001100 @
b11011000110001011001100 V
b10001 -
b0 D
b11011000110001011001100 U
b100 k
b1 M
10
b1110000100000110011000111100001 !
b1110000100000110011000111100001 1
b10011100111101111000001 &
b111001111011110000 9
1"
13
b0 (
b0 7
b0 A
b0 l
b0 m
b1 /
b11110000100000110010111011111111 ;
b1101 :
#350
00
#360
b10010 -
b100 k
b100 j
b11100111 Z
b1011110000 Y
10
b10011101010111001110110000111010 !
b10011101010111001110110000111010 1
b10101001000000001000001 &
b1010010000000010000 9
0"
03
1$
15
b111001111011110000000000000000 %
b111001111011110000000000000000 =
b111001111011110000000000000000 6
b111001111011110000 o
b10 /
b11101010111001110101100100010 ;
b1110 :
#370
00
#380
b10011101010111001110110000111010 L
b10101001000000001000001 H
b10011101010111001110110000111010 >
b10011101010111001110110000111010 O
b10101001000000001000001 @
b10101001000000001000001 V
b10011 -
b11101010111001110110000111010 D
b100 j
b0 Z
b0 Y
b10011101010111001110110000111010 N
b10101001000000001000001 U
b100 k
b10101001000000001000001 M
10
b1000101111011111110111110001011 !
b1000101111011111110111110001011 1
b10100011001000010011101 &
b1000110010000100111 9
0$
05
b0 %
b0 =
b0 6
b100101001000000001000000000000110011101010111001110110000111010 (
b100101001000000001000000000000110011101010111001110110000111010 7
b100101001000000001000000000000110011101010111001110110000111010 A
b10011101010111001110110000111010 q
b1010010000000010000 r
b0 /
b11000101111011111110110101000001 ;
b1111 :
#390
00
#400
b10100 -
b0 D
b100 j
b100011001 Z
b100111 Y
b100 k
b1 M
10
b10001001100111010110000000010011 !
b10001001100111010110000000010011 1
b10010000001011110101001 &
b100000010111101010 9
1$
15
b1000110010000100111000000000000 %
b1000110010000100111000000000000 =
b1000110010000100111000000000000 6
b0 (
b0 7
b0 A
b1000110010000100111 o
b10 /
b1001100111010101111000001100 ;
b10000 :
#410
00
#420
b10101001000000001000000 H
b10101001000000001000000 @
b10101001000000001000000 V
b10101 -
b10101001000000001000000 U
b100 k
b100 j
b0 Z
b0 Y
10
b11010111111110010100100110101 !
b11010111111110010100100110101 1
b11110101001110110111101 &
b11101010011101101111 9
1"
13
0$
05
b0 %
b0 =
b0 6
b1 /
b10011010111111110010011111110011 ;
b10001 :
#430
00
#440
b10110 -
10
b111011010011010101010010011000 ;
b10010 :
