cva6-model/lsu_traces/su_traces_micro/test_3/su_model_wave_pipeline.vcd
$date
	Thu Apr 20 01:25:00 2023
$end
$version
	Icarus Verilog
$end
$timescale
	1s
$end
$scope module store_unit_model_tb $end
$var wire 65 ! de_io_amo_resp_i [64:0] $end
$var wire 1 " de_io_amo_valid_commit_i $end
$var wire 1 # de_io_commit_i $end
$var wire 1 $ de_io_dtlb_hit_i $end
$var wire 65 % de_io_ex_i [64:0] $end
$var wire 1 & de_io_flush_i $end
$var wire 32 ' de_io_instr_i [31:0] $end
$var wire 1 ( de_io_instr_valid_i $end
$var wire 12 ) de_io_page_offset_i [11:0] $end
$var wire 35 * de_io_req_port_i [34:0] $end
$var wire 32 + de_io_result_o [31:0] $end
$var wire 1 , de_io_store_mem_resp_i $end
$var wire 1 - de_io_valid_i $end
$var wire 1 . de_io_valid_o $end
$var wire 32 / de_io_vaddr_o [31:0] $end
$var wire 1 0 de_io_translation_req_o $end
$var wire 3 1 de_io_trans_id_o [2:0] $end
$var wire 1 2 de_io_store_buffer_empty_o $end
$var wire 77 3 de_io_req_port_o [76:0] $end
$var wire 1 4 de_io_pop_st_o $end
$var wire 1 5 de_io_page_offset_matches_o $end
$var wire 34 6 de_io_paddr_i [33:0] $end
$var wire 1 7 de_io_no_st_pending_o $end
$var wire 85 8 de_io_lsu_ctrl_i [84:0] $end
$var wire 65 9 de_io_ex_o [64:0] $end
$var wire 1 : de_io_commit_ready_o $end
$var wire 135 ; de_io_amo_req_o [134:0] $end
$var reg 32 < CLK_CYCLE [31:0] $end
$var reg 1 = choice_core $end
$var reg 2 > choice_mem [1:0] $end
$var reg 1 ? clk $end
$var reg 32 @ data [31:0] $end
$var reg 12 A poffset [11:0] $end
$var reg 1 B reset $end
$var reg 2 C store_seen [1:0] $end
$var reg 1 D tb_io_commit_i $end
$var reg 32 E tb_io_instr_i [31:0] $end
$var reg 1 F tb_io_instr_valid_i $end
$var reg 85 G tb_io_lsu_ctrl_i [84:0] $end
$var reg 34 H tb_io_paddr_i [33:0] $end
$var reg 12 I tb_io_page_offset_i [11:0] $end
$var reg 35 J tb_io_req_port_i [34:0] $end
$var reg 1 K tb_io_store_mem_resp_i $end
$var reg 1 L tb_io_valid_i $end
$var reg 34 M vaddr [33:0] $end
$var integer 32 N i [31:0] $end
$var integer 32 O seed [31:0] $end
$scope module su_i $end
$var wire 1 P amo_buffer_ready $end
$var wire 1 Q amo_buffer_valid $end
$var wire 65 R amo_resp_i [64:0] $end
$var wire 1 " amo_valid_commit_i $end
$var wire 1 ? clk_i $end
$var wire 1 # commit_i $end
$var wire 1 $ dtlb_hit_i $end
$var wire 65 S ex_i [64:0] $end
$var wire 1 & flush_i $end
$var wire 85 T lsu_ctrl_i [84:0] $end
$var wire 34 U paddr_i [33:0] $end
$var wire 12 V page_offset_i [11:0] $end
$var wire 35 W req_port_i [34:0] $end
$var wire 32 X result_o [31:0] $end
$var wire 1 B rst_ni $end
$var wire 1 Y st_ready $end
$var wire 1 Z store_buffer_valid $end
$var wire 3 [ trans_id_o [2:0] $end
$var wire 1 - valid_i $end
$var wire 32 \ vaddr_o [31:0] $end
$var wire 1 ] store_buffer_ready $end
$var wire 1 2 store_buffer_empty_o $end
$var wire 77 ^ req_port_o [76:0] $end
$var wire 1 5 page_offset_matches_o $end
$var wire 1 7 no_st_pending_o $end
$var wire 1 _ instr_is_amo $end
$var wire 1 : commit_ready_o $end
$var wire 135 ` amo_req_o [134:0] $end
$var reg 4 a amo_op_d [3:0] $end
$var reg 4 b amo_op_q [3:0] $end
$var reg 65 c ex_o [64:0] $end
$var reg 1 4 pop_st_o $end
$var reg 4 d st_be_n [3:0] $end
$var reg 4 e st_be_q [3:0] $end
$var reg 32 f st_data_n [31:0] $end
$var reg 32 g st_data_q [31:0] $end
$var reg 2 h st_data_size_n [1:0] $end
$var reg 2 i st_data_size_q [1:0] $end
$var reg 1 j st_valid $end
$var reg 1 k st_valid_without_flush $end
$var reg 2 l state_d [1:0] $end
$var reg 2 m state_q [1:0] $end
$var reg 3 n trans_id_n [2:0] $end
$var reg 3 o trans_id_q [2:0] $end
$var reg 1 0 translation_req_o $end
$var reg 1 . valid_o $end
$scope function ariane_pkg_data_align $end
$upscope $end
$scope function ariane_pkg_extract_transfer_size $end
$upscope $end
$scope function ariane_pkg_is_amo $end
$upscope $end
$scope module i_amo_buffer $end
$var wire 72 p amo_data_out [71:0] $end
$var wire 4 q amo_op_i [3:0] $end
$var wire 65 r amo_resp_i [64:0] $end
$var wire 1 s amo_valid $end
$var wire 1 " amo_valid_commit_i $end
$var wire 1 ? clk_i $end
$var wire 32 t data_i [31:0] $end
$var wire 2 u data_size_i [1:0] $end
$var wire 1 v flush_amo_buffer $end
$var wire 1 & flush_i $end
$var wire 34 w paddr_i [33:0] $end
$var wire 1 P ready_o $end
$var wire 1 B rst_ni $end
$var wire 1 Q valid_i $end
$var wire 1 7 no_st_pending_i $end
$var wire 135 x amo_req_o [134:0] $end
$var wire 72 y amo_data_in [71:0] $end
$upscope $end
$scope module store_buffer_i $end
$var wire 4 z be_i [3:0] $end
$var wire 1 ? clk_i $end
$var wire 1 # commit_i $end
$var wire 32 { data_i [31:0] $end
$var wire 2 | data_size_i [1:0] $end
$var wire 1 & flush_i $end
$var wire 34 } paddr_i [33:0] $end
$var wire 12 ~ page_offset_i [11:0] $end
$var wire 35 !" req_port_i [34:0] $end
$var wire 1 B rst_ni $end
$var wire 1 2 store_buffer_empty_o $end
$var wire 1 "" sv2v_tmp_80AC7 [1:1] $end
$var wire 1 #" sv2v_tmp_A682E [1:1] $end
$var wire 1 $" sv2v_tmp_F170F [1:1] $end
$var wire 1 Z valid_i $end
$var wire 1 k valid_without_flush_i $end
$var wire 12 %" sv2v_tmp_9099D [12:1] $end
$var wire 4 &" sv2v_tmp_8DCF7 [4:1] $end
$var wire 22 '" sv2v_tmp_71805 [22:1] $end
$var wire 32 (" sv2v_tmp_6B7F3 [32:1] $end
$var wire 2 )" sv2v_tmp_51F0D [2:1] $end
$var wire 2 *" state_q_3 [1:0] $end
$var wire 2 +" state_q_2 [1:0] $end
$var wire 2 ," state_q_1 [1:0] $end
$var wire 2 -" state_q_0 [1:0] $end
$var reg 292 ." commit_queue_n [291:0] $end
$var reg 292 /" commit_queue_q [291:0] $end
$var reg 2 0" commit_read_pointer_n [1:0] $end
$var reg 2 1" commit_read_pointer_q [1:0] $end
$var reg 1 : commit_ready_o $end
$var reg 3 2" commit_status_cnt_n [2:0] $end
$var reg 3 3" commit_status_cnt_q [2:0] $end
$var reg 2 4" commit_write_pointer_n [1:0] $end
$var reg 2 5" commit_write_pointer_q [1:0] $end
$var reg 1 7 no_st_pending_o $end
$var reg 1 5 page_offset_matches_o $end
$var reg 1 ] ready_o $end
$var reg 77 6" req_port_o [76:0] $end
$var reg 292 7" speculative_queue_n [291:0] $end
$var reg 292 8" speculative_queue_q [291:0] $end
$var reg 2 9" speculative_read_pointer_n [1:0] $end
$var reg 2 :" speculative_read_pointer_q [1:0] $end
$var reg 3 ;" speculative_status_cnt_n [2:0] $end
$var reg 3 <" speculative_status_cnt_q [2:0] $end
$var reg 2 =" speculative_write_pointer_n [1:0] $end
$var reg 2 >" speculative_write_pointer_q [1:0] $end
$scope function sv2v_cast_79500 $end
$upscope $end
$scope begin core_if $end
$var reg 5 ?" speculative_status_cnt [4:0] $end
$scope begin sv2v_autoblock_1 $end
$var reg 32 @" i [31:0] $end
$upscope $end
$upscope $end
$scope begin p_commit $end
$upscope $end
$scope begin p_spec $end
$upscope $end
$scope begin store_if $end
$var reg 5 A" commit_status_cnt [4:0] $end
$upscope $end
$scope begin sv2v_autoblock_2 $end
$var reg 2 B" _sv2v_jump [0:1] $end
$scope begin address_checker $end
$scope begin sv2v_autoblock_3 $end
$var reg 32 C" i [31:0] $end
$scope begin sv2v_autoblock_4 $end
$var reg 32 D" _sv2v_value_on_break [31:0] $end
$upscope $end
$upscope $end
$scope begin sv2v_autoblock_5 $end
$var reg 32 E" i [31:0] $end
$scope begin sv2v_autoblock_6 $end
$var reg 32 F" _sv2v_value_on_break [31:0] $end
$upscope $end
$upscope $end
$upscope $end
$upscope $end
$upscope $end
$scope begin store_control $end
$upscope $end
$upscope $end
$scope module su_model_i $end
$var wire 1 ? clk_i $end
$var wire 1 D commit_i $end
$var wire 32 G" instr_i [31:0] $end
$var wire 1 ( instr_valid_i $end
$var wire 12 H" page_offset_i [11:0] $end
$var wire 1 I" page_offset_matches_o $end
$var wire 1 B rst_ni $end
$var wire 1 , store_mem_resp_i $end
$var wire 1 J" ready_o $end
$var reg 32 K" CLK_CYCLE [31:0] $end
$var reg 8 L" instr_i_pc [7:0] $end
$var reg 2 M" queue_commit_ptr [1:0] $end
$var reg 2 N" queue_serve_ptr [1:0] $end
$var reg 2 O" queue_store_ptr [1:0] $end
$var reg 32 P" store_instr_i_queue_flatten_0 [31:0] $end
$var reg 8 Q" store_instr_i_queue_flatten_0_pc [7:0] $end
$var reg 32 R" store_instr_i_queue_flatten_1 [31:0] $end
$var reg 8 S" store_instr_i_queue_flatten_1_pc [7:0] $end
$var reg 32 T" store_instr_i_queue_flatten_2 [31:0] $end
$var reg 8 U" store_instr_i_queue_flatten_2_pc [7:0] $end
$var reg 32 V" store_instr_i_queue_flatten_3 [31:0] $end
$var reg 8 W" store_instr_i_queue_flatten_3_pc [7:0] $end
$var reg 2 X" store_instr_queue_state_flatten_0 [1:0] $end
$var reg 2 Y" store_instr_queue_state_flatten_1 [1:0] $end
$var reg 2 Z" store_instr_queue_state_flatten_2 [1:0] $end
$var reg 2 [" store_instr_queue_state_flatten_3 [1:0] $end
$upscope $end
$scope task lower_commit $end
$upscope $end
$scope task lower_memory_grant $end
$upscope $end
$scope task lower_store_request $end
$upscope $end
$scope task raise_commit $end
$upscope $end
$scope task raise_memory_grant $end
$upscope $end
$scope task raise_store_request $end
$var reg 32 \" data [31:0] $end
$var reg 32 ]" vaddr [31:0] $end
$upscope $end
$scope task set_page_offset $end
$var reg 12 ^" page_offset [11:0] $end
$upscope $end
$upscope $end
$enddefinitions $end
#0
$dumpvars
bx ^"
bx ]"
bx \"
bx ["
bx Z"
bx Y"
bx X"
bx W"
bx V"
bx U"
bx T"
bx S"
bx R"
bx Q"
bx P"
bx O"
bx N"
bx M"
bx L"
bx K"
xJ"
xI"
bz H"
bx G"
b11 F"
b100 E"
b11 D"
b100 C"
b0 B"
b0xxx A"
bx @"
b0xxx ?"
bx >"
bx ="
bx <"
bx ;"
bx :"
bx 9"
bx 8"
bx 7"
bx01xxxxxx00 6"
bx 5"
bx 4"
bx 3"
bx 2"
bx 1"
bx 0"
bx /"
bx ."
bx -"
bx ,"
bx +"
bx *"
bx )"
bx ("
bx '"
bx &"
bx %"
0$"
0#"
1""
b0 !"
bx ~
bx }
bx |
bx {
bx z
bx y
b0zzzzzz000000000000000000000000000000zzzzzzzzzzzzzzzzzzzzzzzzzzzzzzzzzz00000000000000000000000000000000zzzzzzzzzzzzzzzzzzzzzzzzzzzzzzzz x
bx w
0v
bx u
bx t
zs
b0 r
bx q
bz p
b0 o
b0 n
bx m
bx l
0k
0j
bx i
b11 h
bx g
b0 f
bx e
b0 d
b0 c
bx b
b0 a
b0zzzzzz000000000000000000000000000000zzzzzzzzzzzzzzzzzzzzzzzzzzzzzzzzzz00000000000000000000000000000000zzzzzzzzzzzzzzzzzzzzzzzzzzzzzzzz `
0_
bx01xxxxxx00 ^
x]
b0 \
b0 [
0Z
xY
b0 X
b0 W
bx V
bx U
b0 T
b0 S
b0 R
0Q
zP
b1110000100 O
bx N
bx M
0L
xK
b0 J
bx I
bx H
b0 G
xF
bx E
0D
b0 C
1B
bx A
bx @
1?
bx >
x=
b0 <
b0zzzzzz000000000000000000000000000000zzzzzzzzzzzzzzzzzzzzzzzzzzzzzzzzzz00000000000000000000000000000000zzzzzzzzzzzzzzzzzzzzzzzzzzzzzzzz ;
x:
b0 9
b0 8
x7
bx 6
05
04
bx01xxxxxx00 3
x2
b0 1
00
b0 /
0.
0-
x,
b0 +
b0 *
bx )
x(
bx '
0&
b0 %
1$
0#
0"
b0 !
$end
#10
0?
#20
0I"
b0x0100000000 3
b0x0100000000 ^
b0x0100000000 6"
12
b11 F"
b100 E"
b11 D"
b100 C"
b0 2"
b0 ."
b0 4"
b0 0"
17
1:
b0 A"
b0 -"
b0 ,"
b0 +"
b0 *"
b0 7"
b0 ="
b0 9"
b0 ;"
1Y
1]
b0 ?"
b0 l
b1 <
b0 3"
b0 5"
b0 %"
b0 '"
b0 ("
b0 &"
b0 )"
b0 1"
b0 /"
b0 <"
b0 >"
b0 :"
b0 8"
b0 L"
b0 M"
b0 N"
1J"
b0 O"
b0 ["
b0 Z"
b0 Y"
b0 X"
b0 W"
b0 U"
b0 S"
b0 Q"
b0 V"
b0 T"
b0 R"
b0 P"
b0 K"
b0 b
b0 q
b0 i
b0 u
b0 |
b0xxxxxxxxxxxxxxxxxxxxxxxxxxxxxxxxxx0000000000000000000000000000000000 y
b0 g
b0 t
b0 {
b0 e
b0 z
b0 m
1?
0B
#30
0?
#40
b10 <
1?
#50
0?
#60
xI"
b1 ;"
b1 ?"
b1 ="
b10000011101101001000011000000111010011100010011100000000011101110000101 7"
1Z
1k
1j
1.
b1 O"
1J"
b1 K"
b10 i
b10 u
b10 |
b1001110001001110000000001110111 g
b1001110001001110000000001110111 t
b1001110001001110000000001110111 {
b1 m
b11 <
b1 L"
b11 F"
b100 E"
b11 D"
b100 C"
b10 h
b1001110001001110000000001110111 f
b10000011101101001000011000000111 /
b10000011101101001000011000000111 \
14
10
b1 l
1?
1B
b111001101110 )
b111001101110 V
b111001101110 ~
b111001101110 I
b111001101110 ^"
b10000011101101001000011000000111 '
b10000011101101001000011000000111 G"
b10000011101101001000011000000111 E
b10 C
b100000111011010010000110000001110100111000100111000000000111011110 y
b10000011101101001000011000000111 6
b10000011101101001000011000000111 H
b10000011101101001000011000000111 U
b10000011101101001000011000000111 w
b10000011101101001000011000000111 }
b1100000111011010010000110000001110001001110000000001110111010011100000001000100111000 8
b1100000111011010010000110000001110001001110000000001110111010011100000001000100111000 G
b1100000111011010010000110000001110001001110000000001110111010011100000001000100111000 T
1-
1L
b100111000000000111011101001110 \"
b10000011101101001000011000000111 ]"
b0 >
1=
b111001101110 A
b100111000000000111011101001110 @
b1110000011101101001000011000000111 M
b11001010010000011101110001010001 O
1(
1F
0,
0K
b0 N
#70
0?
#80
0Z
02
b11 -"
b1 ;"
b1 ?"
b1 ="
b10000011101101001000011000000111010011100010011100000000011101110000101 7"
b1 <"
b1 >"
b10000011101101001000011000000111010011100010011100000000011101110000101 8"
b11 i
b11 u
b11 |
b100000111011010010000110000001110000000000000000000000000000000011 y
b0 g
b0 t
b0 {
b0 m
b10 K"
b100 <
b11 X"
b10000011101101001000011000000111 P"
b11 F"
b100 E"
b11 D"
b100 C"
b11 h
b0 f
b0 l
04
0k
0j
0.
00
b0 /
b0 \
1?
b100011011001 )
b100011011001 V
b100011011001 ~
b100011011001 I
b100011011001 ^"
b1 C
b100011011001 A
b11010111111100101010111010101111 @
b1110101011001111101000101001010110 M
b11100010010110110101010001010 O
0(
0F
0-
0L
b0 8
b0 G
b0 T
b1 N
#90
0?
#100
b11000000111001000001110110100100001001110001001110000000001110111x1100001000 3
b11000000111001000001110110100100001001110001001110000000001110111x1100001000 ^
b11000000111001000001110110100100001001110001001110000000001110111x1100001000 6"
07
b1 -"
b1 3"
b1 5"
b11000000111 %"
b10000011101101001000 '"
b1001110001001110000000001110111 ("
b10 )"
b10000011101101001000011000000111010011100010011100000000011101110000101 /"
b0 <"
b1 :"
b10000011101101001000011000000111010011100010011100000000011101110000100 8"
b1 M"
b11 K"
b101 <
b11 F"
b100 E"
b11 D"
b100 C"
b10 2"
b10 A"
b10 4"
b10000011101101001000011000000111010011100010011100000000011101110000101 ."
b111 ;"
b11111 ?"
b10 9"
b10000011101101001000011000000111010011100010011100000000011101110000100 7"
1?
b100111111100 )
b100111111100 V
b100111111100 ~
b100111111100 I
b100111111100 ^"
b0 C
1#
1D
0=
b100111111100 A
b10000010101000001011101000000101 @
b1100111010101110101010111001110 M
b1001100001010010110100111111111 O
b10 N
#110
0?
#120
b100 K"
b110 <
b1 X"
b11 F"
b100 E"
b11 D"
b100 C"
b1 2"
b11000000111001000001110110100100001001110001001110000000001110111x1100001000 3
b11000000111001000001110110100100001001110001001110000000001110111x1100001000 ^
b11000000111001000001110110100100001001110001001110000000001110111x1100001000 6"
b1 4"
b1 A"
b1 9"
b0 ;"
b0 ?"
1?
b10010111101 )
b10010111101 V
b10010111101 ~
b10010111101 I
b10010111101 ^"
b1 >
b10010111101 A
b11101001001101001001100111010 @
b1100010101101011100000011 M
b11100110101000100001000101000000 O
0#
0D
b11 N
#130
0?
#140
b1 ;"
b1 ?"
b10 ="
b11110111110100000010011111101110010001100010001111010010101001100001010010000011101101001000011000000111010011100010011100000000011101110000100 7"
1Z
1k
1j
1.
b10 O"
1J"
b101 K"
b10 i
b10 u
b10 |
b100011000100011110100101010011 g
b100011000100011110100101010011 t
b100011000100011110100101010011 {
b1 m
b111 <
b10 L"
b11 F"
b100 E"
b11 D"
b100 C"
b10 h
b100011000100011110100101010011 f
b1111011111010000001001111110111 /
b1111011111010000001001111110111 \
14
10
b1 l
1?
b100 )
b100 V
b100 ~
b100 I
b100 ^"
1(
1F
b1111011111010000001001111110111 '
b1111011111010000001001111110111 G"
b1111011111010000001001111110111 E
b10 C
b11110111110100000010011111101110010001100010001111010010101001110 y
b1111011111010000001001111110111 6
b1111011111010000001001111110111 H
b1111011111010000001001111110111 U
b1111011111010000001001111110111 w
b1111011111010000001001111110111 }
b1011110111110100000010011111101110000100011110100101010011001000110000001000100111000 8
b1011110111110100000010011111101110000100011110100101010011001000110000001000100111000 G
b1011110111110100000010011111101110000100011110100101010011001000110000001000100111000 T
1-
1L
b10001111010010101001100100011 \"
b1111011111010000001001111110111 ]"
b0 >
1=
b100 A
b10001111010010101001100100011 @
b1111011111010000001001111110111 M
b1111000000110001011111010011101 O
b100 N
#150
0?
#160
b0 -"
0Z
17
b11 ,"
b1 ;"
b1 ?"
b10 ="
b11110111110100000010011111101110010001100010001111010010101001100001010010000011101101001000011000000111010011100010011100000000011101110000100 7"
b0 3"
b0 %"
b0 '"
b0 ("
b0 )"
b1 1"
b10000011101101001000011000000111010011100010011100000000011101110000100 /"
b1 <"
b10 >"
b11110111110100000010011111101110010001100010001111010010101001100001010010000011101101001000011000000111010011100010011100000000011101110000100 8"
b11 i
b11 u
b11 |
b11110111110100000010011111101110000000000000000000000000000000011 y
b0 g
b0 t
b0 {
b0 m
b1 N"
b110 K"
b1000 <
b11 Y"
b1 S"
b1111011111010000001001111110111 R"
b11 F"
b100 E"
b11 D"
b100 C"
b0 2"
b0 A"
b1 0"
b10000011101101001000011000000111010011100010011100000000011101110000100 ."
b0x0100000000 3
b0x0100000000 ^
b0x0100000000 6"
b11 h
b0 f
b0 l
04
0k
0j
0.
00
b0 /
b0 \
1?
b10000000101 )
b10000000101 V
b10000000101 ~
b10000000101 I
b10000000101 ^"
1,
1K
b10000000000000000000000000000000000 *
b10000000000000000000000000000000000 W
b10000000000000000000000000000000000 !"
b10000000000000000000000000000000000 J
b1 C
b11 >
0=
b10000000101 A
b11010101110010111111010010101011 @
b1110101100000110111001111001011000 M
b10101011111101111001000100100110 O
0(
0F
0-
0L
b0 8
b0 G
b0 T
b101 N
#170
0?
#180
b10 0"
b1111110111000111101111101000000100100011000100011110100101010011x1100001000 3
b1111110111000111101111101000000100100011000100011110100101010011x1100001000 ^
b1111110111000111101111101000000100100011000100011110100101010011x1100001000 6"
07
b1 ,"
b1 3"
b10 5"
b1111110111 %"
b1111011111010000001 '"
b100011000100011110100101010011 ("
b10 )"
b11110111110100000010011111101110010001100010001111010010101001100001010010000011101101001000011000000111010011100010011100000000011101110000100 /"
b0 <"
b10 :"
b11110111110100000010011111101110010001100010001111010010101001100001000010000011101101001000011000000111010011100010011100000000011101110000100 8"
b10 M"
b111 K"
b1001 <
b0 X"
b11 F"
b100 E"
b11 D"
b100 C"
b111 ;"
b11111 ?"
b11 9"
b11110111110100000010011111101110010001100010001111010010101001100001000010000011101101001000011000000111010011100010011100000000011101110000100 7"
b1 2"
b1 A"
b11 4"
b11110111110100000010011111101110010001100010001111010010101001100001000010000011101101001000011000000111010011100010011100000000011101110000100 ."
1?
b110100001001 )
b110100001001 V
b110100001001 ~
b110100001001 I
b110100001001 ^"
b0 C
1#
1D
b110100001001 A
b110100100111101101001101101001 @
b1011000110001000010101110110001 M
b1011011101010001011110110101011 O
1,
1K
b10000000000000000000000000000000000 *
b10000000000000000000000000000000000 W
b10000000000000000000000000000000000 !"
b10000000000000000000000000000000000 J
b110 N
#190
0?
#200
b1000 K"
b1010 <
b1 Y"
b11 F"
b100 E"
b11 D"
b100 C"
b10 9"
b0 ;"
b0 ?"
b1111110111000111101111101000000100100011000100011110100101010011x1100001000 3
b1111110111000111101111101000000100100011000100011110100101010011x1100001000 ^
b1111110111000111101111101000000100100011000100011110100101010011x1100001000 6"
b11110111110100000010011111101110010001100010001111010010101001100001010010000011101101001000011000000111010011100010011100000000011101110000100 ."
b10 4"
b1 0"
1?
b11001010111 )
b11001010111 V
b11001010111 ~
b11001010111 I
b11001010111 ^"
b0 >
b11001010111 A
b11011100001111000100001010111000 @
b110101011011001001001101101010 M
b10110010001011000010111110111100 O
0,
0K
0#
0D
b0 *
b0 W
b0 !"
b0 J
b111 N
#210
0?
#220
0I"
12
b0 ,"
17
b0 3"
b0 %"
b0 '"
b0 ("
b0 )"
b10 1"
b11110111110100000010011111101110010001100010001111010010101001100001000010000011101101001000011000000111010011100010011100000000011101110000100 /"
b10 N"
b1001 K"
b1011 <
b11 F"
b100 E"
b11 D"
b100 C"
b0 2"
b0 A"
b10 0"
b11110111110100000010011111101110010001100010001111010010101001100001000010000011101101001000011000000111010011100010011100000000011101110000100 ."
b0x0100000000 3
b0x0100000000 ^
b0x0100000000 6"
1?
b101101001 )
b101101001 V
b101101001 ~
b101101001 I
b101101001 ^"
1,
1K
b10000000000000000000000000000000000 *
b10000000000000000000000000000000000 W
b10000000000000000000000000000000000 !"
b10000000000000000000000000000000000 J
b11 >
b101101001 A
b1011111101101010101110110111111 @
b1110011011100010101100011000110111 M
b1010111111001011100011010101001 O
b1000 N
#230
0?
#240
b1 ;"
b1 ?"
b11 ="
b101010010111111101011011010100101110111110001111000011001000011000010100011110111110100000010011111101110010001100010001111010010101001100001000010000011101101001000011000000111010011100010011100000000011101110000100 7"
xI"
1Z
1k
1j
1.
b10 i
b10 u
b10 |
b1110111110001111000011001000011 g
b1110111110001111000011001000011 t
b1110111110001111000011001000011 {
b1 m
b11 O"
1J"
b1010 K"
b1100 <
b0 Y"
b11 L"
b11 F"
b100 E"
b11 D"
b100 C"
b10 h
b1110111110001111000011001000011 f
b1010100101111111010110110101001 /
b1010100101111111010110110101001 \
14
10
b1 l
1?
b101011000001 )
b101011000001 V
b101011000001 ~
b101011000001 I
b101011000001 ^"
1(
1F
b1010100101111111010110110101001 '
b1010100101111111010110110101001 G"
b1010100101111111010110110101001 E
b10 C
b10101001011111110101101101010010111011111000111100001100100001110 y
b1010100101111111010110110101001 6
b1010100101111111010110110101001 H
b1010100101111111010110110101001 U
b1010100101111111010110110101001 w
b1010100101111111010110110101001 }
b1010101001011111110101101101010010010000110111011111000111100001100000001000100111000 8
b1010101001011111110101101101010010010000110111011111000111100001100000001000100111000 G
b1010101001011111110101101101010010010000110111011111000111100001100000001000100111000 T
1-
1L
b1000011011101111100011110000110 \"
b1010100101111111010110110101001 ]"
1=
b101011000001 A
b1000011011101111100011110000110 @
b1010100101111111010110110101001 M
b110001110010010011111010000010 O
1,
1K
b10000000000000000000000000000000000 *
b10000000000000000000000000000000000 W
b10000000000000000000000000000000000 !"
b10000000000000000000000000000000000 J
b1001 N
#250
0?
#260
0Z
02
b11 +"
b1 ;"
b1 ?"
b11 ="
b101010010111111101011011010100101110111110001111000011001000011000010100011110111110100000010011111101110010001100010001111010010101001100001000010000011101101001000011000000111010011100010011100000000011101110000100 7"
b1 <"
b11 >"
b101010010111111101011011010100101110111110001111000011001000011000010100011110111110100000010011111101110010001100010001111010010101001100001000010000011101101001000011000000111010011100010011100000000011101110000100 8"
b1011 K"
b11 i
b11 u
b11 |
b10101001011111110101101101010010000000000000000000000000000000011 y
b0 g
b0 t
b0 {
b0 m
b1101 <
b11 Z"
b10 U"
b1010100101111111010110110101001 T"
b11 F"
b100 E"
b11 D"
b100 C"
b11 h
b0 f
b0 l
04
0k
0j
0.
00
b0 /
b0 \
1?
b111110011101 )
b111110011101 V
b111110011101 ~
b111110011101 I
b111110011101 ^"
b1 C
b111110011101 A
b11110000101110111111111011100001 @
b1111010100110101011010101010101001 M
b10111101110001101001010100010111 O
0(
0F
1,
1K
b10000000000000000000000000000000000 *
b10000000000000000000000000000000000 W
b10000000000000000000000000000000000 !"
b10000000000000000000000000000000000 J
0-
0L
b0 8
b0 G
b0 T
b1010 N
#270
0?
#280
b110110101001000101010010111111101001110111110001111000011001000011x1100001000 3
b110110101001000101010010111111101001110111110001111000011001000011x1100001000 ^
b110110101001000101010010111111101001110111110001111000011001000011x1100001000 6"
07
b1 +"
b1 3"
b11 5"
b110110101001 %"
b1010100101111111010 '"
b1110111110001111000011001000011 ("
b10 )"
b101010010111111101011011010100101110111110001111000011001000011000010100011110111110100000010011111101110010001100010001111010010101001100001000010000011101101001000011000000111010011100010011100000000011101110000100 /"
b0 <"
b11 :"
b101010010111111101011011010100101110111110001111000011001000011000010000011110111110100000010011111101110010001100010001111010010101001100001000010000011101101001000011000000111010011100010011100000000011101110000100 8"
b11 M"
b1100 K"
b1110 <
b11 F"
b100 E"
b11 D"
b100 C"
b111 ;"
b11111 ?"
b0 9"
b101010010111111101011011010100101110111110001111000011001000011000010000011110111110100000010011111101110010001100010001111010010101001100001000010000011101101001000011000000111010011100010011100000000011101110000100 7"
b10 2"
b10 A"
b0 4"
b101010010111111101011011010100101110111110001111000011001000011000010100011110111110100000010011111101110010001100010001111010010101001100001000010000011101101001000011000000111010011100010011100000000011101110000100 ."
1?
b11010010001 )
b11010010001 V
b11010010001 ~
b11010010001 I
b11010010001 ^"
b0 C
1#
1D
b10 >
b11010010001 A
b110001011011111000101101100010 @
b100010101011101001000101000101 M
b10111101000110000111101011111000 O
0,
0K
b0 *
b0 W
b0 !"
b0 J
b1011 N
#290
0?
#300
b1101 K"
b1111 <
b1 Z"
b11 F"
b100 E"
b11 D"
b100 C"
b1 2"
b110110101001000101010010111111101001110111110001111000011001000011x1100001000 3
b110110101001000101010010111111101001110111110001111000011001000011x1100001000 ^
b110110101001000101010010111111101001110111110001111000011001000011x1100001000 6"
b11 4"
b1 A"
b11 9"
b0 ;"
b0 ?"
1?
b111110111001 )
b111110111001 V
b111110111001 ~
b111110111001 I
b111110111001 ^"
b1 >
0=
b111110111001 A
b1110110110110110001000111101101 @
b1110100101110100010001001001001011 M
b110111100100010000001110101 O
0#
0D
b1100 N
#310
0?
#320
b1 ;"
b1 ?"
b0 ="
b1111011111111101111000111110111010101110010101111110110001100010000101000101010010111111101011011010100101110111110001111000011001000011000010000011110111110100000010011111101110010001100010001111010010101001100001000010000011101101001000011000000111010011100010011100000000011101110000100 7"
1Z
1k
1j
1.
b10 i
b10 u
b10 |
b1010111001010111111011000110001 g
b1010111001010111111011000110001 t
b1010111001010111111011000110001 {
b1 m
b0 O"
1J"
b1110 K"
b10000 <
b100 L"
b11 F"
b100 E"
b11 D"
b100 C"
b10 h
b1010111001010111111011000110001 f
b1111011111111101111000111110111 /
b1111011111111101111000111110111 \
14
10
b1 l
1?
b11011000110 )
b11011000110 V
b11011000110 ~
b11011000110 I
b11011000110 ^"
1(
1F
b1111011111111101111000111110111 '
b1111011111111101111000111110111 G"
b1111011111111101111000111110111 E
b10 C
b11110111111111011110001111101110101011100101011111101100011000110 y
b1111011111111101111000111110111 6
b1111011111111101111000111110111 H
b1111011111111101111000111110111 U
b1111011111111101111000111110111 w
b1111011111111101111000111110111 }
b1011110111111111011110001111101110001010111111011000110001010101110000001000100111000 8
b1011110111111111011110001111101110001010111111011000110001010101110000001000100111000 G
b1011110111111111011110001111101110001010111111011000110001010101110000001000100111000 T
1-
1L
b101011111101100011000101010111 \"
b1111011111111101111000111110111 ]"
b10 >
1=
b11011000110 A
b101011111101100011000101010111 @
b1111011111111101111000111110111 M
b11010001001011100110111010011110 O
b1101 N
#330
0?
