cva6-model/lsu_traces/su_traces/test_0/store_unit_wave_pipeline.vcd
$date
	Tue Apr 11 18:20:31 2023
$end
$version
	Icarus Verilog
$end
$timescale
	1s
$end
$scope module store_unit_tb $end
$var wire 65 ! de_io_amo_resp_i [64:0] $end
$var wire 1 " de_io_amo_valid_commit_i $end
$var wire 1 # de_io_commit_i $end
$var wire 1 $ de_io_dtlb_hit_i $end
$var wire 65 % de_io_ex_i [64:0] $end
$var wire 1 & de_io_flush_i $end
$var wire 12 ' de_io_page_offset_i [11:0] $end
$var wire 35 ( de_io_req_port_i [34:0] $end
$var wire 32 ) de_io_result_o [31:0] $end
$var wire 1 * de_io_valid_i $end
$var wire 1 + de_io_valid_o $end
$var wire 32 , de_io_vaddr_o [31:0] $end
$var wire 1 - de_io_translation_req_o $end
$var wire 3 . de_io_trans_id_o [2:0] $end
$var wire 1 / de_io_store_buffer_empty_o $end
$var wire 77 0 de_io_req_port_o [76:0] $end
$var wire 1 1 de_io_pop_st_o $end
$var wire 1 2 de_io_page_offset_matches_o $end
$var wire 34 3 de_io_paddr_i [33:0] $end
$var wire 1 4 de_io_no_st_pending_o $end
$var wire 85 5 de_io_lsu_ctrl_i [84:0] $end
$var wire 65 6 de_io_ex_o [64:0] $end
$var wire 1 7 de_io_commit_ready_o $end
$var wire 135 8 de_io_amo_req_o [134:0] $end
$var reg 32 9 CLK_CYCLE [31:0] $end
$var reg 1 : choice_core $end
$var reg 1 ; choice_mem $end
$var reg 1 < clk $end
$var reg 32 = data [31:0] $end
$var reg 12 > poffset [11:0] $end
$var reg 1 ? reset $end
$var reg 2 @ store_seen [1:0] $end
$var reg 1 A tb_io_commit_i $end
$var reg 85 B tb_io_lsu_ctrl_i [84:0] $end
$var reg 34 C tb_io_paddr_i [33:0] $end
$var reg 12 D tb_io_page_offset_i [11:0] $end
$var reg 35 E tb_io_req_port_i [34:0] $end
$var reg 1 F tb_io_valid_i $end
$var reg 34 G vaddr [33:0] $end
$var integer 32 H i [31:0] $end
$var integer 32 I seed [31:0] $end
$scope module su_i $end
$var wire 1 J amo_buffer_ready $end
$var wire 1 K amo_buffer_valid $end
$var wire 65 L amo_resp_i [64:0] $end
$var wire 1 " amo_valid_commit_i $end
$var wire 1 < clk_i $end
$var wire 1 # commit_i $end
$var wire 1 $ dtlb_hit_i $end
$var wire 65 M ex_i [64:0] $end
$var wire 1 & flush_i $end
$var wire 85 N lsu_ctrl_i [84:0] $end
$var wire 34 O paddr_i [33:0] $end
$var wire 12 P page_offset_i [11:0] $end
$var wire 35 Q req_port_i [34:0] $end
$var wire 32 R result_o [31:0] $end
$var wire 1 ? rst_ni $end
$var wire 1 S st_ready $end
$var wire 1 T store_buffer_valid $end
$var wire 3 U trans_id_o [2:0] $end
$var wire 1 * valid_i $end
$var wire 32 V vaddr_o [31:0] $end
$var wire 1 W store_buffer_ready $end
$var wire 1 / store_buffer_empty_o $end
$var wire 77 X req_port_o [76:0] $end
$var wire 1 2 page_offset_matches_o $end
$var wire 1 4 no_st_pending_o $end
$var wire 1 Y instr_is_amo $end
$var wire 1 7 commit_ready_o $end
$var wire 135 Z amo_req_o [134:0] $end
$var reg 4 [ amo_op_d [3:0] $end
$var reg 4 \ amo_op_q [3:0] $end
$var reg 65 ] ex_o [64:0] $end
$var reg 1 1 pop_st_o $end
$var reg 4 ^ st_be_n [3:0] $end
$var reg 4 _ st_be_q [3:0] $end
$var reg 32 ` st_data_n [31:0] $end
$var reg 32 a st_data_q [31:0] $end
$var reg 2 b st_data_size_n [1:0] $end
$var reg 2 c st_data_size_q [1:0] $end
$var reg 1 d st_valid $end
$var reg 1 e st_valid_without_flush $end
$var reg 2 f state_d [1:0] $end
$var reg 2 g state_q [1:0] $end
$var reg 3 h trans_id_n [2:0] $end
$var reg 3 i trans_id_q [2:0] $end
$var reg 1 - translation_req_o $end
$var reg 1 + valid_o $end
$scope function ariane_pkg_data_align $end
$upscope $end
$scope function ariane_pkg_extract_transfer_size $end
$upscope $end
$scope function ariane_pkg_is_amo $end
$upscope $end
$scope module i_amo_buffer $end
$var wire 72 j amo_data_out [71:0] $end
$var wire 4 k amo_op_i [3:0] $end
$var wire 65 l amo_resp_i [64:0] $end
$var wire 1 m amo_valid $end
$var wire 1 " amo_valid_commit_i $end
$var wire 1 < clk_i $end
$var wire 32 n data_i [31:0] $end
$var wire 2 o data_size_i [1:0] $end
$var wire 1 p flush_amo_buffer $end
$var wire 1 & flush_i $end
$var wire 34 q paddr_i [33:0] $end
$var wire 1 J ready_o $end
$var wire 1 ? rst_ni $end
$var wire 1 K valid_i $end
$var wire 1 4 no_st_pending_i $end
$var wire 135 r amo_req_o [134:0] $end
$var wire 72 s amo_data_in [71:0] $end
$upscope $end
$scope module store_buffer_i $end
$var wire 4 t be_i [3:0] $end
$var wire 1 < clk_i $end
$var wire 1 # commit_i $end
$var wire 32 u data_i [31:0] $end
$var wire 2 v data_size_i [1:0] $end
$var wire 1 & flush_i $end
$var wire 34 w paddr_i [33:0] $end
$var wire 12 x page_offset_i [11:0] $end
$var wire 35 y req_port_i [34:0] $end
$var wire 1 ? rst_ni $end
$var wire 1 / store_buffer_empty_o $end
$var wire 1 z sv2v_tmp_80AC7 [1:1] $end
$var wire 1 { sv2v_tmp_A682E [1:1] $end
$var wire 1 | sv2v_tmp_F170F [1:1] $end
$var wire 1 T valid_i $end
$var wire 1 e valid_without_flush_i $end
$var wire 12 } sv2v_tmp_9099D [12:1] $end
$var wire 4 ~ sv2v_tmp_8DCF7 [4:1] $end
$var wire 22 !" sv2v_tmp_71805 [22:1] $end
$var wire 32 "" sv2v_tmp_6B7F3 [32:1] $end
$var wire 2 #" sv2v_tmp_51F0D [2:1] $end
$var reg 584 $" commit_queue_n [583:0] $end
$var reg 584 %" commit_queue_q [583:0] $end
$var reg 3 &" commit_read_pointer_n [2:0] $end
$var reg 3 '" commit_read_pointer_q [2:0] $end
$var reg 1 7 commit_ready_o $end
$var reg 4 (" commit_status_cnt_n [3:0] $end
$var reg 4 )" commit_status_cnt_q [3:0] $end
$var reg 3 *" commit_write_pointer_n [2:0] $end
$var reg 3 +" commit_write_pointer_q [2:0] $end
$var reg 1 4 no_st_pending_o $end
$var reg 1 2 page_offset_matches_o $end
$var reg 1 W ready_o $end
$var reg 77 ," req_port_o [76:0] $end
$var reg 292 -" speculative_queue_n [291:0] $end
$var reg 292 ." speculative_queue_q [291:0] $end
$var reg 2 /" speculative_read_pointer_n [1:0] $end
$var reg 2 0" speculative_read_pointer_q [1:0] $end
$var reg 3 1" speculative_status_cnt_n [2:0] $end
$var reg 3 2" speculative_status_cnt_q [2:0] $end
$var reg 2 3" speculative_write_pointer_n [1:0] $end
$var reg 2 4" speculative_write_pointer_q [1:0] $end
$scope function sv2v_cast_79500 $end
$upscope $end
$scope begin core_if $end
$var reg 5 5" speculative_status_cnt [4:0] $end
$scope begin sv2v_autoblock_1 $end
$var reg 32 6" i [31:0] $end
$upscope $end
$upscope $end
$scope begin p_commit $end
$upscope $end
$scope begin p_spec $end
$upscope $end
$scope begin store_if $end
$var reg 9 7" commit_status_cnt [8:0] $end
$upscope $end
$scope begin sv2v_autoblock_2 $end
$var reg 2 8" _sv2v_jump [0:1] $end
$scope begin address_checker $end
$scope begin sv2v_autoblock_3 $end
$var reg 32 9" i [31:0] $end
$scope begin sv2v_autoblock_4 $end
$var reg 32 :" _sv2v_value_on_break [31:0] $end
$upscope $end
$upscope $end
$scope begin sv2v_autoblock_5 $end
$var reg 32 ;" i [31:0] $end
$scope begin sv2v_autoblock_6 $end
$var reg 32 <" _sv2v_value_on_break [31:0] $end
$upscope $end
$upscope $end
$upscope $end
$upscope $end
$upscope $end
$scope begin store_control $end
$upscope $end
$upscope $end
$scope task lower_commit $end
$upscope $end
$scope task lower_memory_grant $end
$upscope $end
$scope task lower_store_request $end
$upscope $end
$scope task raise_commit $end
$upscope $end
$scope task raise_memory_grant $end
$upscope $end
$scope task raise_store_request $end
$var reg 32 =" data [31:0] $end
$var reg 32 >" vaddr [31:0] $end
$upscope $end
$scope task set_page_offset $end
$var reg 12 ?" page_offset [11:0] $end
$upscope $end
$upscope $end
$enddefinitions $end
#0
$dumpvars
bx ?"
bx >"
bx ="
b11 <"
b100 ;"
b111 :"
b1000 9"
b0 8"
bx 7"
bx 6"
b0xxx 5"
bx 4"
bx 3"
bx 2"
bx 1"
bx 0"
bx /"
bx ."
bx -"
bx1xxxxxx00 ,"
bx +"
bx *"
bx )"
bx ("
bx '"
bx &"
bx %"
bx $"
bx #"
bx ""
bx !"
bx ~
bx }
0|
0{
1z
bx y
bx x
bx w
bx v
bx u
bx t
bx s
b0zzzzzz000000000000000000000000000000zzzzzzzzzzzzzzzzzzzzzzzzzzzzzzzzzz00000000000000000000000000000000zzzzzzzzzzzzzzzzzzzzzzzzzzzzzzzz r
bx q
0p
bx o
bx n
zm
b0 l
bx k
bz j
bx i
bx h
bx g
bx f
0e
0d
bx c
b11 b
bx a
b0 `
bx _
bx ^
b0 ]
bx \
b0 [
b0zzzzzz000000000000000000000000000000zzzzzzzzzzzzzzzzzzzzzzzzzzzzzzzzzz00000000000000000000000000000000zzzzzzzzzzzzzzzzzzzzzzzzzzzzzzzz Z
0Y
bx1xxxxxx00 X
xW
bx V
bx U
0T
xS
b0 R
bx Q
bx P
bx O
bx N
b0 M
b0 L
0K
zJ
b1011100 I
bx H
bx G
xF
bx E
bx D
bx C
bx B
xA
b0 @
1?
bx >
bx =
1<
x;
x:
b0 9
b0zzzzzz000000000000000000000000000000zzzzzzzzzzzzzzzzzzzzzzzzzzzzzzzzzz00000000000000000000000000000000zzzzzzzzzzzzzzzzzzzzzzzzzzzzzzzz 8
x7
b0 6
bx 5
x4
bx 3
02
01
bx1xxxxxx00 0
x/
bx .
0-
bx ,
0+
x*
b0 )
bx (
bx '
0&
b0 %
1$
x#
0"
b0 !
$end
#10
0<
#20
1/
b0 ("
b0 $"
b0 *"
b0 &"
14
17
b0 -"
b0 3"
b0 /"
b0 1"
1S
1W
b0 5"
b0 f
b1 9
b0 )"
b0 +"
b0 }
b0 !"
b0 ""
b0 ~
b0 #"
b0 '"
b0 %"
b0 2"
b0 4"
b0 0"
b0 ."
b0 \
b0 k
b0 .
b0 U
b0 i
b0 c
b0 o
b0 v
b0xxxxxxxxxxxxxxxxxxxxxxxxxxxxxxxxxx0000000000000000000000000000000000 s
b0 a
b0 n
b0 u
b0 _
b0 t
b0 g
b11 <"
b100 ;"
b111 :"
b1000 9"
b0x0100000000 0
b0x0100000000 X
b0x0100000000 ,"
b0 7"
1<
b11001000000 '
b11001000000 P
b11001000000 x
b11001000000 D
b11001000000 ?"
1;
0:
b11001000000 >
b10101111110010111000011001011111 =
b1110000000011000001111011000000000 G
b10101111110100010100100011001001 I
0#
0A
b10000000000000000000000000000000000 (
b10000000000000000000000000000000000 Q
b10000000000000000000000000000000000 y
b10000000000000000000000000000000000 E
0*
0F
b0 H
0?
#30
0<
#40
b10 9
b11 <"
b100 ;"
b111 :"
b1000 9"
b10 b
b100001001010100101110101000010 `
b0 ^
b110100000100100111111101101000 ,
b110100000100100111111101101000 V
11
1-
b1 f
b0 h
1<
b100100011 '
b100100011 P
b100100011 x
b100100011 D
b100100011 ?"
b10 @
b1101000001001001111111011010000000000000000000000000000000000000 s
b110100000100100111111101101000 3
b110100000100100111111101101000 C
b110100000100100111111101101000 O
b110100000100100111111101101000 q
b110100000100100111111101101000 w
b1001101000001001001111111011010000001000010010101001011101010000100000001000100111000 5
b1001101000001001001111111011010000001000010010101001011101010000100000001000100111000 B
b1001101000001001001111111011010000001000010010101001011101010000100000001000100111000 N
1*
1F
b100001001010100101110101000010 ="
b110100000100100111111101101000 >"
1:
b100100011 >
b100001001010100101110101000010 =
b110100000100100111111101101000 G
b11001111111011000101110000100010 I
b10000000000000000000000000000000000 (
b10000000000000000000000000000000000 Q
b10000000000000000000000000000000000 y
b10000000000000000000000000000000000 E
b1 H
#50
0<
#60
b10 c
b10 o
b10 v
b1101000001001001111111011010000010000100101010010111010100001010 s
b100001001010100101110101000010 a
b100001001010100101110101000010 n
b100001001010100101110101000010 u
b11 9
b11 <"
b100 ;"
b111 :"
b1000 9"
b0 f
01
0-
1<
b10001100100 '
b10001100100 P
b10001100100 x
b10001100100 D
b10001100100 ?"
b1 @
0;
0:
b10001100100 >
b100011000000110111110101000110 =
b1011101000101011000001110111010 G
b1110010001011001101000000110111 I
b0 (
b0 Q
b0 y
b0 E
0*
0F
b10 H
1?
#70
0<
#80
0/
04
b1 )"
b1 +"
b111 2"
b1 0"
b100 9
b11 <"
b100 ;"
b111 :"
b1000 9"
b10 ("
b10 7"
b10 *"
b110 1"
b110 5"
b10 /"
1<
b100100000100 '
b100100000100 P
b100100000100 x
b100100000100 D
b100100000100 ?"
b10000000000000000000000000000000000 (
b10000000000000000000000000000000000 Q
b10000000000000000000000000000000000 y
b10000000000000000000000000000000000 E
b0 @
1#
1A
1;
b100100000100 >
b1000000011111100001100010000 =
b100101011001000100100001001 G
b11111111100001011000110110011000 I
b11 H
#90
0<
#100
b10001111010001111110100011001101 a
b10001111010001111110100011001101 n
b10001111010001111110100011001101 u
b11 g
b101 9
b11 <"
b100 ;"
b111 :"
b1000 9"
b10001111010001111110100011001101 `
b1110011101110110001110111100111 ,
b1110011101110110001110111100111 V
01
1-
b11 f
b1 /"
b111 1"
0S
0W
b111 5"
b1 ("
b1 *"
b1 7"
1<
b110101100101 '
b110101100101 P
b110101100101 x
b110101100101 D
b110101100101 ?"
b10 @
b11100111011101100011101111001111000111101000111111010001100110110 s
b1110011101110110001110111100111 3
b1110011101110110001110111100111 C
b1110011101110110001110111100111 O
b1110011101110110001110111100111 q
b1110011101110110001110111100111 w
b1011100111011101100011101111001110010001111110100011001101100011110000001000100111000 5
b1011100111011101100011101111001110010001111110100011001101100011110000001000100111000 B
b1011100111011101100011101111001110010001111110100011001101100011110000001000100111000 N
1*
1F
b1000111111010001100110110001111 ="
b1110011101110110001110111100111 >"
1:
b110101100101 >
b1000111111010001100110110001111 =
b1110011101110110001110111100111 G
b110101111100000001110010010101 I
0#
0A
b10000000000000000000000000000000000 (
b10000000000000000000000000000000000 Q
b10000000000000000000000000000000000 y
b10000000000000000000000000000000000 E
b100 H
#110
0<
#120
b110 9
b11 <"
b100 ;"
b111 :"
b1000 9"
1-
1<
b110111101111 '
b110111101111 P
b110111101111 x
b110111101111 D
b110111101111 ?"
b1 @
0;
0:
b110111101111 >
b11101111110110100101000011011111 =
b1111111111010011110111011011111110 G
b10000000001110101111000111110 I
b0 (
b0 Q
b0 y
b0 E
0*
0F
b101 H
#130
0<
#140
b10 )"
b10 +"
b110 2"
b10 0"
b111 9
b0 f
1-
b11 <"
b100 ;"
b111 :"
b1000 9"
b11 ("
b11 7"
b11 *"
b101 1"
b101 5"
b11 /"
1S
1W
1<
b100101011010 '
b100101011010 P
b100101011010 x
b100101011010 D
b100101011010 ?"
b10000000000000000000000000000000000 (
b10000000000000000000000000000000000 Q
b10000000000000000000000000000000000 y
b10000000000000000000000000000000000 E
b0 @
1#
1A
1;
1:
b100101011010 >
b10100011111011111011101001000111 =
b10011111011011001111100100111 G
b10001011111100011000000101100011 I
b110 H
#150
0<
#160
b1101010000100101000100101011010 a
b1101010000100101000100101011010 n
b1101010000100101000100101011010 u
b1000 9
b11 <"
b100 ;"
b111 :"
b1000 9"
b1101010000100101000100101011010 `
b1010101010110011010010110101010 ,
b1010101010110011010010110101010 V
b11 f
1-
b10 /"
b110 1"
0S
0W
b110 5"
b10 ("
b10 *"
b10 7"
1<
b11011111010 '
b11011111010 P
b11011111010 x
b11011111010 D
b11011111010 ?"
b10 @
b10101010101100110100101101010100110101000010010100010010101101010 s
b1010101010110011010010110101010 3
b1010101010110011010010110101010 C
b1010101010110011010010110101010 O
b1010101010110011010010110101010 q
b1010101010110011010010110101010 w
b1010101010101100110100101101010100100010010101101001101010000100100000001000100111000 5
b1010101010101100110100101101010100100010010101101001101010000100100000001000100111000 B
b1010101010101100110100101101010100100010010101101001101010000100100000001000100111000 N
1*
1F
b10001001010110100110101000010010 ="
b1010101010110011010010110101010 >"
0;
b11011111010 >
b10001001010110100110101000010010 =
b1010101010110011010010110101010 G
b11110010000101111100001110010100 I
0#
0A
b0 (
b0 Q
b0 y
b0 E
b111 H
#170
0<
#180
b1001 9
b11 <"
b100 ;"
b111 :"
b1000 9"
1-
1<
b110111100000 '
b110111100000 P
b110111100000 x
b110111100000 D
b110111100000 ?"
b1 @
0:
b110111100000 >
b10100100110101011001101001001001 =
b1010101100010100010001110101011 G
b1010001001100100100111000100001 I
0*
0F
b1000 H
#190
0<
#200
b11 )"
b11 +"
b101 2"
b11 0"
b1010 9
b0 f
1-
b11 <"
b100 ;"
b111 :"
b1000 9"
b100 ("
b100 7"
b100 *"
b100 1"
b100 5"
b0 /"
1S
1W
1<
b101000100001 '
b101000100001 P
b101000100001 x
b101000100001 D
b101000100001 ?"
b0 @
1#
1A
1:
b101000100001 >
b101000011010101100100101010000 =
b1100001011000010011111111000010 G
b100000010011110011111100011010 I
b1001 H
#210
0<
#220
b10111000001001100111100110111100 a
b10111000001001100111100110111100 n
b10111000001001100111100110111100 u
b1011 9
b11 <"
b100 ;"
b111 :"
b1000 9"
b10111000001001100111100110111100 `
b10100100110000111101101001001001 ,
b10100100110000111101101001001001 V
b11 f
1-
b11 ("
b11 *"
b11 7"
b11 /"
b101 1"
0S
0W
b101 5"
1<
b10000111100 '
b10000111100 P
b10000111100 x
b10000111100 D
b10000111100 ?"
b10 @
b101001001100001111011010010010011011100000100110011110011011110010 s
b10100100110000111101101001001001 3
b10100100110000111101101001001001 C
b10100100110000111101101001001001 O
b10100100110000111101101001001001 q
b10100100110000111101101001001001 w
b1101001001100001111011010010010010101111001011100000100110011110010000001000100111000 5
b1101001001100001111011010010010010101111001011100000100110011110010000001000100111000 B
b1101001001100001111011010010010010101111001011100000100110011110010000001000100111000 N
1*
1F
b10111100101110000010011001111001 ="
b10100100110000111101101001001001 >"
b10000111100 >
b10111100101110000010011001111001 =
b1110100100110000111101101001001001 G
b110011100011010111001001111 I
0#
0A
b1010 H
#230
0<
#240
b1100 9
b11 <"
b100 ;"
b111 :"
b1000 9"
1-
1<
b101110100001 '
b101110100001 P
b101110100001 x
b101110100001 D
b101110100001 ?"
b1 @
b101110100001 >
b1111101101101100110010111111011 =
b11101001100011001101100111010 G
b10101100011111000011111001010000 I
0*
0F
b1011 H
#250
0<
#260
b100 )"
b100 +"
b100 2"
b0 0"
b1101 9
b0 f
1-
b11 <"
b100 ;"
b111 :"
b1000 9"
b101 ("
b101 7"
b101 *"
b11 1"
b11 5"
b1 /"
1S
1W
1<
b111011100001 '
b111011100001 P
b111011100001 x
b111011100001 D
b111011100001 ?"
b10000000000000000000000000000000000 (
b10000000000000000000000000000000000 Q
b10000000000000000000000000000000000 y
b10000000000000000000000000000000000 E
b0 @
1#
1A
1;
b111011100001 >
b10010000000111111110101000100000 =
b101100111101111111100101011001 G
b11111111111011101000100101101101 I
b1100 H
#270
0<
#280
b10011010000001010101000000110100 a
b10011010000001010101000000110100 n
b10011010000001010101000000110100 u
b1110 9
b11 <"
b100 ;"
b111 :"
b1000 9"
b10011010000001010101000000110100 `
b11000011010111001011100110000 ,
b11000011010111001011100110000 V
b11 f
1-
b0 /"
b100 1"
0S
0W
b100 5"
b100 ("
b100 *"
b100 7"
1<
b10011010010 '
b10011010010 P
b10011010010 x
b10011010010 D
b10011010010 ?"
b10 @
b110000110101110010111001100001001101000000101010100000011010010 s
b11000011010111001011100110000 3
b11000011010111001011100110000 C
b11000011010111001011100110000 O
b11000011010111001011100110000 q
b11000011010111001011100110000 w
b1000110000110101110010111001100000100110100000010101010000001101000000001000100111000 5
b1000110000110101110010111001100000100110100000010101010000001101000000001000100111000 B
b1000110000110101110010111001100000100110100000010101010000001101000000001000100111000 N
1*
1F
b10011010000001010101000000110100 ="
b11000011010111001011100110000 >"
0;
b10011010010 >
b10011010000001010101000000110100 =
b11000011010111001011100110000 G
b11011111001110010111101010110110 I
0#
0A
b0 (
b0 Q
b0 y
b0 E
b1101 H
#290
0<
#300
b1111 9
b11 <"
b100 ;"
b111 :"
b1000 9"
1-
1<
b10001110 '
b10001110 P
b10001110 x
b10001110 D
b10001110 ?"
b10000000000000000000000000000000000 (
b10000000000000000000000000000000000 Q
b10000000000000000000000000000000000 y
b10000000000000000000000000000000000 E
b1 @
1;
0:
b10001110 >
b11010101010101011001101010101010 =
b1110100110111110001000001001001101 G
b10001001100100000110001011111011 I
0*
0F
b1110 H
#310
0<
#320
b101 )"
b101 +"
b11 2"
b1 0"
b10000 9
b0 f
1-
b11 <"
b100 ;"
b111 :"
b1000 9"
b10 1"
b10 5"
b10 /"
1S
1W
b110 ("
b110 7"
b110 *"
1<
b111000001 '
b111000001 P
b111000001 x
b111000001 D
b111000001 ?"
b0 @
1#
1A
0;
1:
b111000001 >
b10010000000010001001110000100000 =
b1100000101000010000010111000001 G
b10000100001011110101100111001100 I
b0 (
b0 Q
b0 y
b0 E
b1111 H
#330
0<
#340
b0 g
b10001 9
b0 f
0-
b11 <"
b100 ;"
b111 :"
b1000 9"
b101 ("
b101 *"
b101 7"
b1 /"
b11 1"
0S
0W
b11 5"
1<
b111011011 '
b111011011 P
b111011011 x
b111011011 D
b111011011 ?"
0:
b111011011 >
b10101101000110100111100001011010 =
b11011010001100100011100110110 G
b1000011011011110011101001111001 I
0#
0A
b10000 H
#350
0<
#360
b1011101001100101100111011100111 a
b1011101001100101100111011100111 n
b1011101001100101100111011100111 u
b11 g
b10010 9
b11 <"
b100 ;"
b111 :"
b1000 9"
b1011101001100101100111011100111 `
b1100000100000101111100111000001 ,
b1100000100000101111100111000001 V
01
1-
b11 f
1<
b11101100100 '
b11101100100 P
b11101100100 x
b11101100100 D
b11101100100 ?"
b10 @
b11000001000001011111001110000010101110100110010110011101110011110 s
b1100000100000101111100111000001 3
b1100000100000101111100111000001 C
b1100000100000101111100111000001 O
b1100000100000101111100111000001 q
b1100000100000101111100111000001 w
b1011000001000001011111001110000010111001110101110100110010110011100000001000100111000 5
b1011000001000001011111001110000010111001110101110100110010110011100000001000100111000 B
b1011000001000001011111001110000010111001110101110100110010110011100000001000100111000 N
1*
1F
b11100111010111010011001011001110 ="
b1100000100000101111100111000001 >"
1:
b11101100100 >
b11100111010111010011001011001110 =
b1100000100000101111100111000001 G
b10111110000110000100110100010010 I
b10001 H
#370
0<
#380
b10011 9
b11 <"
b100 ;"
b111 :"
b1000 9"
1-
1<
b101101101010 '
b101101101010 P
b101101101010 x
b101101101010 D
b101101101010 ?"
b1 @
0:
b101101101010 >
b10011011100110111011001000110111 =
b1000010011100011010001110000100 G
b10000011100100110101101100111 I
0*
0F
b10010 H
#390
0<
#400
b110 )"
b110 +"
b10 2"
b10 0"
b10100 9
b0 f
1-
b11 <"
b100 ;"
b111 :"
b1000 9"
b111 ("
b111 7"
b111 *"
b1 1"
b1 5"
b11 /"
1S
1W
1<
b11100100100 '
b11100100100 P
b11100100100 x
b11100100100 D
b11100100100 ?"
b0 @
1#
1A
1:
b11100100100 >
b1111001111011011110100011110 =
b1111100110011110110011111011001100 G
b11110100011000000011001000001000 I
b10011 H
#410
0<
#420
b1000 ("
b1000 7"
b0 *"
b0 1"
b0 5"
b0 /"
0-
b111 )"
b111 +"
b1 2"
b11 0"
b0 g
b10101 9
1<
b10100 H
#430
0<
#440
b1001 ("
b1001 7"
b1 *"
07
b111 1"
b11111 5"
b1 /"
b1000 )"
b0 +"
b0 2"
b0 0"
b10110 9
1<
