cva6-model/lsu_traces/su_traces/test_1/store_unit_model_wave_pipeline.vcd
$date
	Sun Apr 16 19:44:41 2023
$end
$version
	Icarus Verilog
$end
$timescale
	1s
$end
$scope module store_unit_model_tb $end
$var wire 65 ! de_io_amo_resp_i [64:0] $end
$var wire 1 " de_io_amo_valid_commit_i $end
$var wire 1 # de_io_commit_i $end
$var wire 1 $ de_io_dtlb_hit_i $end
$var wire 65 % de_io_ex_i [64:0] $end
$var wire 1 & de_io_flush_i $end
$var wire 32 ' de_io_instr_i [31:0] $end
$var wire 1 ( de_io_instr_valid_i $end
$var wire 12 ) de_io_page_offset_i [11:0] $end
$var wire 35 * de_io_req_port_i [34:0] $end
$var wire 32 + de_io_result_o [31:0] $end
$var wire 1 , de_io_store_mem_resp_i $end
$var wire 1 - de_io_valid_i $end
$var wire 1 . de_io_valid_o $end
$var wire 32 / de_io_vaddr_o [31:0] $end
$var wire 1 0 de_io_translation_req_o $end
$var wire 3 1 de_io_trans_id_o [2:0] $end
$var wire 1 2 de_io_store_buffer_empty_o $end
$var wire 77 3 de_io_req_port_o [76:0] $end
$var wire 1 4 de_io_pop_st_o $end
$var wire 1 5 de_io_page_offset_matches_o $end
$var wire 34 6 de_io_paddr_i [33:0] $end
$var wire 1 7 de_io_no_st_pending_o $end
$var wire 85 8 de_io_lsu_ctrl_i [84:0] $end
$var wire 65 9 de_io_ex_o [64:0] $end
$var wire 1 : de_io_commit_ready_o $end
$var wire 135 ; de_io_amo_req_o [134:0] $end
$var reg 32 < CLK_CYCLE [31:0] $end
$var reg 1 = choice_core $end
$var reg 2 > choice_mem [1:0] $end
$var reg 1 ? clk $end
$var reg 32 @ data [31:0] $end
$var reg 12 A poffset [11:0] $end
$var reg 1 B reset $end
$var reg 2 C store_seen [1:0] $end
$var reg 1 D tb_io_commit_i $end
$var reg 32 E tb_io_instr_i [31:0] $end
$var reg 1 F tb_io_instr_valid_i $end
$var reg 85 G tb_io_lsu_ctrl_i [84:0] $end
$var reg 34 H tb_io_paddr_i [33:0] $end
$var reg 12 I tb_io_page_offset_i [11:0] $end
$var reg 35 J tb_io_req_port_i [34:0] $end
$var reg 1 K tb_io_store_mem_resp_i $end
$var reg 1 L tb_io_valid_i $end
$var reg 34 M vaddr [33:0] $end
$var integer 32 N i [31:0] $end
$var integer 32 O seed [31:0] $end
$scope module su_i $end
$var wire 1 P amo_buffer_ready $end
$var wire 1 Q amo_buffer_valid $end
$var wire 65 R amo_resp_i [64:0] $end
$var wire 1 " amo_valid_commit_i $end
$var wire 1 ? clk_i $end
$var wire 1 # commit_i $end
$var wire 1 $ dtlb_hit_i $end
$var wire 65 S ex_i [64:0] $end
$var wire 1 & flush_i $end
$var wire 85 T lsu_ctrl_i [84:0] $end
$var wire 34 U paddr_i [33:0] $end
$var wire 12 V page_offset_i [11:0] $end
$var wire 35 W req_port_i [34:0] $end
$var wire 32 X result_o [31:0] $end
$var wire 1 B rst_ni $end
$var wire 1 Y st_ready $end
$var wire 1 Z store_buffer_valid $end
$var wire 3 [ trans_id_o [2:0] $end
$var wire 1 - valid_i $end
$var wire 32 \ vaddr_o [31:0] $end
$var wire 1 ] store_buffer_ready $end
$var wire 1 2 store_buffer_empty_o $end
$var wire 77 ^ req_port_o [76:0] $end
$var wire 1 5 page_offset_matches_o $end
$var wire 1 7 no_st_pending_o $end
$var wire 1 _ instr_is_amo $end
$var wire 1 : commit_ready_o $end
$var wire 135 ` amo_req_o [134:0] $end
$var reg 4 a amo_op_d [3:0] $end
$var reg 4 b amo_op_q [3:0] $end
$var reg 65 c ex_o [64:0] $end
$var reg 1 4 pop_st_o $end
$var reg 4 d st_be_n [3:0] $end
$var reg 4 e st_be_q [3:0] $end
$var reg 32 f st_data_n [31:0] $end
$var reg 32 g st_data_q [31:0] $end
$var reg 2 h st_data_size_n [1:0] $end
$var reg 2 i st_data_size_q [1:0] $end
$var reg 1 j st_valid $end
$var reg 1 k st_valid_without_flush $end
$var reg 2 l state_d [1:0] $end
$var reg 2 m state_q [1:0] $end
$var reg 3 n trans_id_n [2:0] $end
$var reg 3 o trans_id_q [2:0] $end
$var reg 1 0 translation_req_o $end
$var reg 1 . valid_o $end
$scope function ariane_pkg_data_align $end
$upscope $end
$scope function ariane_pkg_extract_transfer_size $end
$upscope $end
$scope function ariane_pkg_is_amo $end
$upscope $end
$scope module i_amo_buffer $end
$var wire 72 p amo_data_out [71:0] $end
$var wire 4 q amo_op_i [3:0] $end
$var wire 65 r amo_resp_i [64:0] $end
$var wire 1 s amo_valid $end
$var wire 1 " amo_valid_commit_i $end
$var wire 1 ? clk_i $end
$var wire 32 t data_i [31:0] $end
$var wire 2 u data_size_i [1:0] $end
$var wire 1 v flush_amo_buffer $end
$var wire 1 & flush_i $end
$var wire 34 w paddr_i [33:0] $end
$var wire 1 P ready_o $end
$var wire 1 B rst_ni $end
$var wire 1 Q valid_i $end
$var wire 1 7 no_st_pending_i $end
$var wire 135 x amo_req_o [134:0] $end
$var wire 72 y amo_data_in [71:0] $end
$upscope $end
$scope module store_buffer_i $end
$var wire 4 z be_i [3:0] $end
$var wire 1 ? clk_i $end
$var wire 1 # commit_i $end
$var wire 32 { data_i [31:0] $end
$var wire 2 | data_size_i [1:0] $end
$var wire 1 & flush_i $end
$var wire 34 } paddr_i [33:0] $end
$var wire 12 ~ page_offset_i [11:0] $end
$var wire 35 !" req_port_i [34:0] $end
$var wire 1 B rst_ni $end
$var wire 1 2 store_buffer_empty_o $end
$var wire 1 "" sv2v_tmp_80AC7 [1:1] $end
$var wire 1 #" sv2v_tmp_A682E [1:1] $end
$var wire 1 $" sv2v_tmp_F170F [1:1] $end
$var wire 1 Z valid_i $end
$var wire 1 k valid_without_flush_i $end
$var wire 12 %" sv2v_tmp_9099D [12:1] $end
$var wire 4 &" sv2v_tmp_8DCF7 [4:1] $end
$var wire 22 '" sv2v_tmp_71805 [22:1] $end
$var wire 32 (" sv2v_tmp_6B7F3 [32:1] $end
$var wire 2 )" sv2v_tmp_51F0D [2:1] $end
$var wire 2 *" state_q_3 [1:0] $end
$var wire 2 +" state_q_2 [1:0] $end
$var wire 2 ," state_q_1 [1:0] $end
$var wire 2 -" state_q_0 [1:0] $end
$var reg 292 ." commit_queue_n [291:0] $end
$var reg 292 /" commit_queue_q [291:0] $end
$var reg 2 0" commit_read_pointer_n [1:0] $end
$var reg 2 1" commit_read_pointer_q [1:0] $end
$var reg 1 : commit_ready_o $end
$var reg 3 2" commit_status_cnt_n [2:0] $end
$var reg 3 3" commit_status_cnt_q [2:0] $end
$var reg 2 4" commit_write_pointer_n [1:0] $end
$var reg 2 5" commit_write_pointer_q [1:0] $end
$var reg 1 7 no_st_pending_o $end
$var reg 1 5 page_offset_matches_o $end
$var reg 1 ] ready_o $end
$var reg 77 6" req_port_o [76:0] $end
$var reg 292 7" speculative_queue_n [291:0] $end
$var reg 292 8" speculative_queue_q [291:0] $end
$var reg 2 9" speculative_read_pointer_n [1:0] $end
$var reg 2 :" speculative_read_pointer_q [1:0] $end
$var reg 3 ;" speculative_status_cnt_n [2:0] $end
$var reg 3 <" speculative_status_cnt_q [2:0] $end
$var reg 2 =" speculative_write_pointer_n [1:0] $end
$var reg 2 >" speculative_write_pointer_q [1:0] $end
$scope function sv2v_cast_79500 $end
$upscope $end
$scope begin core_if $end
$var reg 5 ?" speculative_status_cnt [4:0] $end
$scope begin sv2v_autoblock_1 $end
$var reg 32 @" i [31:0] $end
$upscope $end
$upscope $end
$scope begin p_commit $end
$upscope $end
$scope begin p_spec $end
$upscope $end
$scope begin store_if $end
$var reg 5 A" commit_status_cnt [4:0] $end
$upscope $end
$scope begin sv2v_autoblock_2 $end
$var reg 2 B" _sv2v_jump [0:1] $end
$scope begin address_checker $end
$scope begin sv2v_autoblock_3 $end
$var reg 32 C" i [31:0] $end
$scope begin sv2v_autoblock_4 $end
$var reg 32 D" _sv2v_value_on_break [31:0] $end
$upscope $end
$upscope $end
$scope begin sv2v_autoblock_5 $end
$var reg 32 E" i [31:0] $end
$scope begin sv2v_autoblock_6 $end
$var reg 32 F" _sv2v_value_on_break [31:0] $end
$upscope $end
$upscope $end
$upscope $end
$upscope $end
$upscope $end
$scope begin store_control $end
$upscope $end
$upscope $end
$scope module su_model_i $end
$var wire 1 ? clk_i $end
$var wire 1 D commit_i $end
$var wire 32 G" instr_i [31:0] $end
$var wire 1 ( instr_valid_i $end
$var wire 12 H" page_offset_i [11:0] $end
$var wire 1 I" page_offset_matches_o $end
$var wire 1 B rst_ni $end
$var wire 1 , store_mem_resp_i $end
$var wire 1 J" ready_o $end
$var reg 32 K" CLK_CYCLE [31:0] $end
$var reg 8 L" instr_i_pc [7:0] $end
$var reg 2 M" queue_commit_ptr [1:0] $end
$var reg 2 N" queue_serve_ptr [1:0] $end
$var reg 2 O" queue_store_ptr [1:0] $end
$var reg 32 P" store_instr_i_queue_flatten_0 [31:0] $end
$var reg 8 Q" store_instr_i_queue_flatten_0_pc [7:0] $end
$var reg 32 R" store_instr_i_queue_flatten_1 [31:0] $end
$var reg 8 S" store_instr_i_queue_flatten_1_pc [7:0] $end
$var reg 32 T" store_instr_i_queue_flatten_2 [31:0] $end
$var reg 8 U" store_instr_i_queue_flatten_2_pc [7:0] $end
$var reg 32 V" store_instr_i_queue_flatten_3 [31:0] $end
$var reg 8 W" store_instr_i_queue_flatten_3_pc [7:0] $end
$var reg 2 X" store_instr_queue_state_flatten_0 [1:0] $end
$var reg 2 Y" store_instr_queue_state_flatten_1 [1:0] $end
$var reg 2 Z" store_instr_queue_state_flatten_2 [1:0] $end
$var reg 2 [" store_instr_queue_state_flatten_3 [1:0] $end
$upscope $end
$scope task lower_commit $end
$upscope $end
$scope task lower_memory_grant $end
$upscope $end
$scope task lower_store_request $end
$upscope $end
$scope task raise_commit $end
$upscope $end
$scope task raise_memory_grant $end
$upscope $end
$scope task raise_store_request $end
$var reg 32 \" data [31:0] $end
$var reg 32 ]" vaddr [31:0] $end
$upscope $end
$scope task set_page_offset $end
$var reg 12 ^" page_offset [11:0] $end
$upscope $end
$upscope $end
$enddefinitions $end
#0
$dumpvars
bx ^"
bx ]"
bx \"
bx ["
bx Z"
bx Y"
bx X"
bx W"
bx V"
bx U"
bx T"
bx S"
bx R"
bx Q"
bx P"
bx O"
bx N"
bx M"
bx L"
bx K"
xJ"
xI"
bz H"
bx G"
b11 F"
b100 E"
b11 D"
b100 C"
b0 B"
b0xxx A"
bx @"
b0xxx ?"
bx >"
bx ="
bx <"
bx ;"
bx :"
bx 9"
bx 8"
bx 7"
bx01xxxxxx00 6"
bx 5"
bx 4"
bx 3"
bx 2"
bx 1"
bx 0"
bx /"
bx ."
bx -"
bx ,"
bx +"
bx *"
bx )"
bx ("
bx '"
bx &"
bx %"
0$"
0#"
1""
b0 !"
bx ~
bx }
bx |
bx {
bx z
bx y
b0zzzzzz000000000000000000000000000000zzzzzzzzzzzzzzzzzzzzzzzzzzzzzzzzzz00000000000000000000000000000000zzzzzzzzzzzzzzzzzzzzzzzzzzzzzzzz x
bx w
0v
bx u
bx t
zs
b0 r
bx q
bz p
b0 o
b0 n
bx m
bx l
0k
0j
bx i
b11 h
bx g
b0 f
bx e
b0 d
b0 c
bx b
b0 a
b0zzzzzz000000000000000000000000000000zzzzzzzzzzzzzzzzzzzzzzzzzzzzzzzzzz00000000000000000000000000000000zzzzzzzzzzzzzzzzzzzzzzzzzzzzzzzz `
0_
bx01xxxxxx00 ^
x]
b0 \
b0 [
0Z
xY
b0 X
b0 W
bx V
bx U
b0 T
b0 S
b0 R
0Q
zP
b1000111100 O
bx N
bx M
0L
xK
b0 J
bx I
bx H
b0 G
xF
bx E
0D
b0 C
1B
bx A
bx @
1?
bx >
x=
b0 <
b0zzzzzz000000000000000000000000000000zzzzzzzzzzzzzzzzzzzzzzzzzzzzzzzzzz00000000000000000000000000000000zzzzzzzzzzzzzzzzzzzzzzzzzzzzzzzz ;
x:
b0 9
b0 8
x7
bx 6
05
04
bx01xxxxxx00 3
x2
b0 1
00
b0 /
0.
0-
x,
b0 +
b0 *
bx )
x(
bx '
0&
b0 %
1$
0#
0"
b0 !
$end
#10
0?
#20
0I"
b0x0100000000 3
b0x0100000000 ^
b0x0100000000 6"
12
b11 F"
b100 E"
b11 D"
b100 C"
b0 2"
b0 ."
b0 4"
b0 0"
17
1:
b0 A"
b0 -"
b0 ,"
b0 +"
b0 *"
b0 7"
b0 ="
b0 9"
b0 ;"
1Y
1]
b0 ?"
b0 l
b1 <
b0 3"
b0 5"
b0 %"
b0 '"
b0 ("
b0 &"
b0 )"
b0 1"
b0 /"
b0 <"
b0 >"
b0 :"
b0 8"
b0 L"
b0 M"
b0 N"
1J"
b0 O"
b0 ["
b0 Z"
b0 Y"
b0 X"
b0 W"
b0 U"
b0 S"
b0 Q"
b0 V"
b0 T"
b0 R"
b0 P"
b0 K"
b0 b
b0 q
b0 i
b0 u
b0 |
b0xxxxxxxxxxxxxxxxxxxxxxxxxxxxxxxxxx0000000000000000000000000000000000 y
b0 g
b0 t
b0 {
b0 e
b0 z
b0 m
1?
0B
#30
0?
#40
b10 <
1?
#50
0?
#60
xI"
b1 ;"
b1 ?"
b1 ="
b10000010010110101101100000000100110101011010100100010010101010110000101 7"
1Z
1k
1j
1.
b1 O"
1J"
b1 K"
b10 i
b10 u
b10 |
b11010101101010010001001010101011 g
b11010101101010010001001010101011 t
b11010101101010010001001010101011 {
b1 m
b11 <
b1 L"
b11 F"
b100 E"
b11 D"
b100 C"
b10 h
b11010101101010010001001010101011 f
b10000010010110101101100000000100 /
b10000010010110101101100000000100 \
14
10
b1 l
1?
1B
b10001111111 )
b10001111111 V
b10001111111 ~
b10001111111 I
b10001111111 ^"
b10000000000000000000000000000000000 *
b10000000000000000000000000000000000 W
b10000000000000000000000000000000000 !"
b10000000000000000000000000000000000 J
b10000010010110101101100000000100 '
b10000010010110101101100000000100 G"
b10000010010110101101100000000100 E
b10 C
b100000100101101011011000000001001101010110101001000100101010101110 y
b10000010010110101101100000000100 6
b10000010010110101101100000000100 H
b10000010010110101101100000000100 U
b10000010010110101101100000000100 w
b10000010010110101101100000000100 }
b1100000100101101011011000000001000110101011010100100010010101010110000001000100111000 8
b1100000100101101011011000000001000110101011010100100010010101010110000001000100111000 G
b1100000100101101011011000000001000110101011010100100010010101010110000001000100111000 T
1-
1L
b11010101101010010001001010101011 \"
b10000010010110101101100000000100 ]"
b11 >
1=
b10001111111 A
b11010101101010010001001010101011 @
b1110000010010110101101100000000100 M
b10101101110010000001111100101001 O
1(
1F
1,
1K
b0 N
#70
0?
#80
0Z
02
b11 -"
b1 ;"
b1 ?"
b1 ="
b10000010010110101101100000000100110101011010100100010010101010110000101 7"
b1 <"
b1 >"
b10000010010110101101100000000100110101011010100100010010101010110000101 8"
b11 i
b11 u
b11 |
b100000100101101011011000000001000000000000000000000000000000000011 y
b0 g
b0 t
b0 {
b0 m
b10 K"
b100 <
b11 X"
b10000010010110101101100000000100 P"
b11 F"
b100 E"
b11 D"
b100 C"
b11 h
b0 f
b0 l
04
0k
0j
0.
00
b0 /
b0 \
1?
b111010000010 )
b111010000010 V
b111010000010 ~
b111010000010 I
b111010000010 ^"
b1 C
b1 >
b111010000010 A
b11000101100000101111001010001011 @
b1111110001111111110000101011100011 M
b10001000101100101100010100000010 O
0(
0F
0,
0K
b0 *
b0 W
b0 !"
b0 J
0-
0L
b0 8
b0 G
b0 T
b1 N
#90
0?
#100
b100000000100001000001001011010110111010101101010010001001010101011x1100001000 3
b100000000100001000001001011010110111010101101010010001001010101011x1100001000 ^
b100000000100001000001001011010110111010101101010010001001010101011x1100001000 6"
07
b1 -"
b1 3"
b1 5"
b100000000100 %"
b10000010010110101101 '"
b11010101101010010001001010101011 ("
b10 )"
b10000010010110101101100000000100110101011010100100010010101010110000101 /"
b0 <"
b1 :"
b10000010010110101101100000000100110101011010100100010010101010110000100 8"
b1 M"
b11 K"
b101 <
b11 F"
b100 E"
b11 D"
b100 C"
b10 2"
b10 A"
b10 4"
b10000010010110101101100000000100110101011010100100010010101010110000101 ."
b111 ;"
b11111 ?"
b10 9"
b10000010010110101101100000000100110101011010100100010010101010110000100 7"
1?
b11011000011 )
b11011000011 V
b11011000011 ~
b11011000011 I
b11011000011 ^"
b0 C
1#
1D
b11011000011 A
b10111100001000011000100001111000 @
b1111010000001010101101111010100000 M
b11101110100110100101000110010111 O
b10 N
#110
0?
#120
b10 ="
b101110010100111100000010011100101011101111010000011010000011101100001010010000010010110101101100000000100110101011010100100010010101010110000100 7"
1Z
1k
1j
1.
b10 i
b10 u
b10 |
b10111011110100000110100000111011 g
b10111011110100000110100000111011 t
b10111011110100000110100000111011 {
b1 m
b10 O"
1J"
b100 K"
b110 <
b1 X"
b10 L"
b11 F"
b100 E"
b11 D"
b100 C"
b10 h
b10111011110100000110100000111011 f
b10111001010011110000001001110010 /
b10111001010011110000001001110010 \
14
10
b1 l
b1 2"
b100000000100001000001001011010110111010101101010010001001010101011x1100001000 3
b100000000100001000001001011010110111010101101010010001001010101011x1100001000 ^
b100000000100001000001001011010110111010101101010010001001010101011x1100001000 6"
b1 4"
b1 A"
b1 9"
b1 ;"
b1 ?"
1?
b110101110010 )
b110101110010 V
b110101110010 ~
b110101110010 I
b110101110010 ^"
1(
1F
b10111001010011110000001001110010 '
b10111001010011110000001001110010 G"
b10111001010011110000001001110010 E
b10 C
b101110010100111100000010011100101011101111010000011010000011101110 y
b10111001010011110000001001110010 6
b10111001010011110000001001110010 H
b10111001010011110000001001110010 U
b10111001010011110000001001110010 w
b10111001010011110000001001110010 }
b1101110010100111100000010011100100011010000011101110111011110100000000001000100111000 8
b1101110010100111100000010011100100011010000011101110111011110100000000001000100111000 G
b1101110010100111100000010011100100011010000011101110111011110100000000001000100111000 T
1-
1L
b1101000001110111011101111010000 \"
b10111001010011110000001001110010 ]"
b0 >
b110101110010 A
b1101000001110111011101111010000 @
b1110111001010011110000001001110010 M
b1101010011001100101010101111000 O
0#
0D
b11 N
#130
0?
#140
0Z
b100000000100001000001001011010110111010101101010010001001010101011x1100001000 3
b100000000100001000001001011010110111010101101010010001001010101011x1100001000 ^
b100000000100001000001001011010110111010101101010010001001010101011x1100001000 6"
b11 ,"
b1 ;"
b1 ?"
b10 ="
b101110010100111100000010011100101011101111010000011010000011101100001010010000010010110101101100000000100110101011010100100010010101010110000100 7"
b1 <"
b10 >"
b101110010100111100000010011100101011101111010000011010000011101100001010010000010010110101101100000000100110101011010100100010010101010110000100 8"
b101 K"
b11 i
b11 u
b11 |
b101110010100111100000010011100100000000000000000000000000000000011 y
b0 g
b0 t
b0 {
b0 m
b111 <
b11 Y"
b1 S"
b10111001010011110000001001110010 R"
b11 F"
b100 E"
b11 D"
b100 C"
b11 h
b0 f
b0 l
04
0k
0j
0.
00
b0 /
b0 \
1?
b101001000111 )
b101001000111 V
b101001000111 ~
b101001000111 I
b101001000111 ^"
b1 C
b10 >
0=
b101001000111 A
b110111000010100001000101101110 @
b111011110000011000101101110111 M
b1001011011111110110000011110101 O
0(
0F
0-
0L
b0 8
b0 G
b0 T
b100 N
#150
0?
#160
b1 ,"
b10 3"
b10 5"
b101110010100111100000010011100101011101111010000011010000011101100001010010000010010110101101100000000100110101011010100100010010101010110000101 /"
b0 <"
b10 :"
b101110010100111100000010011100101011101111010000011010000011101100001000010000010010110101101100000000100110101011010100100010010101010110000100 8"
b10 M"
b110 K"
b1000 <
b11 F"
b100 E"
b11 D"
b100 C"
b11 2"
b11 A"
b11 4"
b101110010100111100000010011100101011101111010000011010000011101100001010010000010010110101101100000000100110101011010100100010010101010110000101 ."
b100000000100001000001001011010110111010101101010010001001010101011x1100001000 3
b100000000100001000001001011010110111010101101010010001001010101011x1100001000 ^
b100000000100001000001001011010110111010101101010010001001010101011x1100001000 6"
b111 ;"
b11111 ?"
b11 9"
b101110010100111100000010011100101011101111010000011010000011101100001000010000010010110101101100000000100110101011010100100010010101010110000100 7"
1?
b11100000 )
b11100000 V
b11100000 ~
b11100000 I
b11100000 ^"
b0 C
1#
1D
b1 >
b11100000 A
b1101110010100001000010111011100 @
b1111001101111000100001011010011011 M
b1011010111011000011110100011110 O
b101 N
#170
0?
#180
b11 ="
b1000101101100101011110000001011010101101011111000011111001010010000010100101110010100111100000010011100101011101111010000011010000011101100001000010000010010110101101100000000100110101011010100100010010101010110000100 7"
b0 -"
1Z
1k
1j
1.
b1 3"
b1001110010 %"
b10111001010011110000 '"
b10111011110100000110100000111011 ("
b1 1"
b101110010100111100000010011100101011101111010000011010000011101100001010010000010010110101101100000000100110101011010100100010010101010110000100 /"
b1 N"
b11 O"
1J"
b111 K"
b10 i
b10 u
b10 |
b10101101011111000011111001010010 g
b10101101011111000011111001010010 t
b10101101011111000011111001010010 {
b1 m
b1001 <
b1 Y"
b11 L"
b11 F"
b100 E"
b11 D"
b100 C"
b10 h
b10101101011111000011111001010010 f
b10001011011001010111100000010110 /
b10001011011001010111100000010110 \
14
10
b1 l
b0 2"
b10 0"
b101110010100111100000010011100101011101111010000011010000011101100001000010000010010110101101100000000100110101011010100100010010101010110000100 ."
b1001110010001011100101001111000010111011110100000110100000111011x1100001000 3
b1001110010001011100101001111000010111011110100000110100000111011x1100001000 ^
b1001110010001011100101001111000010111011110100000110100000111011x1100001000 6"
b10 4"
b0 A"
b10 9"
b1 ;"
b1 ?"
1?
b100010001101 )
b100010001101 V
b100010001101 ~
b100010001101 I
b100010001101 ^"
1,
1K
b10000000000000000000000000000000000 *
b10000000000000000000000000000000000 W
b10000000000000000000000000000000000 !"
b10000000000000000000000000000000000 J
1(
1F
b10001011011001010111100000010110 '
b10001011011001010111100000010110 G"
b10001011011001010111100000010110 E
b10 C
b100010110110010101111000000101101010110101111100001111100101001010 y
b10001011011001010111100000010110 6
b10001011011001010111100000010110 H
b10001011011001010111100000010110 U
b10001011011001010111100000010110 w
b10001011011001010111100000010110 }
b1100010110110010101111000000101100001111100101001010101101011111000000001000100111000 8
b1100010110110010101111000000101100001111100101001010101101011111000000001000100111000 G
b1100010110110010101111000000101100001111100101001010101101011111000000001000100111000 T
1-
1L
b111110010100101010110101111100 \"
b10001011011001010111100000010110 ]"
b11 >
1=
b100010001101 A
b111110010100101010110101111100 @
b1110001011011001010111100000010110 M
b1011101100001000110000011000011 O
0#
0D
b110 N
#190
0?
#200
0Z
b11 +"
b1 ;"
b1 ?"
b11 ="
b1000101101100101011110000001011010101101011111000011111001010010000010100101110010100111100000010011100101011101111010000011010000011101100001000010000010010110101101100000000100110101011010100100010010101010110000100 7"
b1 <"
b11 >"
b1000101101100101011110000001011010101101011111000011111001010010000010100101110010100111100000010011100101011101111010000011010000011101100001000010000010010110101101100000000100110101011010100100010010101010110000100 8"
b11 i
b11 u
b11 |
b100010110110010101111000000101100000000000000000000000000000000011 y
b0 g
b0 t
b0 {
b0 m
b1000 K"
b1010 <
b11 Z"
b0 X"
b10 U"
b10001011011001010111100000010110 T"
b11 F"
b100 E"
b11 D"
b100 C"
b1 2"
b1001110010001011100101001111000010111011110100000110100000111011x1100001000 3
b1001110010001011100101001111000010111011110100000110100000111011x1100001000 ^
b1001110010001011100101001111000010111011110100000110100000111011x1100001000 6"
b101110010100111100000010011100101011101111010000011010000011101100001010010000010010110101101100000000100110101011010100100010010101010110000100 ."
b1 0"
b1 A"
b11 h
b0 f
b0 l
04
0k
0j
0.
00
b0 /
b0 \
1?
b10011110 )
b10011110 V
b10011110 ~
b10011110 I
b10011110 ^"
b1 C
b10 >
b10011110 A
b10101110101100111000100101011 @
b1111100101011100110010111111001 M
b100111010111100011000101110100 O
0(
0F
0,
0K
b0 *
b0 W
b0 !"
b0 J
0-
0L
b0 8
b0 G
b0 T
b111 N
#210
0?
#220
b1 +"
b10 3"
b11 5"
b1000101101100101011110000001011010101101011111000011111001010010000010100101110010100111100000010011100101011101111010000011010000011101100001010010000010010110101101100000000100110101011010100100010010101010110000100 /"
b0 <"
b11 :"
b1000101101100101011110000001011010101101011111000011111001010010000010000101110010100111100000010011100101011101111010000011010000011101100001000010000010010110101101100000000100110101011010100100010010101010110000100 8"
b11 M"
b1001 K"
b1011 <
b11 F"
b100 E"
b11 D"
b100 C"
b11 2"
b11 A"
b0 4"
b1000101101100101011110000001011010101101011111000011111001010010000010100101110010100111100000010011100101011101111010000011010000011101100001010010000010010110101101100000000100110101011010100100010010101010110000100 ."
b1001110010001011100101001111000010111011110100000110100000111011x1100001000 3
b1001110010001011100101001111000010111011110100000110100000111011x1100001000 ^
b1001110010001011100101001111000010111011110100000110100000111011x1100001000 6"
b111 ;"
b11111 ?"
b0 9"
b1000101101100101011110000001011010101101011111000011111001010010000010000101110010100111100000010011100101011101111010000011010000011101100001000010000010010110101101100000000100110101011010100100010010101010110000100 7"
1?
b11001101001 )
b11001101001 V
b11001101001 ~
b11001101001 I
b11001101001 ^"
b0 C
1#
1D
b0 >
0=
b11001101001 A
b11101000110000100111001011010001 @
b11001000111111100000000 M
b10111000000001110110000010000001 O
b1000 N
#230
0?
#240
b0 ="
b10011110010011111101011000111100101010000000001011111010010100000000101001000101101100101011110000001011010101101011111000011111001010010000010000101110010100111100000010011100101011101111010000011010000011101100001000010000010010110101101100000000100110101011010100100010010101010110000100 7"
1Z
1k
1j
1.
b10 i
b10 u
b10 |
b10101000000000101111101001010000 g
b10101000000000101111101001010000 t
b10101000000000101111101001010000 {
b1 m
b0 O"
1J"
b1010 K"
b1100 <
b1 Z"
b100 L"
b11 F"
b100 E"
b11 D"
b100 C"
b10 h
b10101000000000101111101001010000 f
b10011110010011111101011000111100 /
b10011110010011111101011000111100 \
14
10
b1 l
b10 2"
b1001110010001011100101001111000010111011110100000110100000111011x1100001000 3
b1001110010001011100101001111000010111011110100000110100000111011x1100001000 ^
b1001110010001011100101001111000010111011110100000110100000111011x1100001000 6"
b11 4"
b10 A"
b11 9"
b1 ;"
b1 ?"
1?
b10001010010 )
b10001010010 V
b10001010010 ~
b10001010010 I
b10001010010 ^"
1(
1F
b10011110010011111101011000111100 '
b10011110010011111101011000111100 G"
b10011110010011111101011000111100 E
b10 C
b100111100100111111010110001111001010100000000010111110100101000010 y
b10011110010011111101011000111100 6
b10011110010011111101011000111100 H
b10011110010011111101011000111100 U
b10011110010011111101011000111100 w
b10011110010011111101011000111100 }
b1100111100100111111010110001111000101010000000001011111010010100000000001000100111000 8
b1100111100100111111010110001111000101010000000001011111010010100000000001000100111000 G
b1100111100100111111010110001111000101010000000001011111010010100000000001000100111000 T
1-
1L
b10101000000000101111101001010000 \"
b10011110010011111101011000111100 ]"
b10 >
1=
b10001010010 A
b10101000000000101111101001010000 @
b1110011110010011111101011000111100 M
b100011000101100111001111111010 O
0#
0D
b1001 N
#250
0?
#260
0Z
b1001110010001011100101001111000010111011110100000110100000111011x1100001000 3
b1001110010001011100101001111000010111011110100000110100000111011x1100001000 ^
b1001110010001011100101001111000010111011110100000110100000111011x1100001000 6"
b11 *"
b1 ;"
b1 ?"
b0 ="
b10011110010011111101011000111100101010000000001011111010010100000000101001000101101100101011110000001011010101101011111000011111001010010000010000101110010100111100000010011100101011101111010000011010000011101100001000010000010010110101101100000000100110101011010100100010010101010110000100 7"
b1 <"
b0 >"
b10011110010011111101011000111100101010000000001011111010010100000000101001000101101100101011110000001011010101101011111000011111001010010000010000101110010100111100000010011100101011101111010000011010000011101100001000010000010010110101101100000000100110101011010100100010010101010110000100 8"
b1011 K"
b11 i
b11 u
b11 |
b100111100100111111010110001111000000000000000000000000000000000011 y
b0 g
b0 t
b0 {
b0 m
b1101 <
b11 ["
b11 W"
b10011110010011111101011000111100 V"
b11 F"
b100 E"
b11 D"
b100 C"
b11 h
b0 f
b0 l
04
0k
0j
0.
00
b0 /
b0 \
1?
b1101000110 )
b1101000110 V
b1101000110 ~
b1101000110 I
b1101000110 ^"
b1 C
b1 >
b1101000110 A
b10101101111111101101111001011011 @
b110000110110001001001101100001 M
b10100000111110100100101110101111 O
0(
0F
0-
0L
b0 8
b0 G
b0 T
b1010 N
#270
0?
#280
b1 *"
b11 3"
b0 5"
b10011110010011111101011000111100101010000000001011111010010100000000101001000101101100101011110000001011010101101011111000011111001010010000010100101110010100111100000010011100101011101111010000011010000011101100001010010000010010110101101100000000100110101011010100100010010101010110000100 /"
b0 <"
b0 :"
b10011110010011111101011000111100101010000000001011111010010100000000100001000101101100101011110000001011010101101011111000011111001010010000010000101110010100111100000010011100101011101111010000011010000011101100001000010000010010110101101100000000100110101011010100100010010101010110000100 8"
b0 M"
b1100 K"
b1110 <
b11 F"
b100 E"
b11 D"
b100 C"
b100 2"
b100 A"
b1 4"
b10011110010011111101011000111100101010000000001011111010010100000000101001000101101100101011110000001011010101101011111000011111001010010000010100101110010100111100000010011100101011101111010000011010000011101100001010010000010010110101101100000000100110101011010100100010010101010110000100 ."
b1001110010001011100101001111000010111011110100000110100000111011x1100001000 3
b1001110010001011100101001111000010111011110100000110100000111011x1100001000 ^
b1001110010001011100101001111000010111011110100000110100000111011x1100001000 6"
b111 ;"
b11111 ?"
b1 9"
b10011110010011111101011000111100101010000000001011111010010100000000100001000101101100101011110000001011010101101011111000011111001010010000010000101110010100111100000010011100101011101111010000011010000011101100001000010000010010110101101100000000100110101011010100100010010101010110000100 7"
1?
b101111011001 )
b101111011001 V
b101111011001 ~
b101111011001 I
b101111011001 ^"
b0 C
1#
1D
b101111011001 A
b11001111001000011101100010011110 @
b1101001111101011000000111010011 M
b10111000111000110011001000110000 O
b1011 N
#290
0?
